[ERROR] 2021-09-16 13:19:23,893 | /home/ubuntu/reagan-bench2/apps/frappe/frappe/app.py:
Site: reaganerp.com
Form Dict: {
 "action": "Save",
 "cmd": "frappe.desk.form.save.savedocs",
 "doc": "{\"docstatus\":0,\"doctype\":\"Countsheet Template\",\"name\":\"New Countsheet Template 1\",\"__islocal\":1,\"__unsaved\":1,\"owner\":\"Administrator\",\"menu_filter\":\"HONEYBON CAKES\",\"items\":[{\"docstatus\":0,\"doctype\":\"Items\",\"name\":\"New Items 1\",\"__islocal\":1,\"__unsaved\":1,\"owner\":\"Administrator\",\"parent\":\"New Countsheet Template 1\",\"parentfield\":\"items\",\"parenttype\":\"Countsheet Template\",\"idx\":1,\"item_code\":\"Packaging, White Paper Twine per KG\",\"item_group\":\"Supplies - Labels & Packaging\",\"whole_uom\":\"KG\",\"item_uom\":[\"GRAMS\",\"KG\"],\"broken_uom\":\"GRAMS\"},{\"docstatus\":0,\"doctype\":\"Items\",\"name\":\"New Items 2\",\"__islocal\":1,\"__unsaved\":1,\"owner\":\"Administrator\",\"parent\":\"New Countsheet Template 1\",\"parentfield\":\"items\",\"parenttype\":\"Countsheet Template\",\"idx\":2,\"item_code\":\"HB Cakebox Large 9.6 50'S\",\"item_group\":\"Supplies - Labels & Packaging\",\"whole_uom\":\"EACH\",\"item_uom\":\"PC,EACH\"},{\"docstatus\":0,\"doctype\":\"Items\",\"name\":\"New Items 3\",\"__islocal\":1,\"__unsaved\":1,\"owner\":\"Administrator\",\"parent\":\"New Countsheet Template 1\",\"parentfield\":\"items\",\"parenttype\":\"Countsheet Template\",\"idx\":3,\"item_code\":\"Label, Honeybon Sticker 5cm Round 1s\",\"item_group\":\"Supplies - Labels & Packaging\",\"whole_uom\":\"PC\",\"item_uom\":\"PC\"},{\"docstatus\":0,\"doctype\":\"Items\",\"name\":\"New Items 4\",\"__islocal\":1,\"__unsaved\":1,\"owner\":\"Administrator\",\"parent\":\"New Countsheet Template 1\",\"parentfield\":\"items\",\"parenttype\":\"Countsheet Template\",\"idx\":4,\"item_code\":\"Prep Bakery, HB Ensaymada 1'S\",\"item_group\":\"Prep Bakery\",\"whole_uom\":\"EACH\",\"item_uom\":\"EACH\"}],\"outlet_prep\":[{\"docstatus\":0,\"doctype\":\"Outlet Prep\",\"name\":\"New Outlet Prep 1\",\"__islocal\":1,\"__unsaved\":1,\"owner\":\"Administrator\",\"parent\":\"New Countsheet Template 1\",\"parentfield\":\"outlet_prep\",\"parenttype\":\"Countsheet Template\",\"idx\":1,\"item_code\":\"Prep Pastry, HB Tiramisu (Whole Cake)\",\"item_group\":\"Prep Pastry\",\"whole_uom\":\"EACH\"},{\"docstatus\":0,\"doctype\":\"Outlet Prep\",\"name\":\"New Outlet Prep 2\",\"__islocal\":1,\"__unsaved\":1,\"owner\":\"Administrator\",\"parent\":\"New Countsheet Template 1\",\"parentfield\":\"outlet_prep\",\"parenttype\":\"Countsheet Template\",\"idx\":2,\"item_code\":\"Prep Pastry, HB Black Forest Cake (Whole Cake)\",\"item_group\":\"Prep Pastry\",\"whole_uom\":\"EACH\"},{\"docstatus\":0,\"doctype\":\"Outlet Prep\",\"name\":\"New Outlet Prep 3\",\"__islocal\":1,\"__unsaved\":1,\"owner\":\"Administrator\",\"parent\":\"New Countsheet Template 1\",\"parentfield\":\"outlet_prep\",\"parenttype\":\"Countsheet Template\",\"idx\":3,\"item_code\":\"Prep Pastry, Mango Bits 800G\",\"item_group\":\"Prep Pastry\",\"whole_uom\":\"EACH\"},{\"docstatus\":0,\"doctype\":\"Outlet Prep\",\"name\":\"New Outlet Prep 4\",\"__islocal\":1,\"__unsaved\":1,\"owner\":\"Administrator\",\"parent\":\"New Countsheet Template 1\",\"parentfield\":\"outlet_prep\",\"parenttype\":\"Countsheet Template\",\"idx\":4,\"item_code\":\"Prep Pastry, HB Matcha Cappucino Whole Cake\",\"item_group\":\"Prep Pastry\",\"whole_uom\":\"EACH\"},{\"docstatus\":0,\"doctype\":\"Outlet Prep\",\"name\":\"New Outlet Prep 5\",\"__islocal\":1,\"__unsaved\":1,\"owner\":\"Administrator\",\"parent\":\"New Countsheet Template 1\",\"parentfield\":\"outlet_prep\",\"parenttype\":\"Countsheet Template\",\"idx\":5,\"item_code\":\"Prep Pastry, HB Double Fudge Choco Chip Cook (Yield: 12 Pieces)\",\"item_group\":\"Prep Pastry\",\"whole_uom\":\"EACH\"},{\"docstatus\":0,\"doctype\":\"Outlet Prep\",\"name\":\"New Outlet Prep 6\",\"__islocal\":1,\"__unsaved\":1,\"owner\":\"Administrator\",\"parent\":\"New Countsheet Template 1\",\"parentfield\":\"outlet_prep\",\"parenttype\":\"Countsheet Template\",\"idx\":6,\"item_code\":\"Prep Pastry, HB Mocha Crunch (Whole Cake)\",\"item_group\":\"Prep Pastry\",\"whole_uom\":\"EACH\"},{\"docstatus\":0,\"doctype\":\"Outlet Prep\",\"name\":\"New Outlet Prep 7\",\"__islocal\":1,\"__unsaved\":1,\"owner\":\"Administrator\",\"parent\":\"New Countsheet Template 1\",\"parentfield\":\"outlet_prep\",\"parenttype\":\"Countsheet Template\",\"idx\":7,\"item_code\":\"Prep Pastry, HB Chocolate Decadence (Whole)\",\"item_group\":\"Prep Pastry\",\"whole_uom\":\"EACH\"},{\"docstatus\":0,\"doctype\":\"Outlet Prep\",\"name\":\"New Outlet Prep 8\",\"__islocal\":1,\"__unsaved\":1,\"owner\":\"Administrator\",\"parent\":\"New Countsheet Template 1\",\"parentfield\":\"outlet_prep\",\"parenttype\":\"Countsheet Template\",\"idx\":8,\"item_code\":\"Prep Pastry, HB O Fudge Bars 6'S\",\"item_group\":\"Prep Pastry\",\"whole_uom\":\"EACH\"},{\"docstatus\":0,\"doctype\":\"Outlet Prep\",\"name\":\"New Outlet Prep 9\",\"__islocal\":1,\"__unsaved\":1,\"owner\":\"Administrator\",\"parent\":\"New Countsheet Template 1\",\"parentfield\":\"outlet_prep\",\"parenttype\":\"Countsheet Template\",\"idx\":9,\"item_code\":\"Prep Pastry, HB Ultimate Chocolate Cake (Whole Cake)\",\"item_group\":\"Prep Pastry\",\"whole_uom\":\"EACH\"},{\"docstatus\":0,\"doctype\":\"Outlet Prep\",\"name\":\"New Outlet Prep 10\",\"__islocal\":1,\"__unsaved\":1,\"owner\":\"Administrator\",\"parent\":\"New Countsheet Template 1\",\"parentfield\":\"outlet_prep\",\"parenttype\":\"Countsheet Template\",\"idx\":10,\"item_code\":\"Prep Pastry, HB Chocolate Caramel (Whole)\",\"item_group\":\"Prep Pastry\",\"whole_uom\":\"EACH\"},{\"docstatus\":0,\"doctype\":\"Outlet Prep\",\"name\":\"New Outlet Prep 11\",\"__islocal\":1,\"__unsaved\":1,\"owner\":\"Administrator\",\"parent\":\"New Countsheet Template 1\",\"parentfield\":\"outlet_prep\",\"parenttype\":\"Countsheet Template\",\"idx\":11,\"item_code\":\"Prep Pastry, Mango Float 170G\",\"item_group\":\"Prep Pastry\",\"whole_uom\":\"EACH\"},{\"docstatus\":0,\"doctype\":\"Outlet Prep\",\"name\":\"New Outlet Prep 12\",\"__islocal\":1,\"__unsaved\":1,\"owner\":\"Administrator\",\"parent\":\"New Countsheet Template 1\",\"parentfield\":\"outlet_prep\",\"parenttype\":\"Countsheet Template\",\"idx\":12,\"item_code\":\"Prep Pastry, HB Mango Brazo (Whole Cake)\",\"item_group\":\"Prep Pastry\",\"whole_uom\":\"EACH\"},{\"docstatus\":0,\"doctype\":\"Outlet Prep\",\"name\":\"New Outlet Prep 13\",\"__islocal\":1,\"__unsaved\":1,\"owner\":\"Administrator\",\"parent\":\"New Countsheet Template 1\",\"parentfield\":\"outlet_prep\",\"parenttype\":\"Countsheet Template\",\"idx\":13,\"item_code\":\"Prep Pastry, HB Red Velvet (Event Cake)\",\"item_group\":\"Prep Pastry\",\"whole_uom\":\"EACH\"},{\"docstatus\":0,\"doctype\":\"Outlet Prep\",\"name\":\"New Outlet Prep 14\",\"__islocal\":1,\"__unsaved\":1,\"owner\":\"Administrator\",\"parent\":\"New Countsheet Template 1\",\"parentfield\":\"outlet_prep\",\"parenttype\":\"Countsheet Template\",\"idx\":14,\"item_code\":\"Prep Pastry, HB Mango Sonata (Whole Cake)\",\"item_group\":\"Prep Pastry\",\"whole_uom\":\"EACH\"},{\"docstatus\":0,\"doctype\":\"Outlet Prep\",\"name\":\"New Outlet Prep 15\",\"__islocal\":1,\"__unsaved\":1,\"owner\":\"Administrator\",\"parent\":\"New Countsheet Template 1\",\"parentfield\":\"outlet_prep\",\"parenttype\":\"Countsheet Template\",\"idx\":15,\"item_code\":\"Prep Pastry, HB Roasted Cocoa Mousse (Whole Cake)\",\"item_group\":\"Prep Pastry\",\"whole_uom\":\"EACH\"},{\"docstatus\":0,\"doctype\":\"Outlet Prep\",\"name\":\"New Outlet Prep 16\",\"__islocal\":1,\"__unsaved\":1,\"owner\":\"Administrator\",\"parent\":\"New Countsheet Template 1\",\"parentfield\":\"outlet_prep\",\"parenttype\":\"Countsheet Template\",\"idx\":16,\"item_code\":\"Prep Pastry, Ube Queso 180G\",\"item_group\":\"Prep Pastry\",\"whole_uom\":\"EACH\"},{\"docstatus\":0,\"doctype\":\"Outlet Prep\",\"name\":\"New Outlet Prep 17\",\"__islocal\":1,\"__unsaved\":1,\"owner\":\"Administrator\",\"parent\":\"New Countsheet Template 1\",\"parentfield\":\"outlet_prep\",\"parenttype\":\"Countsheet Template\",\"idx\":17,\"item_code\":\"Prep Pastry, HB O Fudge Bars 12'S\",\"item_group\":\"Prep Pastry\",\"whole_uom\":\"EACH\"},{\"docstatus\":0,\"doctype\":\"Outlet Prep\",\"name\":\"New Outlet Prep 18\",\"__islocal\":1,\"__unsaved\":1,\"owner\":\"Administrator\",\"parent\":\"New Countsheet Template 1\",\"parentfield\":\"outlet_prep\",\"parenttype\":\"Countsheet Template\",\"idx\":18,\"item_code\":\"Prep Pastry, HB White Choco Chunks Cookies 6'S\",\"item_group\":\"Prep Pastry\",\"whole_uom\":\"EACH\"},{\"docstatus\":0,\"doctype\":\"Outlet Prep\",\"name\":\"New Outlet Prep 19\",\"__islocal\":1,\"__unsaved\":1,\"owner\":\"Administrator\",\"parent\":\"New Countsheet Template 1\",\"parentfield\":\"outlet_prep\",\"parenttype\":\"Countsheet Template\",\"idx\":19,\"item_code\":\"Prep Pastry, HB Red Velvet (Whole Cake)\",\"item_group\":\"Prep Pastry\",\"whole_uom\":\"EACH\"},{\"docstatus\":0,\"doctype\":\"Outlet Prep\",\"name\":\"New Outlet Prep 20\",\"__islocal\":1,\"__unsaved\":1,\"owner\":\"Administrator\",\"parent\":\"New Countsheet Template 1\",\"parentfield\":\"outlet_prep\",\"parenttype\":\"Countsheet Template\",\"idx\":20,\"item_code\":\"Prep Pastry, HB Classic Ube Cake Whole Cake\",\"item_group\":\"Prep Pastry\",\"whole_uom\":\"EACH\"},{\"docstatus\":0,\"doctype\":\"Outlet Prep\",\"name\":\"New Outlet Prep 21\",\"__islocal\":1,\"__unsaved\":1,\"owner\":\"Administrator\",\"parent\":\"New Countsheet Template 1\",\"parentfield\":\"outlet_prep\",\"parenttype\":\"Countsheet Template\",\"idx\":21,\"item_code\":\"Prep Pastry, HB Strawberry Shortcake (Whole Cake)\",\"item_group\":\"Prep Pastry\",\"whole_uom\":\"EACH\"},{\"docstatus\":0,\"doctype\":\"Outlet Prep\",\"name\":\"New Outlet Prep 22\",\"__islocal\":1,\"__unsaved\":1,\"owner\":\"Administrator\",\"parent\":\"New Countsheet Template 1\",\"parentfield\":\"outlet_prep\",\"parenttype\":\"Countsheet Template\",\"idx\":22,\"item_code\":\"Prep Pastry, HB Double Choco Chunks Cookies 6'S\",\"item_group\":\"Prep Pastry\",\"whole_uom\":\"EACH\"},{\"docstatus\":0,\"doctype\":\"Outlet Prep\",\"name\":\"New Outlet Prep 23\",\"__islocal\":1,\"__unsaved\":1,\"owner\":\"Administrator\",\"parent\":\"New Countsheet Template 1\",\"parentfield\":\"outlet_prep\",\"parenttype\":\"Countsheet Template\",\"idx\":23,\"item_code\":\"Prep Pastry, HB Brownies 6'S\",\"item_group\":\"Prep Pastry\",\"whole_uom\":\"EACH\"},{\"docstatus\":0,\"doctype\":\"Outlet Prep\",\"name\":\"New Outlet Prep 24\",\"__islocal\":1,\"__unsaved\":1,\"owner\":\"Administrator\",\"parent\":\"New Countsheet Template 1\",\"parentfield\":\"outlet_prep\",\"parenttype\":\"Countsheet Template\",\"idx\":24,\"item_code\":\"Prep Pastry, HB Mango Cheesecake Whole Cake\",\"item_group\":\"Prep Pastry\",\"whole_uom\":\"EACH\"},{\"docstatus\":0,\"doctype\":\"Outlet Prep\",\"name\":\"New Outlet Prep 25\",\"__islocal\":1,\"__unsaved\":1,\"owner\":\"Administrator\",\"parent\":\"New Countsheet Template 1\",\"parentfield\":\"outlet_prep\",\"parenttype\":\"Countsheet Template\",\"idx\":25,\"item_code\":\"Prep Pastry, HB Brazo De Mercedes (Event Cake)\",\"item_group\":\"Prep Pastry\",\"whole_uom\":\"EACH\"},{\"docstatus\":0,\"doctype\":\"Outlet Prep\",\"name\":\"New Outlet Prep 26\",\"__islocal\":1,\"__unsaved\":1,\"owner\":\"Administrator\",\"parent\":\"New Countsheet Template 1\",\"parentfield\":\"outlet_prep\",\"parenttype\":\"Countsheet Template\",\"idx\":26,\"item_code\":\"Prep Pastry, HB Choco Crinkles 12'S\",\"item_group\":\"Prep Pastry\",\"whole_uom\":\"EACH\"},{\"docstatus\":0,\"doctype\":\"Outlet Prep\",\"name\":\"New Outlet Prep 27\",\"__islocal\":1,\"__unsaved\":1,\"owner\":\"Administrator\",\"parent\":\"New Countsheet Template 1\",\"parentfield\":\"outlet_prep\",\"parenttype\":\"Countsheet Template\",\"idx\":27,\"item_code\":\"Prep Pastry, HB White Choco Chunks Cookies 12'S\",\"item_group\":\"Prep Pastry\",\"whole_uom\":\"EACH\"},{\"docstatus\":0,\"doctype\":\"Outlet Prep\",\"name\":\"New Outlet Prep 28\",\"__islocal\":1,\"__unsaved\":1,\"owner\":\"Administrator\",\"parent\":\"New Countsheet Template 1\",\"parentfield\":\"outlet_prep\",\"parenttype\":\"Countsheet Template\",\"idx\":28,\"item_code\":\"Prep Pastry, HB Cr\u00e8me Brulee Cake (Whole Cake)\",\"item_group\":\"Prep Pastry\",\"whole_uom\":\"EACH\"},{\"docstatus\":0,\"doctype\":\"Outlet Prep\",\"name\":\"New Outlet Prep 29\",\"__islocal\":1,\"__unsaved\":1,\"owner\":\"Administrator\",\"parent\":\"New Countsheet Template 1\",\"parentfield\":\"outlet_prep\",\"parenttype\":\"Countsheet Template\",\"idx\":29,\"item_code\":\"Prep Pastry, HB Sansrival (Whole Cake)\",\"item_group\":\"Prep Pastry\",\"whole_uom\":\"EACH\"},{\"docstatus\":0,\"doctype\":\"Outlet Prep\",\"name\":\"New Outlet Prep 30\",\"__islocal\":1,\"__unsaved\":1,\"owner\":\"Administrator\",\"parent\":\"New Countsheet Template 1\",\"parentfield\":\"outlet_prep\",\"parenttype\":\"Countsheet Template\",\"idx\":30,\"item_code\":\"Prep Pastry, HB Brownies 12'S\",\"item_group\":\"Prep Pastry\",\"whole_uom\":\"EACH\"},{\"docstatus\":0,\"doctype\":\"Outlet Prep\",\"name\":\"New Outlet Prep 31\",\"__islocal\":1,\"__unsaved\":1,\"owner\":\"Administrator\",\"parent\":\"New Countsheet Template 1\",\"parentfield\":\"outlet_prep\",\"parenttype\":\"Countsheet Template\",\"idx\":31,\"item_code\":\"Prep Pastry, Japanese Cheesecake Cream 900G\",\"item_group\":\"Prep Pastry\",\"whole_uom\":\"EACH\"}],\"countsheet_type_name\":\"n\"}"
}
Request Error
Traceback (most recent call last):
  File "/home/ubuntu/reagan-bench2/apps/frappe/frappe/app.py", line 67, in application
    response = frappe.api.handle()
  File "/home/ubuntu/reagan-bench2/apps/frappe/frappe/api.py", line 59, in handle
    return frappe.handler.handle()
  File "/home/ubuntu/reagan-bench2/apps/frappe/frappe/handler.py", line 24, in handle
    data = execute_cmd(cmd)
  File "/home/ubuntu/reagan-bench2/apps/frappe/frappe/handler.py", line 64, in execute_cmd
    return frappe.call(method, **frappe.form_dict)
  File "/home/ubuntu/reagan-bench2/apps/frappe/frappe/__init__.py", line 1075, in call
    return fn(*args, **newargs)
  File "/home/ubuntu/reagan-bench2/apps/frappe/frappe/desk/form/save.py", line 12, in savedocs
    doc = frappe.get_doc(json.loads(doc))
  File "/home/ubuntu/reagan-bench2/apps/frappe/frappe/__init__.py", line 765, in get_doc
    doc = frappe.model.document.get_doc(*args, **kwargs)
  File "/home/ubuntu/reagan-bench2/apps/frappe/frappe/model/document.py", line 71, in get_doc
    return controller(*args, **kwargs)
  File "/home/ubuntu/reagan-bench2/apps/frappe/frappe/model/document.py", line 115, in __init__
    super(Document, self).__init__(kwargs)
  File "/home/ubuntu/reagan-bench2/apps/frappe/frappe/model/base_document.py", line 66, in __init__
    self.update(d)
  File "/home/ubuntu/reagan-bench2/apps/frappe/frappe/model/base_document.py", line 89, in update
    self.set(key, value)
  File "/home/ubuntu/reagan-bench2/apps/frappe/frappe/model/base_document.py", line 136, in set
    self.extend(key, value)
  File "/home/ubuntu/reagan-bench2/apps/frappe/frappe/model/base_document.py", line 173, in extend
    self.append(key, v)
  File "/home/ubuntu/reagan-bench2/apps/frappe/frappe/model/base_document.py", line 150, in append
    value = self._init_child(value, key)
  File "/home/ubuntu/reagan-bench2/apps/frappe/frappe/model/base_document.py", line 189, in _init_child
    value = get_controller(value["doctype"])(value)
  File "/home/ubuntu/reagan-bench2/apps/frappe/frappe/model/document.py", line 115, in __init__
    super(Document, self).__init__(kwargs)
  File "/home/ubuntu/reagan-bench2/apps/frappe/frappe/model/base_document.py", line 66, in __init__
    self.update(d)
  File "/home/ubuntu/reagan-bench2/apps/frappe/frappe/model/base_document.py", line 89, in update
    self.set(key, value)
  File "/home/ubuntu/reagan-bench2/apps/frappe/frappe/model/base_document.py", line 136, in set
    self.extend(key, value)
  File "/home/ubuntu/reagan-bench2/apps/frappe/frappe/model/base_document.py", line 173, in extend
    self.append(key, v)
  File "/home/ubuntu/reagan-bench2/apps/frappe/frappe/model/base_document.py", line 165, in append
    raise ValueError(
ValueError: Document for field "item_uom" attached to child table of "New Items 1" must be a dict or BaseDocument, not class 'str' (GRAMS)
[ERROR] 2021-09-16 13:34:49,984 | /home/ubuntu/reagan-bench2/apps/frappe/frappe/app.py:
Site: reaganerp.com
Form Dict: {
 "action": "Save",
 "cmd": "frappe.desk.form.save.savedocs",
 "doc": "{\"docstatus\":0,\"doctype\":\"Countsheet Template\",\"name\":\"New Countsheet Template 1\",\"__islocal\":1,\"__unsaved\":1,\"owner\":\"Administrator\",\"menu_filter\":\"HONEYBON CAKES\",\"items\":[{\"docstatus\":0,\"doctype\":\"Items\",\"name\":\"New Items 1\",\"__islocal\":1,\"__unsaved\":1,\"owner\":\"Administrator\",\"parent\":\"New Countsheet Template 1\",\"parentfield\":\"items\",\"parenttype\":\"Countsheet Template\",\"idx\":1,\"item_code\":\"Packaging, White Paper Twine per KG\",\"item_group\":\"Supplies - Labels & Packaging\",\"whole_uom\":\"KG\",\"item_uom\":[\"GRAMS\",\"KG\"],\"broken_uom\":\"GRAMS\"},{\"docstatus\":0,\"doctype\":\"Items\",\"name\":\"New Items 2\",\"__islocal\":1,\"__unsaved\":1,\"owner\":\"Administrator\",\"parent\":\"New Countsheet Template 1\",\"parentfield\":\"items\",\"parenttype\":\"Countsheet Template\",\"idx\":2,\"item_code\":\"HB Cakebox Large 9.6 50'S\",\"item_group\":\"Supplies - Labels & Packaging\",\"whole_uom\":\"EACH\",\"item_uom\":\"PC,EACH\"},{\"docstatus\":0,\"doctype\":\"Items\",\"name\":\"New Items 3\",\"__islocal\":1,\"__unsaved\":1,\"owner\":\"Administrator\",\"parent\":\"New Countsheet Template 1\",\"parentfield\":\"items\",\"parenttype\":\"Countsheet Template\",\"idx\":3,\"item_code\":\"Label, Honeybon Sticker 5cm Round 1s\",\"item_group\":\"Supplies - Labels & Packaging\",\"whole_uom\":\"PC\",\"item_uom\":\"PC\"},{\"docstatus\":0,\"doctype\":\"Items\",\"name\":\"New Items 4\",\"__islocal\":1,\"__unsaved\":1,\"owner\":\"Administrator\",\"parent\":\"New Countsheet Template 1\",\"parentfield\":\"items\",\"parenttype\":\"Countsheet Template\",\"idx\":4,\"item_code\":\"Prep Bakery, HB Ensaymada 1'S\",\"item_group\":\"Prep Bakery\",\"whole_uom\":\"EACH\",\"item_uom\":\"EACH\"}],\"outlet_prep\":[{\"docstatus\":0,\"doctype\":\"Outlet Prep\",\"name\":\"New Outlet Prep 1\",\"__islocal\":1,\"__unsaved\":1,\"owner\":\"Administrator\",\"parent\":\"New Countsheet Template 1\",\"parentfield\":\"outlet_prep\",\"parenttype\":\"Countsheet Template\",\"idx\":1,\"item_code\":\"Prep Pastry, Mango Bits 800G\",\"item_group\":\"Prep Pastry\",\"whole_uom\":\"EACH\",\"item_uom\":\"GRAMS,EACH\"},{\"docstatus\":0,\"doctype\":\"Outlet Prep\",\"name\":\"New Outlet Prep 2\",\"__islocal\":1,\"__unsaved\":1,\"owner\":\"Administrator\",\"parent\":\"New Countsheet Template 1\",\"parentfield\":\"outlet_prep\",\"parenttype\":\"Countsheet Template\",\"idx\":2,\"item_code\":\"Prep Pastry, HB Matcha Cappucino Whole Cake\",\"item_group\":\"Prep Pastry\",\"whole_uom\":\"EACH\",\"item_uom\":\"EACH,SLICE\"},{\"docstatus\":0,\"doctype\":\"Outlet Prep\",\"name\":\"New Outlet Prep 3\",\"__islocal\":1,\"__unsaved\":1,\"owner\":\"Administrator\",\"parent\":\"New Countsheet Template 1\",\"parentfield\":\"outlet_prep\",\"parenttype\":\"Countsheet Template\",\"idx\":3,\"item_code\":\"Prep Pastry, HB Black Forest Cake (Whole Cake)\",\"item_group\":\"Prep Pastry\",\"whole_uom\":\"EACH\",\"item_uom\":\"SLICE,EACH\"},{\"docstatus\":0,\"doctype\":\"Outlet Prep\",\"name\":\"New Outlet Prep 4\",\"__islocal\":1,\"__unsaved\":1,\"owner\":\"Administrator\",\"parent\":\"New Countsheet Template 1\",\"parentfield\":\"outlet_prep\",\"parenttype\":\"Countsheet Template\",\"idx\":4,\"item_code\":\"Prep Pastry, HB Tiramisu (Whole Cake)\",\"item_group\":\"Prep Pastry\",\"whole_uom\":\"EACH\",\"item_uom\":\"EACH,SLICE\"},{\"docstatus\":0,\"doctype\":\"Outlet Prep\",\"name\":\"New Outlet Prep 5\",\"__islocal\":1,\"__unsaved\":1,\"owner\":\"Administrator\",\"parent\":\"New Countsheet Template 1\",\"parentfield\":\"outlet_prep\",\"parenttype\":\"Countsheet Template\",\"idx\":5,\"item_code\":\"Prep Pastry, HB Double Fudge Choco Chip Cook (Yield: 12 Pieces)\",\"item_group\":\"Prep Pastry\",\"whole_uom\":\"EACH\",\"item_uom\":\"EACH,PC\"},{\"docstatus\":0,\"doctype\":\"Outlet Prep\",\"name\":\"New Outlet Prep 6\",\"__islocal\":1,\"__unsaved\":1,\"owner\":\"Administrator\",\"parent\":\"New Countsheet Template 1\",\"parentfield\":\"outlet_prep\",\"parenttype\":\"Countsheet Template\",\"idx\":6,\"item_code\":\"Prep Pastry, HB Mocha Crunch (Whole Cake)\",\"item_group\":\"Prep Pastry\",\"whole_uom\":\"EACH\",\"item_uom\":\"EACH,SLICE\"},{\"docstatus\":0,\"doctype\":\"Outlet Prep\",\"name\":\"New Outlet Prep 7\",\"__islocal\":1,\"__unsaved\":1,\"owner\":\"Administrator\",\"parent\":\"New Countsheet Template 1\",\"parentfield\":\"outlet_prep\",\"parenttype\":\"Countsheet Template\",\"idx\":7,\"item_code\":\"Prep Pastry, HB Ultimate Chocolate Cake (Whole Cake)\",\"item_group\":\"Prep Pastry\",\"whole_uom\":\"EACH\",\"item_uom\":\"EACH,SLICE\"},{\"docstatus\":0,\"doctype\":\"Outlet Prep\",\"name\":\"New Outlet Prep 8\",\"__islocal\":1,\"__unsaved\":1,\"owner\":\"Administrator\",\"parent\":\"New Countsheet Template 1\",\"parentfield\":\"outlet_prep\",\"parenttype\":\"Countsheet Template\",\"idx\":8,\"item_code\":\"Prep Pastry, HB Chocolate Caramel (Whole)\",\"item_group\":\"Prep Pastry\",\"whole_uom\":\"EACH\",\"item_uom\":\"SLICE,EACH\"},{\"docstatus\":0,\"doctype\":\"Outlet Prep\",\"name\":\"New Outlet Prep 9\",\"__islocal\":1,\"__unsaved\":1,\"owner\":\"Administrator\",\"parent\":\"New Countsheet Template 1\",\"parentfield\":\"outlet_prep\",\"parenttype\":\"Countsheet Template\",\"idx\":9,\"item_code\":\"Prep Pastry, HB O Fudge Bars 6'S\",\"item_group\":\"Prep Pastry\",\"whole_uom\":\"EACH\",\"item_uom\":\"EACH\"},{\"docstatus\":0,\"doctype\":\"Outlet Prep\",\"name\":\"New Outlet Prep 10\",\"__islocal\":1,\"__unsaved\":1,\"owner\":\"Administrator\",\"parent\":\"New Countsheet Template 1\",\"parentfield\":\"outlet_prep\",\"parenttype\":\"Countsheet Template\",\"idx\":10,\"item_code\":\"Prep Pastry, HB Chocolate Decadence (Whole)\",\"item_group\":\"Prep Pastry\",\"whole_uom\":\"EACH\",\"item_uom\":\"SLICE,EACH\"},{\"docstatus\":0,\"doctype\":\"Outlet Prep\",\"name\":\"New Outlet Prep 11\",\"__islocal\":1,\"__unsaved\":1,\"owner\":\"Administrator\",\"parent\":\"New Countsheet Template 1\",\"parentfield\":\"outlet_prep\",\"parenttype\":\"Countsheet Template\",\"idx\":11,\"item_code\":\"Prep Pastry, Mango Float 170G\",\"item_group\":\"Prep Pastry\",\"whole_uom\":\"EACH\",\"item_uom\":\"EACH,GRAMS\"},{\"docstatus\":0,\"doctype\":\"Outlet Prep\",\"name\":\"New Outlet Prep 12\",\"__islocal\":1,\"__unsaved\":1,\"owner\":\"Administrator\",\"parent\":\"New Countsheet Template 1\",\"parentfield\":\"outlet_prep\",\"parenttype\":\"Countsheet Template\",\"idx\":12,\"item_code\":\"Prep Pastry, HB Mango Brazo (Whole Cake)\",\"item_group\":\"Prep Pastry\",\"whole_uom\":\"EACH\",\"item_uom\":\"SLICE,EACH\"},{\"docstatus\":0,\"doctype\":\"Outlet Prep\",\"name\":\"New Outlet Prep 13\",\"__islocal\":1,\"__unsaved\":1,\"owner\":\"Administrator\",\"parent\":\"New Countsheet Template 1\",\"parentfield\":\"outlet_prep\",\"parenttype\":\"Countsheet Template\",\"idx\":13,\"item_code\":\"Prep Pastry, HB Mango Sonata (Whole Cake)\",\"item_group\":\"Prep Pastry\",\"whole_uom\":\"EACH\",\"item_uom\":\"EACH,SLICE\"},{\"docstatus\":0,\"doctype\":\"Outlet Prep\",\"name\":\"New Outlet Prep 14\",\"__islocal\":1,\"__unsaved\":1,\"owner\":\"Administrator\",\"parent\":\"New Countsheet Template 1\",\"parentfield\":\"outlet_prep\",\"parenttype\":\"Countsheet Template\",\"idx\":14,\"item_code\":\"Prep Pastry, HB Roasted Cocoa Mousse (Whole Cake)\",\"item_group\":\"Prep Pastry\",\"whole_uom\":\"EACH\",\"item_uom\":\"EACH,SLICE\"},{\"docstatus\":0,\"doctype\":\"Outlet Prep\",\"name\":\"New Outlet Prep 15\",\"__islocal\":1,\"__unsaved\":1,\"owner\":\"Administrator\",\"parent\":\"New Countsheet Template 1\",\"parentfield\":\"outlet_prep\",\"parenttype\":\"Countsheet Template\",\"idx\":15,\"item_code\":\"Prep Pastry, Ube Queso 180G\",\"item_group\":\"Prep Pastry\",\"whole_uom\":\"EACH\",\"item_uom\":\"EACH\"},{\"docstatus\":0,\"doctype\":\"Outlet Prep\",\"name\":\"New Outlet Prep 16\",\"__islocal\":1,\"__unsaved\":1,\"owner\":\"Administrator\",\"parent\":\"New Countsheet Template 1\",\"parentfield\":\"outlet_prep\",\"parenttype\":\"Countsheet Template\",\"idx\":16,\"item_code\":\"Prep Pastry, HB Red Velvet (Event Cake)\",\"item_group\":\"Prep Pastry\",\"whole_uom\":\"EACH\",\"item_uom\":\"SLICE,EACH\"},{\"docstatus\":0,\"doctype\":\"Outlet Prep\",\"name\":\"New Outlet Prep 17\",\"__islocal\":1,\"__unsaved\":1,\"owner\":\"Administrator\",\"parent\":\"New Countsheet Template 1\",\"parentfield\":\"outlet_prep\",\"parenttype\":\"Countsheet Template\",\"idx\":17,\"item_code\":\"Prep Pastry, HB O Fudge Bars 12'S\",\"item_group\":\"Prep Pastry\",\"whole_uom\":\"EACH\",\"item_uom\":\"EACH\"},{\"docstatus\":0,\"doctype\":\"Outlet Prep\",\"name\":\"New Outlet Prep 18\",\"__islocal\":1,\"__unsaved\":1,\"owner\":\"Administrator\",\"parent\":\"New Countsheet Template 1\",\"parentfield\":\"outlet_prep\",\"parenttype\":\"Countsheet Template\",\"idx\":18,\"item_code\":\"Prep Pastry, HB White Choco Chunks Cookies 6'S\",\"item_group\":\"Prep Pastry\",\"whole_uom\":\"EACH\",\"item_uom\":\"EACH,PC\"},{\"docstatus\":0,\"doctype\":\"Outlet Prep\",\"name\":\"New Outlet Prep 19\",\"__islocal\":1,\"__unsaved\":1,\"owner\":\"Administrator\",\"parent\":\"New Countsheet Template 1\",\"parentfield\":\"outlet_prep\",\"parenttype\":\"Countsheet Template\",\"idx\":19,\"item_code\":\"Prep Pastry, HB Red Velvet (Whole Cake)\",\"item_group\":\"Prep Pastry\",\"whole_uom\":\"EACH\",\"item_uom\":\"EACH,SLICE\"},{\"docstatus\":0,\"doctype\":\"Outlet Prep\",\"name\":\"New Outlet Prep 20\",\"__islocal\":1,\"__unsaved\":1,\"owner\":\"Administrator\",\"parent\":\"New Countsheet Template 1\",\"parentfield\":\"outlet_prep\",\"parenttype\":\"Countsheet Template\",\"idx\":20,\"item_code\":\"Prep Pastry, HB Classic Ube Cake Whole Cake\",\"item_group\":\"Prep Pastry\",\"whole_uom\":\"EACH\",\"item_uom\":\"EACH,SLICE\"},{\"docstatus\":0,\"doctype\":\"Outlet Prep\",\"name\":\"New Outlet Prep 21\",\"__islocal\":1,\"__unsaved\":1,\"owner\":\"Administrator\",\"parent\":\"New Countsheet Template 1\",\"parentfield\":\"outlet_prep\",\"parenttype\":\"Countsheet Template\",\"idx\":21,\"item_code\":\"Prep Pastry, HB Strawberry Shortcake (Whole Cake)\",\"item_group\":\"Prep Pastry\",\"whole_uom\":\"EACH\",\"item_uom\":\"SLICE,EACH\"},{\"docstatus\":0,\"doctype\":\"Outlet Prep\",\"name\":\"New Outlet Prep 22\",\"__islocal\":1,\"__unsaved\":1,\"owner\":\"Administrator\",\"parent\":\"New Countsheet Template 1\",\"parentfield\":\"outlet_prep\",\"parenttype\":\"Countsheet Template\",\"idx\":22,\"item_code\":\"Prep Pastry, HB Double Choco Chunks Cookies 6'S\",\"item_group\":\"Prep Pastry\",\"whole_uom\":\"EACH\",\"item_uom\":\"PC,EACH\"},{\"docstatus\":0,\"doctype\":\"Outlet Prep\",\"name\":\"New Outlet Prep 23\",\"__islocal\":1,\"__unsaved\":1,\"owner\":\"Administrator\",\"parent\":\"New Countsheet Template 1\",\"parentfield\":\"outlet_prep\",\"parenttype\":\"Countsheet Template\",\"idx\":23,\"item_code\":\"Prep Pastry, HB Mango Cheesecake Whole Cake\",\"item_group\":\"Prep Pastry\",\"whole_uom\":\"EACH\",\"item_uom\":\"EACH,SLICE\"},{\"docstatus\":0,\"doctype\":\"Outlet Prep\",\"name\":\"New Outlet Prep 24\",\"__islocal\":1,\"__unsaved\":1,\"owner\":\"Administrator\",\"parent\":\"New Countsheet Template 1\",\"parentfield\":\"outlet_prep\",\"parenttype\":\"Countsheet Template\",\"idx\":24,\"item_code\":\"Prep Pastry, HB Brownies 6'S\",\"item_group\":\"Prep Pastry\",\"whole_uom\":\"EACH\",\"item_uom\":\"EACH\"},{\"docstatus\":0,\"doctype\":\"Outlet Prep\",\"name\":\"New Outlet Prep 25\",\"__islocal\":1,\"__unsaved\":1,\"owner\":\"Administrator\",\"parent\":\"New Countsheet Template 1\",\"parentfield\":\"outlet_prep\",\"parenttype\":\"Countsheet Template\",\"idx\":25,\"item_code\":\"Prep Pastry, HB Brazo De Mercedes (Event Cake)\",\"item_group\":\"Prep Pastry\",\"whole_uom\":\"EACH\",\"item_uom\":\"SLICE,EACH\"},{\"docstatus\":0,\"doctype\":\"Outlet Prep\",\"name\":\"New Outlet Prep 26\",\"__islocal\":1,\"__unsaved\":1,\"owner\":\"Administrator\",\"parent\":\"New Countsheet Template 1\",\"parentfield\":\"outlet_prep\",\"parenttype\":\"Countsheet Template\",\"idx\":26,\"item_code\":\"Prep Pastry, HB White Choco Chunks Cookies 12'S\",\"item_group\":\"Prep Pastry\",\"whole_uom\":\"EACH\",\"item_uom\":\"PC,EACH\"},{\"docstatus\":0,\"doctype\":\"Outlet Prep\",\"name\":\"New Outlet Prep 27\",\"__islocal\":1,\"__unsaved\":1,\"owner\":\"Administrator\",\"parent\":\"New Countsheet Template 1\",\"parentfield\":\"outlet_prep\",\"parenttype\":\"Countsheet Template\",\"idx\":27,\"item_code\":\"Prep Pastry, HB Choco Crinkles 12'S\",\"item_group\":\"Prep Pastry\",\"whole_uom\":\"EACH\",\"item_uom\":\"EACH\"},{\"docstatus\":0,\"doctype\":\"Outlet Prep\",\"name\":\"New Outlet Prep 28\",\"__islocal\":1,\"__unsaved\":1,\"owner\":\"Administrator\",\"parent\":\"New Countsheet Template 1\",\"parentfield\":\"outlet_prep\",\"parenttype\":\"Countsheet Template\",\"idx\":28,\"item_code\":\"Prep Pastry, HB Cr\u00e8me Brulee Cake (Whole Cake)\",\"item_group\":\"Prep Pastry\",\"whole_uom\":\"EACH\",\"item_uom\":\"EACH,SLICE\"},{\"docstatus\":0,\"doctype\":\"Outlet Prep\",\"name\":\"New Outlet Prep 29\",\"__islocal\":1,\"__unsaved\":1,\"owner\":\"Administrator\",\"parent\":\"New Countsheet Template 1\",\"parentfield\":\"outlet_prep\",\"parenttype\":\"Countsheet Template\",\"idx\":29,\"item_code\":\"Prep Pastry, HB Brownies 12'S\",\"item_group\":\"Prep Pastry\",\"whole_uom\":\"EACH\",\"item_uom\":\"EACH\"},{\"docstatus\":0,\"doctype\":\"Outlet Prep\",\"name\":\"New Outlet Prep 30\",\"__islocal\":1,\"__unsaved\":1,\"owner\":\"Administrator\",\"parent\":\"New Countsheet Template 1\",\"parentfield\":\"outlet_prep\",\"parenttype\":\"Countsheet Template\",\"idx\":30,\"item_code\":\"Prep Pastry, HB Sansrival (Whole Cake)\",\"item_group\":\"Prep Pastry\",\"whole_uom\":\"EACH\",\"item_uom\":\"SLICE,EACH\"},{\"docstatus\":0,\"doctype\":\"Outlet Prep\",\"name\":\"New Outlet Prep 31\",\"__islocal\":1,\"__unsaved\":1,\"owner\":\"Administrator\",\"parent\":\"New Countsheet Template 1\",\"parentfield\":\"outlet_prep\",\"parenttype\":\"Countsheet Template\",\"idx\":31,\"item_code\":\"Prep Pastry, Japanese Cheesecake Cream 900G\",\"item_group\":\"Prep Pastry\",\"whole_uom\":\"EACH\",\"item_uom\":\"EACH,GRAMS\"}],\"countsheet_type_name\":\"ho jao na yaar\"}"
}
Request Error
Traceback (most recent call last):
  File "/home/ubuntu/reagan-bench2/apps/frappe/frappe/app.py", line 67, in application
    response = frappe.api.handle()
  File "/home/ubuntu/reagan-bench2/apps/frappe/frappe/api.py", line 59, in handle
    return frappe.handler.handle()
  File "/home/ubuntu/reagan-bench2/apps/frappe/frappe/handler.py", line 24, in handle
    data = execute_cmd(cmd)
  File "/home/ubuntu/reagan-bench2/apps/frappe/frappe/handler.py", line 64, in execute_cmd
    return frappe.call(method, **frappe.form_dict)
  File "/home/ubuntu/reagan-bench2/apps/frappe/frappe/__init__.py", line 1075, in call
    return fn(*args, **newargs)
  File "/home/ubuntu/reagan-bench2/apps/frappe/frappe/desk/form/save.py", line 12, in savedocs
    doc = frappe.get_doc(json.loads(doc))
  File "/home/ubuntu/reagan-bench2/apps/frappe/frappe/__init__.py", line 765, in get_doc
    doc = frappe.model.document.get_doc(*args, **kwargs)
  File "/home/ubuntu/reagan-bench2/apps/frappe/frappe/model/document.py", line 71, in get_doc
    return controller(*args, **kwargs)
  File "/home/ubuntu/reagan-bench2/apps/frappe/frappe/model/document.py", line 115, in __init__
    super(Document, self).__init__(kwargs)
  File "/home/ubuntu/reagan-bench2/apps/frappe/frappe/model/base_document.py", line 66, in __init__
    self.update(d)
  File "/home/ubuntu/reagan-bench2/apps/frappe/frappe/model/base_document.py", line 89, in update
    self.set(key, value)
  File "/home/ubuntu/reagan-bench2/apps/frappe/frappe/model/base_document.py", line 136, in set
    self.extend(key, value)
  File "/home/ubuntu/reagan-bench2/apps/frappe/frappe/model/base_document.py", line 173, in extend
    self.append(key, v)
  File "/home/ubuntu/reagan-bench2/apps/frappe/frappe/model/base_document.py", line 150, in append
    value = self._init_child(value, key)
  File "/home/ubuntu/reagan-bench2/apps/frappe/frappe/model/base_document.py", line 189, in _init_child
    value = get_controller(value["doctype"])(value)
  File "/home/ubuntu/reagan-bench2/apps/frappe/frappe/model/document.py", line 115, in __init__
    super(Document, self).__init__(kwargs)
  File "/home/ubuntu/reagan-bench2/apps/frappe/frappe/model/base_document.py", line 66, in __init__
    self.update(d)
  File "/home/ubuntu/reagan-bench2/apps/frappe/frappe/model/base_document.py", line 89, in update
    self.set(key, value)
  File "/home/ubuntu/reagan-bench2/apps/frappe/frappe/model/base_document.py", line 136, in set
    self.extend(key, value)
  File "/home/ubuntu/reagan-bench2/apps/frappe/frappe/model/base_document.py", line 173, in extend
    self.append(key, v)
  File "/home/ubuntu/reagan-bench2/apps/frappe/frappe/model/base_document.py", line 165, in append
    raise ValueError(
ValueError: Document for field "item_uom" attached to child table of "New Items 1" must be a dict or BaseDocument, not class 'str' (GRAMS)
[ERROR] 2021-09-16 13:54:44,581 | /home/ubuntu/reagan-bench2/apps/frappe/frappe/app.py:
Site: reaganerp.com
Form Dict: {
 "action": "Save",
 "cmd": "frappe.desk.form.save.savedocs",
 "doc": "{\"docstatus\":0,\"doctype\":\"Countsheet Template\",\"name\":\"New Countsheet Template 1\",\"__islocal\":1,\"__unsaved\":1,\"owner\":\"Administrator\",\"menu_filter\":\"HONEYBON CAKES\",\"items\":[{\"docstatus\":0,\"doctype\":\"Items\",\"name\":\"New Items 1\",\"__islocal\":1,\"__unsaved\":1,\"owner\":\"Administrator\",\"parent\":\"New Countsheet Template 1\",\"parentfield\":\"items\",\"parenttype\":\"Countsheet Template\",\"idx\":1,\"item_code\":\"Packaging, White Paper Twine per KG\",\"item_group\":\"Supplies - Labels & Packaging\",\"whole_uom\":\"KG\",\"item_uom\":[\"GRAMS\",\"KG\"],\"broken_uom\":\"GRAMS\"},{\"docstatus\":0,\"doctype\":\"Items\",\"name\":\"New Items 2\",\"__islocal\":1,\"__unsaved\":1,\"owner\":\"Administrator\",\"parent\":\"New Countsheet Template 1\",\"parentfield\":\"items\",\"parenttype\":\"Countsheet Template\",\"idx\":2,\"item_code\":\"HB Cakebox Large 9.6 50'S\",\"item_group\":\"Supplies - Labels & Packaging\",\"whole_uom\":\"EACH\",\"item_uom\":\"PC,EACH\"},{\"docstatus\":0,\"doctype\":\"Items\",\"name\":\"New Items 3\",\"__islocal\":1,\"__unsaved\":1,\"owner\":\"Administrator\",\"parent\":\"New Countsheet Template 1\",\"parentfield\":\"items\",\"parenttype\":\"Countsheet Template\",\"idx\":3,\"item_code\":\"Label, Honeybon Sticker 5cm Round 1s\",\"item_group\":\"Supplies - Labels & Packaging\",\"whole_uom\":\"PC\",\"item_uom\":\"PC\"},{\"docstatus\":0,\"doctype\":\"Items\",\"name\":\"New Items 4\",\"__islocal\":1,\"__unsaved\":1,\"owner\":\"Administrator\",\"parent\":\"New Countsheet Template 1\",\"parentfield\":\"items\",\"parenttype\":\"Countsheet Template\",\"idx\":4,\"item_code\":\"Prep Bakery, HB Ensaymada 1'S\",\"item_group\":\"Prep Bakery\",\"whole_uom\":\"EACH\",\"item_uom\":\"EACH\"}],\"outlet_prep\":[{\"docstatus\":0,\"doctype\":\"Outlet Prep\",\"name\":\"New Outlet Prep 1\",\"__islocal\":1,\"__unsaved\":1,\"owner\":\"Administrator\",\"parent\":\"New Countsheet Template 1\",\"parentfield\":\"outlet_prep\",\"parenttype\":\"Countsheet Template\",\"idx\":1,\"item_code\":\"Prep Pastry, Mango Bits 800G\",\"item_group\":\"Prep Pastry\",\"whole_uom\":\"EACH\",\"item_uom\":\"GRAMS,EACH\"},{\"docstatus\":0,\"doctype\":\"Outlet Prep\",\"name\":\"New Outlet Prep 2\",\"__islocal\":1,\"__unsaved\":1,\"owner\":\"Administrator\",\"parent\":\"New Countsheet Template 1\",\"parentfield\":\"outlet_prep\",\"parenttype\":\"Countsheet Template\",\"idx\":2,\"item_code\":\"Prep Pastry, HB Matcha Cappucino Whole Cake\",\"item_group\":\"Prep Pastry\",\"whole_uom\":\"EACH\",\"item_uom\":\"EACH,SLICE\"},{\"docstatus\":0,\"doctype\":\"Outlet Prep\",\"name\":\"New Outlet Prep 3\",\"__islocal\":1,\"__unsaved\":1,\"owner\":\"Administrator\",\"parent\":\"New Countsheet Template 1\",\"parentfield\":\"outlet_prep\",\"parenttype\":\"Countsheet Template\",\"idx\":3,\"item_code\":\"Prep Pastry, HB Black Forest Cake (Whole Cake)\",\"item_group\":\"Prep Pastry\",\"whole_uom\":\"EACH\",\"item_uom\":\"SLICE,EACH\"},{\"docstatus\":0,\"doctype\":\"Outlet Prep\",\"name\":\"New Outlet Prep 4\",\"__islocal\":1,\"__unsaved\":1,\"owner\":\"Administrator\",\"parent\":\"New Countsheet Template 1\",\"parentfield\":\"outlet_prep\",\"parenttype\":\"Countsheet Template\",\"idx\":4,\"item_code\":\"Prep Pastry, HB Tiramisu (Whole Cake)\",\"item_group\":\"Prep Pastry\",\"whole_uom\":\"EACH\",\"item_uom\":\"EACH,SLICE\"},{\"docstatus\":0,\"doctype\":\"Outlet Prep\",\"name\":\"New Outlet Prep 5\",\"__islocal\":1,\"__unsaved\":1,\"owner\":\"Administrator\",\"parent\":\"New Countsheet Template 1\",\"parentfield\":\"outlet_prep\",\"parenttype\":\"Countsheet Template\",\"idx\":5,\"item_code\":\"Prep Pastry, HB Double Fudge Choco Chip Cook (Yield: 12 Pieces)\",\"item_group\":\"Prep Pastry\",\"whole_uom\":\"EACH\",\"item_uom\":\"EACH,PC\"},{\"docstatus\":0,\"doctype\":\"Outlet Prep\",\"name\":\"New Outlet Prep 6\",\"__islocal\":1,\"__unsaved\":1,\"owner\":\"Administrator\",\"parent\":\"New Countsheet Template 1\",\"parentfield\":\"outlet_prep\",\"parenttype\":\"Countsheet Template\",\"idx\":6,\"item_code\":\"Prep Pastry, HB Mocha Crunch (Whole Cake)\",\"item_group\":\"Prep Pastry\",\"whole_uom\":\"EACH\",\"item_uom\":\"EACH,SLICE\"},{\"docstatus\":0,\"doctype\":\"Outlet Prep\",\"name\":\"New Outlet Prep 7\",\"__islocal\":1,\"__unsaved\":1,\"owner\":\"Administrator\",\"parent\":\"New Countsheet Template 1\",\"parentfield\":\"outlet_prep\",\"parenttype\":\"Countsheet Template\",\"idx\":7,\"item_code\":\"Prep Pastry, HB Ultimate Chocolate Cake (Whole Cake)\",\"item_group\":\"Prep Pastry\",\"whole_uom\":\"EACH\",\"item_uom\":\"EACH,SLICE\"},{\"docstatus\":0,\"doctype\":\"Outlet Prep\",\"name\":\"New Outlet Prep 8\",\"__islocal\":1,\"__unsaved\":1,\"owner\":\"Administrator\",\"parent\":\"New Countsheet Template 1\",\"parentfield\":\"outlet_prep\",\"parenttype\":\"Countsheet Template\",\"idx\":8,\"item_code\":\"Prep Pastry, HB Chocolate Caramel (Whole)\",\"item_group\":\"Prep Pastry\",\"whole_uom\":\"EACH\",\"item_uom\":\"SLICE,EACH\"},{\"docstatus\":0,\"doctype\":\"Outlet Prep\",\"name\":\"New Outlet Prep 9\",\"__islocal\":1,\"__unsaved\":1,\"owner\":\"Administrator\",\"parent\":\"New Countsheet Template 1\",\"parentfield\":\"outlet_prep\",\"parenttype\":\"Countsheet Template\",\"idx\":9,\"item_code\":\"Prep Pastry, HB O Fudge Bars 6'S\",\"item_group\":\"Prep Pastry\",\"whole_uom\":\"EACH\",\"item_uom\":\"EACH\"},{\"docstatus\":0,\"doctype\":\"Outlet Prep\",\"name\":\"New Outlet Prep 10\",\"__islocal\":1,\"__unsaved\":1,\"owner\":\"Administrator\",\"parent\":\"New Countsheet Template 1\",\"parentfield\":\"outlet_prep\",\"parenttype\":\"Countsheet Template\",\"idx\":10,\"item_code\":\"Prep Pastry, HB Chocolate Decadence (Whole)\",\"item_group\":\"Prep Pastry\",\"whole_uom\":\"EACH\",\"item_uom\":\"SLICE,EACH\"},{\"docstatus\":0,\"doctype\":\"Outlet Prep\",\"name\":\"New Outlet Prep 11\",\"__islocal\":1,\"__unsaved\":1,\"owner\":\"Administrator\",\"parent\":\"New Countsheet Template 1\",\"parentfield\":\"outlet_prep\",\"parenttype\":\"Countsheet Template\",\"idx\":11,\"item_code\":\"Prep Pastry, Mango Float 170G\",\"item_group\":\"Prep Pastry\",\"whole_uom\":\"EACH\",\"item_uom\":\"EACH,GRAMS\"},{\"docstatus\":0,\"doctype\":\"Outlet Prep\",\"name\":\"New Outlet Prep 12\",\"__islocal\":1,\"__unsaved\":1,\"owner\":\"Administrator\",\"parent\":\"New Countsheet Template 1\",\"parentfield\":\"outlet_prep\",\"parenttype\":\"Countsheet Template\",\"idx\":12,\"item_code\":\"Prep Pastry, HB Mango Brazo (Whole Cake)\",\"item_group\":\"Prep Pastry\",\"whole_uom\":\"EACH\",\"item_uom\":\"SLICE,EACH\"},{\"docstatus\":0,\"doctype\":\"Outlet Prep\",\"name\":\"New Outlet Prep 13\",\"__islocal\":1,\"__unsaved\":1,\"owner\":\"Administrator\",\"parent\":\"New Countsheet Template 1\",\"parentfield\":\"outlet_prep\",\"parenttype\":\"Countsheet Template\",\"idx\":13,\"item_code\":\"Prep Pastry, HB Mango Sonata (Whole Cake)\",\"item_group\":\"Prep Pastry\",\"whole_uom\":\"EACH\",\"item_uom\":\"EACH,SLICE\"},{\"docstatus\":0,\"doctype\":\"Outlet Prep\",\"name\":\"New Outlet Prep 14\",\"__islocal\":1,\"__unsaved\":1,\"owner\":\"Administrator\",\"parent\":\"New Countsheet Template 1\",\"parentfield\":\"outlet_prep\",\"parenttype\":\"Countsheet Template\",\"idx\":14,\"item_code\":\"Prep Pastry, HB Roasted Cocoa Mousse (Whole Cake)\",\"item_group\":\"Prep Pastry\",\"whole_uom\":\"EACH\",\"item_uom\":\"EACH,SLICE\"},{\"docstatus\":0,\"doctype\":\"Outlet Prep\",\"name\":\"New Outlet Prep 15\",\"__islocal\":1,\"__unsaved\":1,\"owner\":\"Administrator\",\"parent\":\"New Countsheet Template 1\",\"parentfield\":\"outlet_prep\",\"parenttype\":\"Countsheet Template\",\"idx\":15,\"item_code\":\"Prep Pastry, Ube Queso 180G\",\"item_group\":\"Prep Pastry\",\"whole_uom\":\"EACH\",\"item_uom\":\"EACH\"},{\"docstatus\":0,\"doctype\":\"Outlet Prep\",\"name\":\"New Outlet Prep 16\",\"__islocal\":1,\"__unsaved\":1,\"owner\":\"Administrator\",\"parent\":\"New Countsheet Template 1\",\"parentfield\":\"outlet_prep\",\"parenttype\":\"Countsheet Template\",\"idx\":16,\"item_code\":\"Prep Pastry, HB Red Velvet (Event Cake)\",\"item_group\":\"Prep Pastry\",\"whole_uom\":\"EACH\",\"item_uom\":\"SLICE,EACH\"},{\"docstatus\":0,\"doctype\":\"Outlet Prep\",\"name\":\"New Outlet Prep 17\",\"__islocal\":1,\"__unsaved\":1,\"owner\":\"Administrator\",\"parent\":\"New Countsheet Template 1\",\"parentfield\":\"outlet_prep\",\"parenttype\":\"Countsheet Template\",\"idx\":17,\"item_code\":\"Prep Pastry, HB O Fudge Bars 12'S\",\"item_group\":\"Prep Pastry\",\"whole_uom\":\"EACH\",\"item_uom\":\"EACH\"},{\"docstatus\":0,\"doctype\":\"Outlet Prep\",\"name\":\"New Outlet Prep 18\",\"__islocal\":1,\"__unsaved\":1,\"owner\":\"Administrator\",\"parent\":\"New Countsheet Template 1\",\"parentfield\":\"outlet_prep\",\"parenttype\":\"Countsheet Template\",\"idx\":18,\"item_code\":\"Prep Pastry, HB White Choco Chunks Cookies 6'S\",\"item_group\":\"Prep Pastry\",\"whole_uom\":\"EACH\",\"item_uom\":\"EACH,PC\"},{\"docstatus\":0,\"doctype\":\"Outlet Prep\",\"name\":\"New Outlet Prep 19\",\"__islocal\":1,\"__unsaved\":1,\"owner\":\"Administrator\",\"parent\":\"New Countsheet Template 1\",\"parentfield\":\"outlet_prep\",\"parenttype\":\"Countsheet Template\",\"idx\":19,\"item_code\":\"Prep Pastry, HB Red Velvet (Whole Cake)\",\"item_group\":\"Prep Pastry\",\"whole_uom\":\"EACH\",\"item_uom\":\"EACH,SLICE\"},{\"docstatus\":0,\"doctype\":\"Outlet Prep\",\"name\":\"New Outlet Prep 20\",\"__islocal\":1,\"__unsaved\":1,\"owner\":\"Administrator\",\"parent\":\"New Countsheet Template 1\",\"parentfield\":\"outlet_prep\",\"parenttype\":\"Countsheet Template\",\"idx\":20,\"item_code\":\"Prep Pastry, HB Classic Ube Cake Whole Cake\",\"item_group\":\"Prep Pastry\",\"whole_uom\":\"EACH\",\"item_uom\":\"EACH,SLICE\"},{\"docstatus\":0,\"doctype\":\"Outlet Prep\",\"name\":\"New Outlet Prep 21\",\"__islocal\":1,\"__unsaved\":1,\"owner\":\"Administrator\",\"parent\":\"New Countsheet Template 1\",\"parentfield\":\"outlet_prep\",\"parenttype\":\"Countsheet Template\",\"idx\":21,\"item_code\":\"Prep Pastry, HB Strawberry Shortcake (Whole Cake)\",\"item_group\":\"Prep Pastry\",\"whole_uom\":\"EACH\",\"item_uom\":\"SLICE,EACH\"},{\"docstatus\":0,\"doctype\":\"Outlet Prep\",\"name\":\"New Outlet Prep 22\",\"__islocal\":1,\"__unsaved\":1,\"owner\":\"Administrator\",\"parent\":\"New Countsheet Template 1\",\"parentfield\":\"outlet_prep\",\"parenttype\":\"Countsheet Template\",\"idx\":22,\"item_code\":\"Prep Pastry, HB Double Choco Chunks Cookies 6'S\",\"item_group\":\"Prep Pastry\",\"whole_uom\":\"EACH\",\"item_uom\":\"PC,EACH\"},{\"docstatus\":0,\"doctype\":\"Outlet Prep\",\"name\":\"New Outlet Prep 23\",\"__islocal\":1,\"__unsaved\":1,\"owner\":\"Administrator\",\"parent\":\"New Countsheet Template 1\",\"parentfield\":\"outlet_prep\",\"parenttype\":\"Countsheet Template\",\"idx\":23,\"item_code\":\"Prep Pastry, HB Mango Cheesecake Whole Cake\",\"item_group\":\"Prep Pastry\",\"whole_uom\":\"EACH\",\"item_uom\":\"EACH,SLICE\"},{\"docstatus\":0,\"doctype\":\"Outlet Prep\",\"name\":\"New Outlet Prep 24\",\"__islocal\":1,\"__unsaved\":1,\"owner\":\"Administrator\",\"parent\":\"New Countsheet Template 1\",\"parentfield\":\"outlet_prep\",\"parenttype\":\"Countsheet Template\",\"idx\":24,\"item_code\":\"Prep Pastry, HB Brownies 6'S\",\"item_group\":\"Prep Pastry\",\"whole_uom\":\"EACH\",\"item_uom\":\"EACH\"},{\"docstatus\":0,\"doctype\":\"Outlet Prep\",\"name\":\"New Outlet Prep 25\",\"__islocal\":1,\"__unsaved\":1,\"owner\":\"Administrator\",\"parent\":\"New Countsheet Template 1\",\"parentfield\":\"outlet_prep\",\"parenttype\":\"Countsheet Template\",\"idx\":25,\"item_code\":\"Prep Pastry, HB Brazo De Mercedes (Event Cake)\",\"item_group\":\"Prep Pastry\",\"whole_uom\":\"EACH\",\"item_uom\":\"SLICE,EACH\"},{\"docstatus\":0,\"doctype\":\"Outlet Prep\",\"name\":\"New Outlet Prep 26\",\"__islocal\":1,\"__unsaved\":1,\"owner\":\"Administrator\",\"parent\":\"New Countsheet Template 1\",\"parentfield\":\"outlet_prep\",\"parenttype\":\"Countsheet Template\",\"idx\":26,\"item_code\":\"Prep Pastry, HB White Choco Chunks Cookies 12'S\",\"item_group\":\"Prep Pastry\",\"whole_uom\":\"EACH\",\"item_uom\":\"PC,EACH\"},{\"docstatus\":0,\"doctype\":\"Outlet Prep\",\"name\":\"New Outlet Prep 27\",\"__islocal\":1,\"__unsaved\":1,\"owner\":\"Administrator\",\"parent\":\"New Countsheet Template 1\",\"parentfield\":\"outlet_prep\",\"parenttype\":\"Countsheet Template\",\"idx\":27,\"item_code\":\"Prep Pastry, HB Choco Crinkles 12'S\",\"item_group\":\"Prep Pastry\",\"whole_uom\":\"EACH\",\"item_uom\":\"EACH\"},{\"docstatus\":0,\"doctype\":\"Outlet Prep\",\"name\":\"New Outlet Prep 28\",\"__islocal\":1,\"__unsaved\":1,\"owner\":\"Administrator\",\"parent\":\"New Countsheet Template 1\",\"parentfield\":\"outlet_prep\",\"parenttype\":\"Countsheet Template\",\"idx\":28,\"item_code\":\"Prep Pastry, HB Cr\u00e8me Brulee Cake (Whole Cake)\",\"item_group\":\"Prep Pastry\",\"whole_uom\":\"EACH\",\"item_uom\":\"EACH,SLICE\"},{\"docstatus\":0,\"doctype\":\"Outlet Prep\",\"name\":\"New Outlet Prep 29\",\"__islocal\":1,\"__unsaved\":1,\"owner\":\"Administrator\",\"parent\":\"New Countsheet Template 1\",\"parentfield\":\"outlet_prep\",\"parenttype\":\"Countsheet Template\",\"idx\":29,\"item_code\":\"Prep Pastry, HB Brownies 12'S\",\"item_group\":\"Prep Pastry\",\"whole_uom\":\"EACH\",\"item_uom\":\"EACH\"},{\"docstatus\":0,\"doctype\":\"Outlet Prep\",\"name\":\"New Outlet Prep 30\",\"__islocal\":1,\"__unsaved\":1,\"owner\":\"Administrator\",\"parent\":\"New Countsheet Template 1\",\"parentfield\":\"outlet_prep\",\"parenttype\":\"Countsheet Template\",\"idx\":30,\"item_code\":\"Prep Pastry, HB Sansrival (Whole Cake)\",\"item_group\":\"Prep Pastry\",\"whole_uom\":\"EACH\",\"item_uom\":\"SLICE,EACH\"},{\"docstatus\":0,\"doctype\":\"Outlet Prep\",\"name\":\"New Outlet Prep 31\",\"__islocal\":1,\"__unsaved\":1,\"owner\":\"Administrator\",\"parent\":\"New Countsheet Template 1\",\"parentfield\":\"outlet_prep\",\"parenttype\":\"Countsheet Template\",\"idx\":31,\"item_code\":\"Prep Pastry, Japanese Cheesecake Cream 900G\",\"item_group\":\"Prep Pastry\",\"whole_uom\":\"EACH\",\"item_uom\":\"EACH,GRAMS\"}],\"countsheet_type_name\":\"ho jao na yaar\"}"
}
Request Error
Traceback (most recent call last):
  File "/home/ubuntu/reagan-bench2/apps/frappe/frappe/app.py", line 67, in application
    response = frappe.api.handle()
  File "/home/ubuntu/reagan-bench2/apps/frappe/frappe/api.py", line 59, in handle
    return frappe.handler.handle()
  File "/home/ubuntu/reagan-bench2/apps/frappe/frappe/handler.py", line 24, in handle
    data = execute_cmd(cmd)
  File "/home/ubuntu/reagan-bench2/apps/frappe/frappe/handler.py", line 64, in execute_cmd
    return frappe.call(method, **frappe.form_dict)
  File "/home/ubuntu/reagan-bench2/apps/frappe/frappe/__init__.py", line 1075, in call
    return fn(*args, **newargs)
  File "/home/ubuntu/reagan-bench2/apps/frappe/frappe/desk/form/save.py", line 12, in savedocs
    doc = frappe.get_doc(json.loads(doc))
  File "/home/ubuntu/reagan-bench2/apps/frappe/frappe/__init__.py", line 765, in get_doc
    doc = frappe.model.document.get_doc(*args, **kwargs)
  File "/home/ubuntu/reagan-bench2/apps/frappe/frappe/model/document.py", line 71, in get_doc
    return controller(*args, **kwargs)
  File "/home/ubuntu/reagan-bench2/apps/frappe/frappe/model/document.py", line 115, in __init__
    super(Document, self).__init__(kwargs)
  File "/home/ubuntu/reagan-bench2/apps/frappe/frappe/model/base_document.py", line 66, in __init__
    self.update(d)
  File "/home/ubuntu/reagan-bench2/apps/frappe/frappe/model/base_document.py", line 89, in update
    self.set(key, value)
  File "/home/ubuntu/reagan-bench2/apps/frappe/frappe/model/base_document.py", line 136, in set
    self.extend(key, value)
  File "/home/ubuntu/reagan-bench2/apps/frappe/frappe/model/base_document.py", line 173, in extend
    self.append(key, v)
  File "/home/ubuntu/reagan-bench2/apps/frappe/frappe/model/base_document.py", line 150, in append
    value = self._init_child(value, key)
  File "/home/ubuntu/reagan-bench2/apps/frappe/frappe/model/base_document.py", line 189, in _init_child
    value = get_controller(value["doctype"])(value)
  File "/home/ubuntu/reagan-bench2/apps/frappe/frappe/model/document.py", line 115, in __init__
    super(Document, self).__init__(kwargs)
  File "/home/ubuntu/reagan-bench2/apps/frappe/frappe/model/base_document.py", line 66, in __init__
    self.update(d)
  File "/home/ubuntu/reagan-bench2/apps/frappe/frappe/model/base_document.py", line 89, in update
    self.set(key, value)
  File "/home/ubuntu/reagan-bench2/apps/frappe/frappe/model/base_document.py", line 136, in set
    self.extend(key, value)
  File "/home/ubuntu/reagan-bench2/apps/frappe/frappe/model/base_document.py", line 173, in extend
    self.append(key, v)
  File "/home/ubuntu/reagan-bench2/apps/frappe/frappe/model/base_document.py", line 165, in append
    raise ValueError(
ValueError: Document for field "item_uom" attached to child table of "New Items 1" must be a dict or BaseDocument, not class 'str' (GRAMS)
[ERROR] 2021-09-16 13:54:44,690 | /home/ubuntu/reagan-bench2/apps/frappe/frappe/utils/error.py:
New Exception collected with id: 2021-09-16 13:54:44.608372-127.0.0.1-d37
[ERROR] 2021-09-16 14:17:33,390 | /home/ubuntu/reagan-bench2/apps/frappe/frappe/app.py:
Site: reaganerp.com
Form Dict: {
 "action": "Save",
 "cmd": "frappe.desk.form.save.savedocs",
 "doc": "{\"docstatus\":0,\"doctype\":\"Countsheet Template\",\"name\":\"New Countsheet Template 1\",\"__islocal\":1,\"__unsaved\":1,\"owner\":\"Administrator\",\"menu_filter\":\"HONEYBON CAKES\",\"items\":[{\"docstatus\":0,\"doctype\":\"Items\",\"name\":\"New Items 1\",\"__islocal\":1,\"__unsaved\":1,\"owner\":\"Administrator\",\"parent\":\"New Countsheet Template 1\",\"parentfield\":\"items\",\"parenttype\":\"Countsheet Template\",\"idx\":1,\"item_code\":\"Packaging, White Paper Twine per KG\",\"item_group\":\"Supplies - Labels & Packaging\",\"whole_uom\":\"KG\",\"item_uom\":[\"GRAMS\",\"KG\"],\"broken_uom\":\"GRAMS\"},{\"docstatus\":0,\"doctype\":\"Items\",\"name\":\"New Items 2\",\"__islocal\":1,\"__unsaved\":1,\"owner\":\"Administrator\",\"parent\":\"New Countsheet Template 1\",\"parentfield\":\"items\",\"parenttype\":\"Countsheet Template\",\"idx\":2,\"item_code\":\"HB Cakebox Large 9.6 50'S\",\"item_group\":\"Supplies - Labels & Packaging\",\"whole_uom\":\"EACH\",\"item_uom\":\"PC,EACH\"},{\"docstatus\":0,\"doctype\":\"Items\",\"name\":\"New Items 3\",\"__islocal\":1,\"__unsaved\":1,\"owner\":\"Administrator\",\"parent\":\"New Countsheet Template 1\",\"parentfield\":\"items\",\"parenttype\":\"Countsheet Template\",\"idx\":3,\"item_code\":\"Label, Honeybon Sticker 5cm Round 1s\",\"item_group\":\"Supplies - Labels & Packaging\",\"whole_uom\":\"PC\",\"item_uom\":\"PC\"},{\"docstatus\":0,\"doctype\":\"Items\",\"name\":\"New Items 4\",\"__islocal\":1,\"__unsaved\":1,\"owner\":\"Administrator\",\"parent\":\"New Countsheet Template 1\",\"parentfield\":\"items\",\"parenttype\":\"Countsheet Template\",\"idx\":4,\"item_code\":\"Prep Bakery, HB Ensaymada 1'S\",\"item_group\":\"Prep Bakery\",\"whole_uom\":\"EACH\",\"item_uom\":\"EACH\"}],\"outlet_prep\":[{\"docstatus\":0,\"doctype\":\"Outlet Prep\",\"name\":\"New Outlet Prep 1\",\"__islocal\":1,\"__unsaved\":1,\"owner\":\"Administrator\",\"parent\":\"New Countsheet Template 1\",\"parentfield\":\"outlet_prep\",\"parenttype\":\"Countsheet Template\",\"idx\":1,\"item_code\":\"Prep Pastry, HB Tiramisu (Whole Cake)\",\"item_group\":\"Prep Pastry\",\"whole_uom\":\"EACH\",\"item_uom\":\"EACH,SLICE\"},{\"docstatus\":0,\"doctype\":\"Outlet Prep\",\"name\":\"New Outlet Prep 2\",\"__islocal\":1,\"__unsaved\":1,\"owner\":\"Administrator\",\"parent\":\"New Countsheet Template 1\",\"parentfield\":\"outlet_prep\",\"parenttype\":\"Countsheet Template\",\"idx\":2,\"item_code\":\"Prep Pastry, HB Matcha Cappucino Whole Cake\",\"item_group\":\"Prep Pastry\",\"whole_uom\":\"EACH\",\"item_uom\":\"EACH,SLICE\"},{\"docstatus\":0,\"doctype\":\"Outlet Prep\",\"name\":\"New Outlet Prep 3\",\"__islocal\":1,\"__unsaved\":1,\"owner\":\"Administrator\",\"parent\":\"New Countsheet Template 1\",\"parentfield\":\"outlet_prep\",\"parenttype\":\"Countsheet Template\",\"idx\":3,\"item_code\":\"Prep Pastry, Mango Bits 800G\",\"item_group\":\"Prep Pastry\",\"whole_uom\":\"EACH\",\"item_uom\":\"GRAMS,EACH\"},{\"docstatus\":0,\"doctype\":\"Outlet Prep\",\"name\":\"New Outlet Prep 4\",\"__islocal\":1,\"__unsaved\":1,\"owner\":\"Administrator\",\"parent\":\"New Countsheet Template 1\",\"parentfield\":\"outlet_prep\",\"parenttype\":\"Countsheet Template\",\"idx\":4,\"item_code\":\"Prep Pastry, HB Double Fudge Choco Chip Cook (Yield: 12 Pieces)\",\"item_group\":\"Prep Pastry\",\"whole_uom\":\"EACH\",\"item_uom\":\"EACH,PC\"},{\"docstatus\":0,\"doctype\":\"Outlet Prep\",\"name\":\"New Outlet Prep 5\",\"__islocal\":1,\"__unsaved\":1,\"owner\":\"Administrator\",\"parent\":\"New Countsheet Template 1\",\"parentfield\":\"outlet_prep\",\"parenttype\":\"Countsheet Template\",\"idx\":5,\"item_code\":\"Prep Pastry, HB Black Forest Cake (Whole Cake)\",\"item_group\":\"Prep Pastry\",\"whole_uom\":\"EACH\",\"item_uom\":\"SLICE,EACH\"},{\"docstatus\":0,\"doctype\":\"Outlet Prep\",\"name\":\"New Outlet Prep 6\",\"__islocal\":1,\"__unsaved\":1,\"owner\":\"Administrator\",\"parent\":\"New Countsheet Template 1\",\"parentfield\":\"outlet_prep\",\"parenttype\":\"Countsheet Template\",\"idx\":6,\"item_code\":\"Prep Pastry, HB Mocha Crunch (Whole Cake)\",\"item_group\":\"Prep Pastry\",\"whole_uom\":\"EACH\",\"item_uom\":\"EACH,SLICE\"},{\"docstatus\":0,\"doctype\":\"Outlet Prep\",\"name\":\"New Outlet Prep 7\",\"__islocal\":1,\"__unsaved\":1,\"owner\":\"Administrator\",\"parent\":\"New Countsheet Template 1\",\"parentfield\":\"outlet_prep\",\"parenttype\":\"Countsheet Template\",\"idx\":7,\"item_code\":\"Prep Pastry, HB Ultimate Chocolate Cake (Whole Cake)\",\"item_group\":\"Prep Pastry\",\"whole_uom\":\"EACH\",\"item_uom\":\"EACH,SLICE\"},{\"docstatus\":0,\"doctype\":\"Outlet Prep\",\"name\":\"New Outlet Prep 8\",\"__islocal\":1,\"__unsaved\":1,\"owner\":\"Administrator\",\"parent\":\"New Countsheet Template 1\",\"parentfield\":\"outlet_prep\",\"parenttype\":\"Countsheet Template\",\"idx\":8,\"item_code\":\"Prep Pastry, HB O Fudge Bars 6'S\",\"item_group\":\"Prep Pastry\",\"whole_uom\":\"EACH\",\"item_uom\":\"EACH\"},{\"docstatus\":0,\"doctype\":\"Outlet Prep\",\"name\":\"New Outlet Prep 9\",\"__islocal\":1,\"__unsaved\":1,\"owner\":\"Administrator\",\"parent\":\"New Countsheet Template 1\",\"parentfield\":\"outlet_prep\",\"parenttype\":\"Countsheet Template\",\"idx\":9,\"item_code\":\"Prep Pastry, HB Chocolate Caramel (Whole)\",\"item_group\":\"Prep Pastry\",\"whole_uom\":\"EACH\",\"item_uom\":\"SLICE,EACH\"},{\"docstatus\":0,\"doctype\":\"Outlet Prep\",\"name\":\"New Outlet Prep 10\",\"__islocal\":1,\"__unsaved\":1,\"owner\":\"Administrator\",\"parent\":\"New Countsheet Template 1\",\"parentfield\":\"outlet_prep\",\"parenttype\":\"Countsheet Template\",\"idx\":10,\"item_code\":\"Prep Pastry, HB Chocolate Decadence (Whole)\",\"item_group\":\"Prep Pastry\",\"whole_uom\":\"EACH\",\"item_uom\":\"SLICE,EACH\"},{\"docstatus\":0,\"doctype\":\"Outlet Prep\",\"name\":\"New Outlet Prep 11\",\"__islocal\":1,\"__unsaved\":1,\"owner\":\"Administrator\",\"parent\":\"New Countsheet Template 1\",\"parentfield\":\"outlet_prep\",\"parenttype\":\"Countsheet Template\",\"idx\":11,\"item_code\":\"Prep Pastry, HB Mango Brazo (Whole Cake)\",\"item_group\":\"Prep Pastry\",\"whole_uom\":\"EACH\",\"item_uom\":\"SLICE,EACH\"},{\"docstatus\":0,\"doctype\":\"Outlet Prep\",\"name\":\"New Outlet Prep 12\",\"__islocal\":1,\"__unsaved\":1,\"owner\":\"Administrator\",\"parent\":\"New Countsheet Template 1\",\"parentfield\":\"outlet_prep\",\"parenttype\":\"Countsheet Template\",\"idx\":12,\"item_code\":\"Prep Pastry, Mango Float 170G\",\"item_group\":\"Prep Pastry\",\"whole_uom\":\"EACH\",\"item_uom\":\"EACH,GRAMS\"},{\"docstatus\":0,\"doctype\":\"Outlet Prep\",\"name\":\"New Outlet Prep 13\",\"__islocal\":1,\"__unsaved\":1,\"owner\":\"Administrator\",\"parent\":\"New Countsheet Template 1\",\"parentfield\":\"outlet_prep\",\"parenttype\":\"Countsheet Template\",\"idx\":13,\"item_code\":\"Prep Pastry, HB Roasted Cocoa Mousse (Whole Cake)\",\"item_group\":\"Prep Pastry\",\"whole_uom\":\"EACH\",\"item_uom\":\"EACH,SLICE\"},{\"docstatus\":0,\"doctype\":\"Outlet Prep\",\"name\":\"New Outlet Prep 14\",\"__islocal\":1,\"__unsaved\":1,\"owner\":\"Administrator\",\"parent\":\"New Countsheet Template 1\",\"parentfield\":\"outlet_prep\",\"parenttype\":\"Countsheet Template\",\"idx\":14,\"item_code\":\"Prep Pastry, HB Mango Sonata (Whole Cake)\",\"item_group\":\"Prep Pastry\",\"whole_uom\":\"EACH\",\"item_uom\":\"EACH,SLICE\"},{\"docstatus\":0,\"doctype\":\"Outlet Prep\",\"name\":\"New Outlet Prep 15\",\"__islocal\":1,\"__unsaved\":1,\"owner\":\"Administrator\",\"parent\":\"New Countsheet Template 1\",\"parentfield\":\"outlet_prep\",\"parenttype\":\"Countsheet Template\",\"idx\":15,\"item_code\":\"Prep Pastry, HB Red Velvet (Event Cake)\",\"item_group\":\"Prep Pastry\",\"whole_uom\":\"EACH\",\"item_uom\":\"SLICE,EACH\"},{\"docstatus\":0,\"doctype\":\"Outlet Prep\",\"name\":\"New Outlet Prep 16\",\"__islocal\":1,\"__unsaved\":1,\"owner\":\"Administrator\",\"parent\":\"New Countsheet Template 1\",\"parentfield\":\"outlet_prep\",\"parenttype\":\"Countsheet Template\",\"idx\":16,\"item_code\":\"Prep Pastry, Ube Queso 180G\",\"item_group\":\"Prep Pastry\",\"whole_uom\":\"EACH\",\"item_uom\":\"EACH\"},{\"docstatus\":0,\"doctype\":\"Outlet Prep\",\"name\":\"New Outlet Prep 17\",\"__islocal\":1,\"__unsaved\":1,\"owner\":\"Administrator\",\"parent\":\"New Countsheet Template 1\",\"parentfield\":\"outlet_prep\",\"parenttype\":\"Countsheet Template\",\"idx\":17,\"item_code\":\"Prep Pastry, HB Red Velvet (Whole Cake)\",\"item_group\":\"Prep Pastry\",\"whole_uom\":\"EACH\",\"item_uom\":\"EACH,SLICE\"},{\"docstatus\":0,\"doctype\":\"Outlet Prep\",\"name\":\"New Outlet Prep 18\",\"__islocal\":1,\"__unsaved\":1,\"owner\":\"Administrator\",\"parent\":\"New Countsheet Template 1\",\"parentfield\":\"outlet_prep\",\"parenttype\":\"Countsheet Template\",\"idx\":18,\"item_code\":\"Prep Pastry, HB O Fudge Bars 12'S\",\"item_group\":\"Prep Pastry\",\"whole_uom\":\"EACH\",\"item_uom\":\"EACH\"},{\"docstatus\":0,\"doctype\":\"Outlet Prep\",\"name\":\"New Outlet Prep 19\",\"__islocal\":1,\"__unsaved\":1,\"owner\":\"Administrator\",\"parent\":\"New Countsheet Template 1\",\"parentfield\":\"outlet_prep\",\"parenttype\":\"Countsheet Template\",\"idx\":19,\"item_code\":\"Prep Pastry, HB White Choco Chunks Cookies 6'S\",\"item_group\":\"Prep Pastry\",\"whole_uom\":\"EACH\",\"item_uom\":\"EACH,PC\"},{\"docstatus\":0,\"doctype\":\"Outlet Prep\",\"name\":\"New Outlet Prep 20\",\"__islocal\":1,\"__unsaved\":1,\"owner\":\"Administrator\",\"parent\":\"New Countsheet Template 1\",\"parentfield\":\"outlet_prep\",\"parenttype\":\"Countsheet Template\",\"idx\":20,\"item_code\":\"Prep Pastry, HB Classic Ube Cake Whole Cake\",\"item_group\":\"Prep Pastry\",\"whole_uom\":\"EACH\",\"item_uom\":\"EACH,SLICE\"},{\"docstatus\":0,\"doctype\":\"Outlet Prep\",\"name\":\"New Outlet Prep 21\",\"__islocal\":1,\"__unsaved\":1,\"owner\":\"Administrator\",\"parent\":\"New Countsheet Template 1\",\"parentfield\":\"outlet_prep\",\"parenttype\":\"Countsheet Template\",\"idx\":21,\"item_code\":\"Prep Pastry, HB Strawberry Shortcake (Whole Cake)\",\"item_group\":\"Prep Pastry\",\"whole_uom\":\"EACH\",\"item_uom\":\"SLICE,EACH\"},{\"docstatus\":0,\"doctype\":\"Outlet Prep\",\"name\":\"New Outlet Prep 22\",\"__islocal\":1,\"__unsaved\":1,\"owner\":\"Administrator\",\"parent\":\"New Countsheet Template 1\",\"parentfield\":\"outlet_prep\",\"parenttype\":\"Countsheet Template\",\"idx\":22,\"item_code\":\"Prep Pastry, HB Double Choco Chunks Cookies 6'S\",\"item_group\":\"Prep Pastry\",\"whole_uom\":\"EACH\",\"item_uom\":\"PC,EACH\"},{\"docstatus\":0,\"doctype\":\"Outlet Prep\",\"name\":\"New Outlet Prep 23\",\"__islocal\":1,\"__unsaved\":1,\"owner\":\"Administrator\",\"parent\":\"New Countsheet Template 1\",\"parentfield\":\"outlet_prep\",\"parenttype\":\"Countsheet Template\",\"idx\":23,\"item_code\":\"Prep Pastry, HB Mango Cheesecake Whole Cake\",\"item_group\":\"Prep Pastry\",\"whole_uom\":\"EACH\",\"item_uom\":\"EACH,SLICE\"},{\"docstatus\":0,\"doctype\":\"Outlet Prep\",\"name\":\"New Outlet Prep 24\",\"__islocal\":1,\"__unsaved\":1,\"owner\":\"Administrator\",\"parent\":\"New Countsheet Template 1\",\"parentfield\":\"outlet_prep\",\"parenttype\":\"Countsheet Template\",\"idx\":24,\"item_code\":\"Prep Pastry, HB Brownies 6'S\",\"item_group\":\"Prep Pastry\",\"whole_uom\":\"EACH\",\"item_uom\":\"EACH\"},{\"docstatus\":0,\"doctype\":\"Outlet Prep\",\"name\":\"New Outlet Prep 25\",\"__islocal\":1,\"__unsaved\":1,\"owner\":\"Administrator\",\"parent\":\"New Countsheet Template 1\",\"parentfield\":\"outlet_prep\",\"parenttype\":\"Countsheet Template\",\"idx\":25,\"item_code\":\"Prep Pastry, HB White Choco Chunks Cookies 12'S\",\"item_group\":\"Prep Pastry\",\"whole_uom\":\"EACH\",\"item_uom\":\"PC,EACH\"},{\"docstatus\":0,\"doctype\":\"Outlet Prep\",\"name\":\"New Outlet Prep 26\",\"__islocal\":1,\"__unsaved\":1,\"owner\":\"Administrator\",\"parent\":\"New Countsheet Template 1\",\"parentfield\":\"outlet_prep\",\"parenttype\":\"Countsheet Template\",\"idx\":26,\"item_code\":\"Prep Pastry, HB Choco Crinkles 12'S\",\"item_group\":\"Prep Pastry\",\"whole_uom\":\"EACH\",\"item_uom\":\"EACH\"},{\"docstatus\":0,\"doctype\":\"Outlet Prep\",\"name\":\"New Outlet Prep 27\",\"__islocal\":1,\"__unsaved\":1,\"owner\":\"Administrator\",\"parent\":\"New Countsheet Template 1\",\"parentfield\":\"outlet_prep\",\"parenttype\":\"Countsheet Template\",\"idx\":27,\"item_code\":\"Prep Pastry, HB Brazo De Mercedes (Event Cake)\",\"item_group\":\"Prep Pastry\",\"whole_uom\":\"EACH\",\"item_uom\":\"SLICE,EACH\"},{\"docstatus\":0,\"doctype\":\"Outlet Prep\",\"name\":\"New Outlet Prep 28\",\"__islocal\":1,\"__unsaved\":1,\"owner\":\"Administrator\",\"parent\":\"New Countsheet Template 1\",\"parentfield\":\"outlet_prep\",\"parenttype\":\"Countsheet Template\",\"idx\":28,\"item_code\":\"Prep Pastry, HB Cr\u00e8me Brulee Cake (Whole Cake)\",\"item_group\":\"Prep Pastry\",\"whole_uom\":\"EACH\",\"item_uom\":\"EACH,SLICE\"},{\"docstatus\":0,\"doctype\":\"Outlet Prep\",\"name\":\"New Outlet Prep 29\",\"__islocal\":1,\"__unsaved\":1,\"owner\":\"Administrator\",\"parent\":\"New Countsheet Template 1\",\"parentfield\":\"outlet_prep\",\"parenttype\":\"Countsheet Template\",\"idx\":29,\"item_code\":\"Prep Pastry, HB Brownies 12'S\",\"item_group\":\"Prep Pastry\",\"whole_uom\":\"EACH\",\"item_uom\":\"EACH\"},{\"docstatus\":0,\"doctype\":\"Outlet Prep\",\"name\":\"New Outlet Prep 30\",\"__islocal\":1,\"__unsaved\":1,\"owner\":\"Administrator\",\"parent\":\"New Countsheet Template 1\",\"parentfield\":\"outlet_prep\",\"parenttype\":\"Countsheet Template\",\"idx\":30,\"item_code\":\"Prep Pastry, Japanese Cheesecake Cream 900G\",\"item_group\":\"Prep Pastry\",\"whole_uom\":\"EACH\",\"item_uom\":\"EACH,GRAMS\"},{\"docstatus\":0,\"doctype\":\"Outlet Prep\",\"name\":\"New Outlet Prep 31\",\"__islocal\":1,\"__unsaved\":1,\"owner\":\"Administrator\",\"parent\":\"New Countsheet Template 1\",\"parentfield\":\"outlet_prep\",\"parenttype\":\"Countsheet Template\",\"idx\":31,\"item_code\":\"Prep Pastry, HB Sansrival (Whole Cake)\",\"item_group\":\"Prep Pastry\",\"whole_uom\":\"EACH\",\"item_uom\":\"SLICE,EACH\"}],\"countsheet_type_name\":\"m\"}"
}
Request Error
Traceback (most recent call last):
  File "/home/ubuntu/reagan-bench2/apps/frappe/frappe/app.py", line 67, in application
    response = frappe.api.handle()
  File "/home/ubuntu/reagan-bench2/apps/frappe/frappe/api.py", line 59, in handle
    return frappe.handler.handle()
  File "/home/ubuntu/reagan-bench2/apps/frappe/frappe/handler.py", line 24, in handle
    data = execute_cmd(cmd)
  File "/home/ubuntu/reagan-bench2/apps/frappe/frappe/handler.py", line 64, in execute_cmd
    return frappe.call(method, **frappe.form_dict)
  File "/home/ubuntu/reagan-bench2/apps/frappe/frappe/__init__.py", line 1075, in call
    return fn(*args, **newargs)
  File "/home/ubuntu/reagan-bench2/apps/frappe/frappe/desk/form/save.py", line 12, in savedocs
    doc = frappe.get_doc(json.loads(doc))
  File "/home/ubuntu/reagan-bench2/apps/frappe/frappe/__init__.py", line 765, in get_doc
    doc = frappe.model.document.get_doc(*args, **kwargs)
  File "/home/ubuntu/reagan-bench2/apps/frappe/frappe/model/document.py", line 71, in get_doc
    return controller(*args, **kwargs)
  File "/home/ubuntu/reagan-bench2/apps/frappe/frappe/model/document.py", line 115, in __init__
    super(Document, self).__init__(kwargs)
  File "/home/ubuntu/reagan-bench2/apps/frappe/frappe/model/base_document.py", line 66, in __init__
    self.update(d)
  File "/home/ubuntu/reagan-bench2/apps/frappe/frappe/model/base_document.py", line 89, in update
    self.set(key, value)
  File "/home/ubuntu/reagan-bench2/apps/frappe/frappe/model/base_document.py", line 136, in set
    self.extend(key, value)
  File "/home/ubuntu/reagan-bench2/apps/frappe/frappe/model/base_document.py", line 173, in extend
    self.append(key, v)
  File "/home/ubuntu/reagan-bench2/apps/frappe/frappe/model/base_document.py", line 150, in append
    value = self._init_child(value, key)
  File "/home/ubuntu/reagan-bench2/apps/frappe/frappe/model/base_document.py", line 189, in _init_child
    value = get_controller(value["doctype"])(value)
  File "/home/ubuntu/reagan-bench2/apps/frappe/frappe/model/document.py", line 115, in __init__
    super(Document, self).__init__(kwargs)
  File "/home/ubuntu/reagan-bench2/apps/frappe/frappe/model/base_document.py", line 66, in __init__
    self.update(d)
  File "/home/ubuntu/reagan-bench2/apps/frappe/frappe/model/base_document.py", line 89, in update
    self.set(key, value)
  File "/home/ubuntu/reagan-bench2/apps/frappe/frappe/model/base_document.py", line 136, in set
    self.extend(key, value)
  File "/home/ubuntu/reagan-bench2/apps/frappe/frappe/model/base_document.py", line 173, in extend
    self.append(key, v)
  File "/home/ubuntu/reagan-bench2/apps/frappe/frappe/model/base_document.py", line 165, in append
    raise ValueError(
ValueError: Document for field "item_uom" attached to child table of "New Items 1" must be a dict or BaseDocument, not class 'str' (GRAMS)
[ERROR] 2021-09-16 14:17:33,413 | /home/ubuntu/reagan-bench2/apps/frappe/frappe/utils/error.py:
New Exception collected with id: 2021-09-16 14:17:33.390938-127.0.0.1-eb1
[ERROR] 2021-09-16 14:28:35,942 | /home/ubuntu/reagan-bench2/apps/frappe/frappe/app.py:
Site: reaganerp.com
Form Dict: {
 "action": "Save",
 "cmd": "frappe.desk.form.save.savedocs",
 "doc": "{\"docstatus\":0,\"doctype\":\"Countsheet Template\",\"name\":\"New Countsheet Template 1\",\"__islocal\":1,\"__unsaved\":1,\"owner\":\"Administrator\",\"menu_filter\":\"HONEYBON CAKES\",\"items\":[{\"docstatus\":0,\"doctype\":\"Items\",\"name\":\"New Items 1\",\"__islocal\":1,\"__unsaved\":1,\"owner\":\"Administrator\",\"parent\":\"New Countsheet Template 1\",\"parentfield\":\"items\",\"parenttype\":\"Countsheet Template\",\"idx\":1,\"item_code\":\"Packaging, White Paper Twine per KG\",\"item_group\":\"Supplies - Labels & Packaging\",\"whole_uom\":\"KG\",\"item_uom\":[\"GRAMS\",\"KG\"],\"broken_uom\":\"GRAMS\"},{\"docstatus\":0,\"doctype\":\"Items\",\"name\":\"New Items 2\",\"__islocal\":1,\"__unsaved\":1,\"owner\":\"Administrator\",\"parent\":\"New Countsheet Template 1\",\"parentfield\":\"items\",\"parenttype\":\"Countsheet Template\",\"idx\":2,\"item_code\":\"HB Cakebox Large 9.6 50'S\",\"item_group\":\"Supplies - Labels & Packaging\",\"whole_uom\":\"EACH\",\"item_uom\":\"PC,EACH\"},{\"docstatus\":0,\"doctype\":\"Items\",\"name\":\"New Items 3\",\"__islocal\":1,\"__unsaved\":1,\"owner\":\"Administrator\",\"parent\":\"New Countsheet Template 1\",\"parentfield\":\"items\",\"parenttype\":\"Countsheet Template\",\"idx\":3,\"item_code\":\"Label, Honeybon Sticker 5cm Round 1s\",\"item_group\":\"Supplies - Labels & Packaging\",\"whole_uom\":\"PC\",\"item_uom\":\"PC\"},{\"docstatus\":0,\"doctype\":\"Items\",\"name\":\"New Items 4\",\"__islocal\":1,\"__unsaved\":1,\"owner\":\"Administrator\",\"parent\":\"New Countsheet Template 1\",\"parentfield\":\"items\",\"parenttype\":\"Countsheet Template\",\"idx\":4,\"item_code\":\"Prep Bakery, HB Ensaymada 1'S\",\"item_group\":\"Prep Bakery\",\"whole_uom\":\"EACH\",\"item_uom\":\"EACH\"}],\"outlet_prep\":[{\"docstatus\":0,\"doctype\":\"Outlet Prep\",\"name\":\"New Outlet Prep 1\",\"__islocal\":1,\"__unsaved\":1,\"owner\":\"Administrator\",\"parent\":\"New Countsheet Template 1\",\"parentfield\":\"outlet_prep\",\"parenttype\":\"Countsheet Template\",\"idx\":1,\"item_code\":\"Prep Pastry, HB Tiramisu (Whole Cake)\",\"item_group\":\"Prep Pastry\",\"whole_uom\":\"EACH\",\"item_uom\":\"EACH,SLICE\"},{\"docstatus\":0,\"doctype\":\"Outlet Prep\",\"name\":\"New Outlet Prep 2\",\"__islocal\":1,\"__unsaved\":1,\"owner\":\"Administrator\",\"parent\":\"New Countsheet Template 1\",\"parentfield\":\"outlet_prep\",\"parenttype\":\"Countsheet Template\",\"idx\":2,\"item_code\":\"Prep Pastry, HB Matcha Cappucino Whole Cake\",\"item_group\":\"Prep Pastry\",\"whole_uom\":\"EACH\",\"item_uom\":\"EACH,SLICE\"},{\"docstatus\":0,\"doctype\":\"Outlet Prep\",\"name\":\"New Outlet Prep 3\",\"__islocal\":1,\"__unsaved\":1,\"owner\":\"Administrator\",\"parent\":\"New Countsheet Template 1\",\"parentfield\":\"outlet_prep\",\"parenttype\":\"Countsheet Template\",\"idx\":3,\"item_code\":\"Prep Pastry, Mango Bits 800G\",\"item_group\":\"Prep Pastry\",\"whole_uom\":\"EACH\",\"item_uom\":\"GRAMS,EACH\"},{\"docstatus\":0,\"doctype\":\"Outlet Prep\",\"name\":\"New Outlet Prep 4\",\"__islocal\":1,\"__unsaved\":1,\"owner\":\"Administrator\",\"parent\":\"New Countsheet Template 1\",\"parentfield\":\"outlet_prep\",\"parenttype\":\"Countsheet Template\",\"idx\":4,\"item_code\":\"Prep Pastry, HB Double Fudge Choco Chip Cook (Yield: 12 Pieces)\",\"item_group\":\"Prep Pastry\",\"whole_uom\":\"EACH\",\"item_uom\":\"EACH,PC\"},{\"docstatus\":0,\"doctype\":\"Outlet Prep\",\"name\":\"New Outlet Prep 5\",\"__islocal\":1,\"__unsaved\":1,\"owner\":\"Administrator\",\"parent\":\"New Countsheet Template 1\",\"parentfield\":\"outlet_prep\",\"parenttype\":\"Countsheet Template\",\"idx\":5,\"item_code\":\"Prep Pastry, HB Black Forest Cake (Whole Cake)\",\"item_group\":\"Prep Pastry\",\"whole_uom\":\"EACH\",\"item_uom\":[\"SLICE\",\"EACH\"],\"broken_uom\":\"EACH\"},{\"docstatus\":0,\"doctype\":\"Outlet Prep\",\"name\":\"New Outlet Prep 6\",\"__islocal\":1,\"__unsaved\":1,\"owner\":\"Administrator\",\"parent\":\"New Countsheet Template 1\",\"parentfield\":\"outlet_prep\",\"parenttype\":\"Countsheet Template\",\"idx\":6,\"item_code\":\"Prep Pastry, HB Mocha Crunch (Whole Cake)\",\"item_group\":\"Prep Pastry\",\"whole_uom\":\"EACH\",\"item_uom\":\"EACH,SLICE\"},{\"docstatus\":0,\"doctype\":\"Outlet Prep\",\"name\":\"New Outlet Prep 7\",\"__islocal\":1,\"__unsaved\":1,\"owner\":\"Administrator\",\"parent\":\"New Countsheet Template 1\",\"parentfield\":\"outlet_prep\",\"parenttype\":\"Countsheet Template\",\"idx\":7,\"item_code\":\"Prep Pastry, HB Ultimate Chocolate Cake (Whole Cake)\",\"item_group\":\"Prep Pastry\",\"whole_uom\":\"EACH\",\"item_uom\":\"EACH,SLICE\"},{\"docstatus\":0,\"doctype\":\"Outlet Prep\",\"name\":\"New Outlet Prep 8\",\"__islocal\":1,\"__unsaved\":1,\"owner\":\"Administrator\",\"parent\":\"New Countsheet Template 1\",\"parentfield\":\"outlet_prep\",\"parenttype\":\"Countsheet Template\",\"idx\":8,\"item_code\":\"Prep Pastry, HB O Fudge Bars 6'S\",\"item_group\":\"Prep Pastry\",\"whole_uom\":\"EACH\",\"item_uom\":\"EACH\"},{\"docstatus\":0,\"doctype\":\"Outlet Prep\",\"name\":\"New Outlet Prep 9\",\"__islocal\":1,\"__unsaved\":1,\"owner\":\"Administrator\",\"parent\":\"New Countsheet Template 1\",\"parentfield\":\"outlet_prep\",\"parenttype\":\"Countsheet Template\",\"idx\":9,\"item_code\":\"Prep Pastry, HB Chocolate Caramel (Whole)\",\"item_group\":\"Prep Pastry\",\"whole_uom\":\"EACH\",\"item_uom\":\"SLICE,EACH\"},{\"docstatus\":0,\"doctype\":\"Outlet Prep\",\"name\":\"New Outlet Prep 10\",\"__islocal\":1,\"__unsaved\":1,\"owner\":\"Administrator\",\"parent\":\"New Countsheet Template 1\",\"parentfield\":\"outlet_prep\",\"parenttype\":\"Countsheet Template\",\"idx\":10,\"item_code\":\"Prep Pastry, HB Chocolate Decadence (Whole)\",\"item_group\":\"Prep Pastry\",\"whole_uom\":\"EACH\",\"item_uom\":\"SLICE,EACH\"},{\"docstatus\":0,\"doctype\":\"Outlet Prep\",\"name\":\"New Outlet Prep 11\",\"__islocal\":1,\"__unsaved\":1,\"owner\":\"Administrator\",\"parent\":\"New Countsheet Template 1\",\"parentfield\":\"outlet_prep\",\"parenttype\":\"Countsheet Template\",\"idx\":11,\"item_code\":\"Prep Pastry, HB Mango Brazo (Whole Cake)\",\"item_group\":\"Prep Pastry\",\"whole_uom\":\"EACH\",\"item_uom\":\"SLICE,EACH\"},{\"docstatus\":0,\"doctype\":\"Outlet Prep\",\"name\":\"New Outlet Prep 12\",\"__islocal\":1,\"__unsaved\":1,\"owner\":\"Administrator\",\"parent\":\"New Countsheet Template 1\",\"parentfield\":\"outlet_prep\",\"parenttype\":\"Countsheet Template\",\"idx\":12,\"item_code\":\"Prep Pastry, Mango Float 170G\",\"item_group\":\"Prep Pastry\",\"whole_uom\":\"EACH\",\"item_uom\":\"EACH,GRAMS\"},{\"docstatus\":0,\"doctype\":\"Outlet Prep\",\"name\":\"New Outlet Prep 13\",\"__islocal\":1,\"__unsaved\":1,\"owner\":\"Administrator\",\"parent\":\"New Countsheet Template 1\",\"parentfield\":\"outlet_prep\",\"parenttype\":\"Countsheet Template\",\"idx\":13,\"item_code\":\"Prep Pastry, HB Roasted Cocoa Mousse (Whole Cake)\",\"item_group\":\"Prep Pastry\",\"whole_uom\":\"EACH\",\"item_uom\":\"EACH,SLICE\"},{\"docstatus\":0,\"doctype\":\"Outlet Prep\",\"name\":\"New Outlet Prep 14\",\"__islocal\":1,\"__unsaved\":1,\"owner\":\"Administrator\",\"parent\":\"New Countsheet Template 1\",\"parentfield\":\"outlet_prep\",\"parenttype\":\"Countsheet Template\",\"idx\":14,\"item_code\":\"Prep Pastry, HB Mango Sonata (Whole Cake)\",\"item_group\":\"Prep Pastry\",\"whole_uom\":\"EACH\",\"item_uom\":\"EACH,SLICE\"},{\"docstatus\":0,\"doctype\":\"Outlet Prep\",\"name\":\"New Outlet Prep 15\",\"__islocal\":1,\"__unsaved\":1,\"owner\":\"Administrator\",\"parent\":\"New Countsheet Template 1\",\"parentfield\":\"outlet_prep\",\"parenttype\":\"Countsheet Template\",\"idx\":15,\"item_code\":\"Prep Pastry, HB Red Velvet (Event Cake)\",\"item_group\":\"Prep Pastry\",\"whole_uom\":\"EACH\",\"item_uom\":\"SLICE,EACH\"},{\"docstatus\":0,\"doctype\":\"Outlet Prep\",\"name\":\"New Outlet Prep 16\",\"__islocal\":1,\"__unsaved\":1,\"owner\":\"Administrator\",\"parent\":\"New Countsheet Template 1\",\"parentfield\":\"outlet_prep\",\"parenttype\":\"Countsheet Template\",\"idx\":16,\"item_code\":\"Prep Pastry, Ube Queso 180G\",\"item_group\":\"Prep Pastry\",\"whole_uom\":\"EACH\",\"item_uom\":\"EACH\"},{\"docstatus\":0,\"doctype\":\"Outlet Prep\",\"name\":\"New Outlet Prep 17\",\"__islocal\":1,\"__unsaved\":1,\"owner\":\"Administrator\",\"parent\":\"New Countsheet Template 1\",\"parentfield\":\"outlet_prep\",\"parenttype\":\"Countsheet Template\",\"idx\":17,\"item_code\":\"Prep Pastry, HB Red Velvet (Whole Cake)\",\"item_group\":\"Prep Pastry\",\"whole_uom\":\"EACH\",\"item_uom\":\"EACH,SLICE\"},{\"docstatus\":0,\"doctype\":\"Outlet Prep\",\"name\":\"New Outlet Prep 18\",\"__islocal\":1,\"__unsaved\":1,\"owner\":\"Administrator\",\"parent\":\"New Countsheet Template 1\",\"parentfield\":\"outlet_prep\",\"parenttype\":\"Countsheet Template\",\"idx\":18,\"item_code\":\"Prep Pastry, HB O Fudge Bars 12'S\",\"item_group\":\"Prep Pastry\",\"whole_uom\":\"EACH\",\"item_uom\":\"EACH\"},{\"docstatus\":0,\"doctype\":\"Outlet Prep\",\"name\":\"New Outlet Prep 19\",\"__islocal\":1,\"__unsaved\":1,\"owner\":\"Administrator\",\"parent\":\"New Countsheet Template 1\",\"parentfield\":\"outlet_prep\",\"parenttype\":\"Countsheet Template\",\"idx\":19,\"item_code\":\"Prep Pastry, HB White Choco Chunks Cookies 6'S\",\"item_group\":\"Prep Pastry\",\"whole_uom\":\"EACH\",\"item_uom\":\"EACH,PC\"},{\"docstatus\":0,\"doctype\":\"Outlet Prep\",\"name\":\"New Outlet Prep 20\",\"__islocal\":1,\"__unsaved\":1,\"owner\":\"Administrator\",\"parent\":\"New Countsheet Template 1\",\"parentfield\":\"outlet_prep\",\"parenttype\":\"Countsheet Template\",\"idx\":20,\"item_code\":\"Prep Pastry, HB Classic Ube Cake Whole Cake\",\"item_group\":\"Prep Pastry\",\"whole_uom\":\"EACH\",\"item_uom\":\"EACH,SLICE\"},{\"docstatus\":0,\"doctype\":\"Outlet Prep\",\"name\":\"New Outlet Prep 21\",\"__islocal\":1,\"__unsaved\":1,\"owner\":\"Administrator\",\"parent\":\"New Countsheet Template 1\",\"parentfield\":\"outlet_prep\",\"parenttype\":\"Countsheet Template\",\"idx\":21,\"item_code\":\"Prep Pastry, HB Strawberry Shortcake (Whole Cake)\",\"item_group\":\"Prep Pastry\",\"whole_uom\":\"EACH\",\"item_uom\":\"SLICE,EACH\"},{\"docstatus\":0,\"doctype\":\"Outlet Prep\",\"name\":\"New Outlet Prep 22\",\"__islocal\":1,\"__unsaved\":1,\"owner\":\"Administrator\",\"parent\":\"New Countsheet Template 1\",\"parentfield\":\"outlet_prep\",\"parenttype\":\"Countsheet Template\",\"idx\":22,\"item_code\":\"Prep Pastry, HB Double Choco Chunks Cookies 6'S\",\"item_group\":\"Prep Pastry\",\"whole_uom\":\"EACH\",\"item_uom\":\"PC,EACH\"},{\"docstatus\":0,\"doctype\":\"Outlet Prep\",\"name\":\"New Outlet Prep 23\",\"__islocal\":1,\"__unsaved\":1,\"owner\":\"Administrator\",\"parent\":\"New Countsheet Template 1\",\"parentfield\":\"outlet_prep\",\"parenttype\":\"Countsheet Template\",\"idx\":23,\"item_code\":\"Prep Pastry, HB Mango Cheesecake Whole Cake\",\"item_group\":\"Prep Pastry\",\"whole_uom\":\"EACH\",\"item_uom\":\"EACH,SLICE\"},{\"docstatus\":0,\"doctype\":\"Outlet Prep\",\"name\":\"New Outlet Prep 24\",\"__islocal\":1,\"__unsaved\":1,\"owner\":\"Administrator\",\"parent\":\"New Countsheet Template 1\",\"parentfield\":\"outlet_prep\",\"parenttype\":\"Countsheet Template\",\"idx\":24,\"item_code\":\"Prep Pastry, HB Brownies 6'S\",\"item_group\":\"Prep Pastry\",\"whole_uom\":\"EACH\",\"item_uom\":\"EACH\"},{\"docstatus\":0,\"doctype\":\"Outlet Prep\",\"name\":\"New Outlet Prep 25\",\"__islocal\":1,\"__unsaved\":1,\"owner\":\"Administrator\",\"parent\":\"New Countsheet Template 1\",\"parentfield\":\"outlet_prep\",\"parenttype\":\"Countsheet Template\",\"idx\":25,\"item_code\":\"Prep Pastry, HB White Choco Chunks Cookies 12'S\",\"item_group\":\"Prep Pastry\",\"whole_uom\":\"EACH\",\"item_uom\":\"PC,EACH\"},{\"docstatus\":0,\"doctype\":\"Outlet Prep\",\"name\":\"New Outlet Prep 26\",\"__islocal\":1,\"__unsaved\":1,\"owner\":\"Administrator\",\"parent\":\"New Countsheet Template 1\",\"parentfield\":\"outlet_prep\",\"parenttype\":\"Countsheet Template\",\"idx\":26,\"item_code\":\"Prep Pastry, HB Choco Crinkles 12'S\",\"item_group\":\"Prep Pastry\",\"whole_uom\":\"EACH\",\"item_uom\":\"EACH\"},{\"docstatus\":0,\"doctype\":\"Outlet Prep\",\"name\":\"New Outlet Prep 27\",\"__islocal\":1,\"__unsaved\":1,\"owner\":\"Administrator\",\"parent\":\"New Countsheet Template 1\",\"parentfield\":\"outlet_prep\",\"parenttype\":\"Countsheet Template\",\"idx\":27,\"item_code\":\"Prep Pastry, HB Brazo De Mercedes (Event Cake)\",\"item_group\":\"Prep Pastry\",\"whole_uom\":\"EACH\",\"item_uom\":\"SLICE,EACH\"},{\"docstatus\":0,\"doctype\":\"Outlet Prep\",\"name\":\"New Outlet Prep 28\",\"__islocal\":1,\"__unsaved\":1,\"owner\":\"Administrator\",\"parent\":\"New Countsheet Template 1\",\"parentfield\":\"outlet_prep\",\"parenttype\":\"Countsheet Template\",\"idx\":28,\"item_code\":\"Prep Pastry, HB Cr\u00e8me Brulee Cake (Whole Cake)\",\"item_group\":\"Prep Pastry\",\"whole_uom\":\"EACH\",\"item_uom\":\"EACH,SLICE\"},{\"docstatus\":0,\"doctype\":\"Outlet Prep\",\"name\":\"New Outlet Prep 29\",\"__islocal\":1,\"__unsaved\":1,\"owner\":\"Administrator\",\"parent\":\"New Countsheet Template 1\",\"parentfield\":\"outlet_prep\",\"parenttype\":\"Countsheet Template\",\"idx\":29,\"item_code\":\"Prep Pastry, HB Brownies 12'S\",\"item_group\":\"Prep Pastry\",\"whole_uom\":\"EACH\",\"item_uom\":\"EACH\"},{\"docstatus\":0,\"doctype\":\"Outlet Prep\",\"name\":\"New Outlet Prep 30\",\"__islocal\":1,\"__unsaved\":1,\"owner\":\"Administrator\",\"parent\":\"New Countsheet Template 1\",\"parentfield\":\"outlet_prep\",\"parenttype\":\"Countsheet Template\",\"idx\":30,\"item_code\":\"Prep Pastry, Japanese Cheesecake Cream 900G\",\"item_group\":\"Prep Pastry\",\"whole_uom\":\"EACH\",\"item_uom\":\"EACH,GRAMS\"},{\"docstatus\":0,\"doctype\":\"Outlet Prep\",\"name\":\"New Outlet Prep 31\",\"__islocal\":1,\"__unsaved\":1,\"owner\":\"Administrator\",\"parent\":\"New Countsheet Template 1\",\"parentfield\":\"outlet_prep\",\"parenttype\":\"Countsheet Template\",\"idx\":31,\"item_code\":\"Prep Pastry, HB Sansrival (Whole Cake)\",\"item_group\":\"Prep Pastry\",\"whole_uom\":\"EACH\",\"item_uom\":\"SLICE,EACH\"}],\"countsheet_type_name\":\"m\"}"
}
Request Error
Traceback (most recent call last):
  File "/home/ubuntu/reagan-bench2/apps/frappe/frappe/app.py", line 67, in application
    response = frappe.api.handle()
  File "/home/ubuntu/reagan-bench2/apps/frappe/frappe/api.py", line 59, in handle
    return frappe.handler.handle()
  File "/home/ubuntu/reagan-bench2/apps/frappe/frappe/handler.py", line 24, in handle
    data = execute_cmd(cmd)
  File "/home/ubuntu/reagan-bench2/apps/frappe/frappe/handler.py", line 64, in execute_cmd
    return frappe.call(method, **frappe.form_dict)
  File "/home/ubuntu/reagan-bench2/apps/frappe/frappe/__init__.py", line 1075, in call
    return fn(*args, **newargs)
  File "/home/ubuntu/reagan-bench2/apps/frappe/frappe/desk/form/save.py", line 12, in savedocs
    doc = frappe.get_doc(json.loads(doc))
  File "/home/ubuntu/reagan-bench2/apps/frappe/frappe/__init__.py", line 765, in get_doc
    doc = frappe.model.document.get_doc(*args, **kwargs)
  File "/home/ubuntu/reagan-bench2/apps/frappe/frappe/model/document.py", line 71, in get_doc
    return controller(*args, **kwargs)
  File "/home/ubuntu/reagan-bench2/apps/frappe/frappe/model/document.py", line 115, in __init__
    super(Document, self).__init__(kwargs)
  File "/home/ubuntu/reagan-bench2/apps/frappe/frappe/model/base_document.py", line 66, in __init__
    self.update(d)
  File "/home/ubuntu/reagan-bench2/apps/frappe/frappe/model/base_document.py", line 89, in update
    self.set(key, value)
  File "/home/ubuntu/reagan-bench2/apps/frappe/frappe/model/base_document.py", line 136, in set
    self.extend(key, value)
  File "/home/ubuntu/reagan-bench2/apps/frappe/frappe/model/base_document.py", line 173, in extend
    self.append(key, v)
  File "/home/ubuntu/reagan-bench2/apps/frappe/frappe/model/base_document.py", line 150, in append
    value = self._init_child(value, key)
  File "/home/ubuntu/reagan-bench2/apps/frappe/frappe/model/base_document.py", line 189, in _init_child
    value = get_controller(value["doctype"])(value)
  File "/home/ubuntu/reagan-bench2/apps/frappe/frappe/model/document.py", line 115, in __init__
    super(Document, self).__init__(kwargs)
  File "/home/ubuntu/reagan-bench2/apps/frappe/frappe/model/base_document.py", line 66, in __init__
    self.update(d)
  File "/home/ubuntu/reagan-bench2/apps/frappe/frappe/model/base_document.py", line 89, in update
    self.set(key, value)
  File "/home/ubuntu/reagan-bench2/apps/frappe/frappe/model/base_document.py", line 136, in set
    self.extend(key, value)
  File "/home/ubuntu/reagan-bench2/apps/frappe/frappe/model/base_document.py", line 173, in extend
    self.append(key, v)
  File "/home/ubuntu/reagan-bench2/apps/frappe/frappe/model/base_document.py", line 165, in append
    raise ValueError(
ValueError: Document for field "item_uom" attached to child table of "New Items 1" must be a dict or BaseDocument, not class 'str' (GRAMS)
[ERROR] 2021-09-16 14:28:35,968 | /home/ubuntu/reagan-bench2/apps/frappe/frappe/utils/error.py:
New Exception collected with id: 2021-09-16 14:28:35.942745-127.0.0.1-3d1
[ERROR] 2021-09-16 15:23:17,176 | /home/ubuntu/reagan-bench2/apps/frappe/frappe/utils/error.py:
New Exception collected with id: 2021-09-16 15:23:17.157460-127.0.0.1-40e
[ERROR] 2021-09-16 15:53:47,187 | /home/ubuntu/reagan-bench2/apps/frappe/frappe/utils/error.py:
New Exception collected with id: 2021-09-16 15:53:47.141572-127.0.0.1-23a
[ERROR] 2021-09-16 16:02:05,618 | /home/ubuntu/reagan-bench2/apps/frappe/frappe/utils/error.py:
New Exception collected with id: 2021-09-16 16:02:05.568439-127.0.0.1-c71
