[ERROR] 2021-09-17 19:14:08,812 | /home/ubuntu/reagan-bench2/apps/frappe/frappe/app.py:
Site: reaganerp.com
Form Dict: {
 "action": "Save",
 "cmd": "frappe.desk.form.save.savedocs",
 "doc": "{\"doctype\":\"DocType\",\"name\":\"Items\",\"owner\":\"Administrator\",\"creation\":\"2021-09-03 17:39:05.742405\",\"modified\":\"2021-09-16 18:59:44.593686\",\"modified_by\":\"Administrator\",\"idx\":0,\"docstatus\":0,\"issingle\":0,\"is_tree\":0,\"istable\":1,\"editable_grid\":1,\"track_changes\":1,\"module\":\"DSR\",\"name_case\":\"\",\"sort_field\":\"modified\",\"sort_order\":\"DESC\",\"read_only\":0,\"in_create\":0,\"allow_copy\":0,\"allow_rename\":0,\"allow_import\":0,\"hide_toolbar\":0,\"track_seen\":0,\"max_attachments\":0,\"document_type\":\"\",\"engine\":\"InnoDB\",\"is_submittable\":0,\"show_name_in_global_search\":0,\"custom\":0,\"beta\":0,\"has_web_view\":0,\"allow_guest_to_view\":0,\"allow_auto_repeat\":0,\"allow_events_in_timeline\":0,\"track_views\":0,\"show_preview_popup\":0,\"quick_entry\":1,\"fields\":[{\"doctype\":\"DocField\",\"name\":\"4edd52156b\",\"owner\":\"Administrator\",\"creation\":\"2021-09-03 17:39:05.742405\",\"modified\":\"2021-09-16 18:59:44.593686\",\"modified_by\":\"Administrator\",\"parent\":\"Items\",\"parentfield\":\"fields\",\"parenttype\":\"DocType\",\"idx\":1,\"docstatus\":0,\"fieldname\":\"item_code\",\"label\":\"Item Code\",\"fieldtype\":\"Link\",\"options\":\"Item\",\"search_index\":0,\"hidden\":0,\"set_only_once\":0,\"allow_in_quick_entry\":0,\"print_hide\":0,\"report_hide\":0,\"reqd\":0,\"bold\":0,\"in_global_search\":0,\"collapsible\":0,\"unique\":0,\"no_copy\":0,\"allow_on_submit\":0,\"show_preview_popup\":0,\"permlevel\":0,\"ignore_user_permissions\":0,\"columns\":2,\"in_list_view\":1,\"fetch_if_empty\":0,\"in_filter\":0,\"remember_last_selected_value\":0,\"ignore_xss_filter\":0,\"print_hide_if_no_value\":0,\"allow_bulk_edit\":0,\"in_standard_filter\":0,\"in_preview\":0,\"read_only\":1,\"precision\":\"\",\"length\":0,\"translatable\":0},{\"doctype\":\"DocField\",\"name\":\"92bdf2687d\",\"owner\":\"Administrator\",\"creation\":\"2021-09-03 17:39:05.742405\",\"modified\":\"2021-09-16 18:59:44.593686\",\"modified_by\":\"Administrator\",\"parent\":\"Items\",\"parentfield\":\"fields\",\"parenttype\":\"DocType\",\"idx\":2,\"docstatus\":0,\"fieldname\":\"item_group\",\"label\":\"Item Group\",\"fieldtype\":\"Link\",\"options\":\"Item Group\",\"search_index\":0,\"hidden\":0,\"set_only_once\":0,\"allow_in_quick_entry\":0,\"print_hide\":0,\"report_hide\":0,\"reqd\":0,\"bold\":0,\"in_global_search\":0,\"collapsible\":0,\"unique\":0,\"no_copy\":0,\"allow_on_submit\":0,\"show_preview_popup\":0,\"permlevel\":0,\"ignore_user_permissions\":0,\"columns\":2,\"in_list_view\":1,\"fetch_if_empty\":0,\"in_filter\":0,\"remember_last_selected_value\":0,\"ignore_xss_filter\":0,\"print_hide_if_no_value\":0,\"allow_bulk_edit\":0,\"in_standard_filter\":0,\"in_preview\":0,\"read_only\":1,\"precision\":\"\",\"length\":0,\"translatable\":0},{\"doctype\":\"DocField\",\"name\":\"6762de4446\",\"owner\":\"Administrator\",\"creation\":\"2021-09-03 17:39:05.742405\",\"modified\":\"2021-09-16 18:59:44.593686\",\"modified_by\":\"Administrator\",\"parent\":\"Items\",\"parentfield\":\"fields\",\"parenttype\":\"DocType\",\"idx\":3,\"docstatus\":0,\"fieldname\":\"whole_qty\",\"label\":\"Whole Qty\",\"fieldtype\":\"Float\",\"search_index\":0,\"hidden\":0,\"set_only_once\":0,\"allow_in_quick_entry\":0,\"print_hide\":0,\"report_hide\":0,\"reqd\":0,\"bold\":0,\"in_global_search\":0,\"collapsible\":0,\"unique\":0,\"no_copy\":0,\"allow_on_submit\":0,\"show_preview_popup\":0,\"permlevel\":0,\"ignore_user_permissions\":0,\"columns\":1,\"in_list_view\":1,\"fetch_if_empty\":0,\"in_filter\":0,\"remember_last_selected_value\":0,\"ignore_xss_filter\":0,\"print_hide_if_no_value\":0,\"allow_bulk_edit\":0,\"in_standard_filter\":0,\"in_preview\":0,\"read_only\":0,\"precision\":\"\",\"length\":0,\"translatable\":0},{\"doctype\":\"DocField\",\"name\":\"0e4d46008b\",\"owner\":\"Administrator\",\"creation\":\"2021-09-03 17:39:05.742405\",\"modified\":\"2021-09-16 18:59:44.593686\",\"modified_by\":\"Administrator\",\"parent\":\"Items\",\"parentfield\":\"fields\",\"parenttype\":\"DocType\",\"idx\":4,\"docstatus\":0,\"fieldname\":\"whole_uom\",\"label\":\"Whole UOM\",\"fieldtype\":\"Link\",\"options\":\"UOM\",\"search_index\":0,\"hidden\":0,\"set_only_once\":0,\"allow_in_quick_entry\":0,\"print_hide\":0,\"report_hide\":0,\"reqd\":0,\"bold\":0,\"in_global_search\":0,\"collapsible\":0,\"unique\":0,\"no_copy\":0,\"allow_on_submit\":0,\"show_preview_popup\":0,\"permlevel\":0,\"ignore_user_permissions\":0,\"columns\":1,\"in_list_view\":1,\"fetch_if_empty\":0,\"in_filter\":0,\"remember_last_selected_value\":0,\"ignore_xss_filter\":0,\"print_hide_if_no_value\":0,\"allow_bulk_edit\":0,\"in_standard_filter\":0,\"in_preview\":0,\"read_only\":1,\"precision\":\"\",\"length\":0,\"translatable\":0},{\"doctype\":\"DocField\",\"name\":\"85007b42bb\",\"owner\":\"Administrator\",\"creation\":\"2021-09-03 17:39:05.742405\",\"modified\":\"2021-09-16 18:59:44.593686\",\"modified_by\":\"Administrator\",\"parent\":\"Items\",\"parentfield\":\"fields\",\"parenttype\":\"DocType\",\"idx\":5,\"docstatus\":0,\"fieldname\":\"broken_qty\",\"label\":\"Broken Qty\",\"fieldtype\":\"Float\",\"search_index\":0,\"hidden\":0,\"set_only_once\":0,\"allow_in_quick_entry\":0,\"print_hide\":0,\"report_hide\":0,\"reqd\":0,\"bold\":0,\"in_global_search\":0,\"collapsible\":0,\"unique\":0,\"no_copy\":0,\"allow_on_submit\":0,\"show_preview_popup\":0,\"permlevel\":0,\"ignore_user_permissions\":0,\"columns\":1,\"in_list_view\":1,\"fetch_if_empty\":0,\"in_filter\":0,\"remember_last_selected_value\":0,\"ignore_xss_filter\":0,\"print_hide_if_no_value\":0,\"allow_bulk_edit\":0,\"in_standard_filter\":0,\"in_preview\":0,\"read_only\":0,\"precision\":\"\",\"length\":0,\"translatable\":0},{\"doctype\":\"DocField\",\"name\":\"0596d4eb1b\",\"owner\":\"Administrator\",\"creation\":\"2021-09-03 17:39:05.742405\",\"modified\":\"2021-09-16 18:59:44.593686\",\"modified_by\":\"Administrator\",\"parent\":\"Items\",\"parentfield\":\"fields\",\"parenttype\":\"DocType\",\"idx\":6,\"docstatus\":0,\"fieldname\":\"broken_uom\",\"label\":\"Broken UOM\",\"fieldtype\":\"Link\",\"options\":\"UOM\",\"search_index\":0,\"hidden\":0,\"set_only_once\":0,\"allow_in_quick_entry\":0,\"print_hide\":0,\"report_hide\":0,\"reqd\":0,\"bold\":0,\"in_global_search\":0,\"collapsible\":0,\"unique\":0,\"no_copy\":0,\"allow_on_submit\":0,\"show_preview_popup\":0,\"permlevel\":0,\"ignore_user_permissions\":0,\"columns\":1,\"in_list_view\":1,\"fetch_if_empty\":0,\"in_filter\":0,\"remember_last_selected_value\":0,\"ignore_xss_filter\":0,\"print_hide_if_no_value\":0,\"allow_bulk_edit\":0,\"in_standard_filter\":0,\"in_preview\":0,\"read_only\":0,\"precision\":\"\",\"length\":0,\"translatable\":0},{\"doctype\":\"DocField\",\"name\":\"1b1c621588\",\"owner\":\"Administrator\",\"creation\":\"2021-09-03 17:39:05.742405\",\"modified\":\"2021-09-16 18:59:44.593686\",\"modified_by\":\"Administrator\",\"parent\":\"Items\",\"parentfield\":\"fields\",\"parenttype\":\"DocType\",\"idx\":7,\"docstatus\":0,\"fieldname\":\"item_uom\",\"label\":\"Item UOM\",\"fieldtype\":\"Data\",\"options\":\"\",\"search_index\":0,\"hidden\":1,\"set_only_once\":0,\"allow_in_quick_entry\":0,\"print_hide\":0,\"report_hide\":0,\"reqd\":0,\"bold\":0,\"in_global_search\":0,\"collapsible\":0,\"unique\":0,\"no_copy\":0,\"allow_on_submit\":0,\"show_preview_popup\":0,\"permlevel\":0,\"ignore_user_permissions\":0,\"columns\":0,\"in_list_view\":0,\"fetch_if_empty\":0,\"in_filter\":0,\"remember_last_selected_value\":0,\"ignore_xss_filter\":0,\"print_hide_if_no_value\":0,\"allow_bulk_edit\":0,\"in_standard_filter\":0,\"in_preview\":0,\"read_only\":0,\"precision\":\"\",\"length\":0,\"translatable\":0}],\"permissions\":[],\"__unsaved\":1}"
}
Request Error
Traceback (most recent call last):
  File "/home/ubuntu/reagan-bench2/apps/frappe/frappe/app.py", line 67, in application
    response = frappe.api.handle()
  File "/home/ubuntu/reagan-bench2/apps/frappe/frappe/api.py", line 59, in handle
    return frappe.handler.handle()
  File "/home/ubuntu/reagan-bench2/apps/frappe/frappe/handler.py", line 24, in handle
    data = execute_cmd(cmd)
  File "/home/ubuntu/reagan-bench2/apps/frappe/frappe/handler.py", line 64, in execute_cmd
    return frappe.call(method, **frappe.form_dict)
  File "/home/ubuntu/reagan-bench2/apps/frappe/frappe/__init__.py", line 1075, in call
    return fn(*args, **newargs)
  File "/home/ubuntu/reagan-bench2/apps/frappe/frappe/desk/form/save.py", line 21, in savedocs
    doc.save()
  File "/home/ubuntu/reagan-bench2/apps/frappe/frappe/model/document.py", line 273, in save
    return self._save(*args, **kwargs)
  File "/home/ubuntu/reagan-bench2/apps/frappe/frappe/model/document.py", line 326, in _save
    self.run_post_save_methods()
  File "/home/ubuntu/reagan-bench2/apps/frappe/frappe/model/document.py", line 932, in run_post_save_methods
    self.run_method("on_update")
  File "/home/ubuntu/reagan-bench2/apps/frappe/frappe/model/document.py", line 802, in run_method
    out = Document.hook(fn)(self, *args, **kwargs)
  File "/home/ubuntu/reagan-bench2/apps/frappe/frappe/model/document.py", line 1081, in composer
    return composed(self, method, *args, **kwargs)
  File "/home/ubuntu/reagan-bench2/apps/frappe/frappe/model/document.py", line 1064, in runner
    add_to_return_value(self, fn(self, *args, **kwargs))
  File "/home/ubuntu/reagan-bench2/apps/frappe/frappe/model/document.py", line 796, in <lambda>
    fn = lambda self, *args, **kwargs: getattr(self, method)(*args, **kwargs)
  File "/home/ubuntu/reagan-bench2/apps/frappe/frappe/core/doctype/doctype/doctype.py", line 282, in on_update
    raise e
  File "/home/ubuntu/reagan-bench2/apps/frappe/frappe/core/doctype/doctype/doctype.py", line 279, in on_update
    frappe.db.updatedb(self.name, Meta(self))
  File "/home/ubuntu/reagan-bench2/apps/frappe/frappe/database/mariadb/database.py", line 291, in updatedb
    db_table.sync()
  File "/home/ubuntu/reagan-bench2/apps/frappe/frappe/database/schema.py", line 37, in sync
    self.alter()
  File "/home/ubuntu/reagan-bench2/apps/frappe/frappe/database/mariadb/schema.py", line 86, in alter
    raise e
  File "/home/ubuntu/reagan-bench2/apps/frappe/frappe/database/mariadb/schema.py", line 75, in alter
    frappe.db.sql(query)
  File "/home/ubuntu/reagan-bench2/apps/frappe/frappe/database/database.py", line 170, in sql
    self._cursor.execute(query)
  File "/home/ubuntu/reagan-bench2/env/lib/python3.8/site-packages/pymysql/cursors.py", line 170, in execute
    result = self._query(query)
  File "/home/ubuntu/reagan-bench2/env/lib/python3.8/site-packages/pymysql/cursors.py", line 328, in _query
    conn.query(q)
  File "/home/ubuntu/reagan-bench2/env/lib/python3.8/site-packages/pymysql/connections.py", line 517, in query
    self._affected_rows = self._read_query_result(unbuffered=unbuffered)
  File "/home/ubuntu/reagan-bench2/env/lib/python3.8/site-packages/pymysql/connections.py", line 732, in _read_query_result
    result.read()
  File "/home/ubuntu/reagan-bench2/env/lib/python3.8/site-packages/pymysql/connections.py", line 1075, in read
    first_packet = self.connection._read_packet()
  File "/home/ubuntu/reagan-bench2/env/lib/python3.8/site-packages/pymysql/connections.py", line 684, in _read_packet
    packet.check_error()
  File "/home/ubuntu/reagan-bench2/env/lib/python3.8/site-packages/pymysql/protocol.py", line 220, in check_error
    err.raise_mysql_exception(self._data)
  File "/home/ubuntu/reagan-bench2/env/lib/python3.8/site-packages/pymysql/err.py", line 109, in raise_mysql_exception
    raise errorclass(errno, errval)
pymysql.err.DataError: (1265, "Data truncated for column 'whole_qty' at row 4")
[ERROR] 2021-09-17 19:14:12,554 | /home/ubuntu/reagan-bench2/apps/frappe/frappe/utils/error.py:
New Exception collected with id: 2021-09-17 19:14:09.268793-127.0.0.1-f18
[ERROR] 2021-09-17 19:29:35,879 | /home/ubuntu/reagan-bench2/apps/frappe/frappe/app.py:
Site: reaganerp.com
Form Dict: {
 "action": "Save",
 "cmd": "frappe.desk.form.save.savedocs",
 "doc": "{\"name\":\"Items\",\"creation\":\"2021-09-03 17:39:05.742405\",\"modified\":\"2021-09-17 21:44:06.263475\",\"modified_by\":\"Administrator\",\"owner\":\"Administrator\",\"docstatus\":0,\"idx\":0,\"issingle\":0,\"is_tree\":0,\"istable\":1,\"editable_grid\":1,\"track_changes\":1,\"module\":\"DSR\",\"name_case\":\"\",\"sort_field\":\"modified\",\"sort_order\":\"DESC\",\"read_only\":0,\"in_create\":0,\"allow_copy\":0,\"allow_rename\":0,\"allow_import\":0,\"hide_toolbar\":0,\"track_seen\":0,\"max_attachments\":0,\"document_type\":\"\",\"engine\":\"InnoDB\",\"is_submittable\":0,\"show_name_in_global_search\":0,\"custom\":0,\"beta\":0,\"has_web_view\":0,\"allow_guest_to_view\":0,\"allow_auto_repeat\":0,\"allow_events_in_timeline\":0,\"track_views\":0,\"show_preview_popup\":0,\"quick_entry\":1,\"doctype\":\"DocType\",\"fields\":[{\"name\":\"4edd52156b\",\"creation\":\"2021-09-03 17:39:05.742405\",\"modified\":\"2021-09-17 21:44:06.263475\",\"modified_by\":\"Administrator\",\"owner\":\"Administrator\",\"docstatus\":0,\"parent\":\"Items\",\"parentfield\":\"fields\",\"parenttype\":\"DocType\",\"idx\":1,\"fieldname\":\"item_code\",\"label\":\"Item Code\",\"fieldtype\":\"Link\",\"options\":\"Item\",\"search_index\":0,\"hidden\":0,\"set_only_once\":0,\"allow_in_quick_entry\":0,\"print_hide\":0,\"report_hide\":0,\"reqd\":0,\"bold\":0,\"in_global_search\":0,\"collapsible\":0,\"unique\":0,\"no_copy\":0,\"allow_on_submit\":0,\"show_preview_popup\":0,\"permlevel\":0,\"ignore_user_permissions\":0,\"columns\":2,\"in_list_view\":1,\"fetch_if_empty\":0,\"in_filter\":0,\"remember_last_selected_value\":0,\"ignore_xss_filter\":0,\"print_hide_if_no_value\":0,\"allow_bulk_edit\":0,\"in_standard_filter\":0,\"in_preview\":0,\"read_only\":1,\"precision\":\"\",\"length\":0,\"translatable\":0,\"doctype\":\"DocField\"},{\"name\":\"92bdf2687d\",\"creation\":\"2021-09-03 17:39:05.742405\",\"modified\":\"2021-09-17 21:44:06.263475\",\"modified_by\":\"Administrator\",\"owner\":\"Administrator\",\"docstatus\":0,\"parent\":\"Items\",\"parentfield\":\"fields\",\"parenttype\":\"DocType\",\"idx\":2,\"fieldname\":\"item_group\",\"label\":\"Item Group\",\"fieldtype\":\"Link\",\"options\":\"Item Group\",\"search_index\":0,\"hidden\":0,\"set_only_once\":0,\"allow_in_quick_entry\":0,\"print_hide\":0,\"report_hide\":0,\"reqd\":0,\"bold\":0,\"in_global_search\":0,\"collapsible\":0,\"unique\":0,\"no_copy\":0,\"allow_on_submit\":0,\"show_preview_popup\":0,\"permlevel\":0,\"ignore_user_permissions\":0,\"columns\":2,\"in_list_view\":1,\"fetch_if_empty\":0,\"in_filter\":0,\"remember_last_selected_value\":0,\"ignore_xss_filter\":0,\"print_hide_if_no_value\":0,\"allow_bulk_edit\":0,\"in_standard_filter\":0,\"in_preview\":0,\"read_only\":1,\"precision\":\"\",\"length\":0,\"translatable\":0,\"doctype\":\"DocField\"},{\"name\":\"6762de4446\",\"creation\":\"2021-09-03 17:39:05.742405\",\"modified\":\"2021-09-17 21:44:06.263475\",\"modified_by\":\"Administrator\",\"owner\":\"Administrator\",\"docstatus\":0,\"parent\":\"Items\",\"parentfield\":\"fields\",\"parenttype\":\"DocType\",\"idx\":3,\"fieldname\":\"whole_qty\",\"label\":\"Whole Qty\",\"fieldtype\":\"Float\",\"search_index\":0,\"hidden\":0,\"set_only_once\":0,\"allow_in_quick_entry\":0,\"print_hide\":0,\"report_hide\":0,\"reqd\":0,\"bold\":0,\"in_global_search\":0,\"collapsible\":0,\"unique\":0,\"no_copy\":0,\"allow_on_submit\":0,\"show_preview_popup\":0,\"permlevel\":0,\"ignore_user_permissions\":0,\"columns\":1,\"in_list_view\":1,\"fetch_if_empty\":0,\"in_filter\":0,\"remember_last_selected_value\":0,\"ignore_xss_filter\":0,\"print_hide_if_no_value\":0,\"allow_bulk_edit\":0,\"in_standard_filter\":0,\"in_preview\":0,\"read_only\":0,\"precision\":\"\",\"length\":0,\"translatable\":0,\"doctype\":\"DocField\"},{\"name\":\"0e4d46008b\",\"creation\":\"2021-09-03 17:39:05.742405\",\"modified\":\"2021-09-17 21:44:06.263475\",\"modified_by\":\"Administrator\",\"owner\":\"Administrator\",\"docstatus\":0,\"parent\":\"Items\",\"parentfield\":\"fields\",\"parenttype\":\"DocType\",\"idx\":4,\"fieldname\":\"whole_uom\",\"label\":\"Whole UOM\",\"fieldtype\":\"Link\",\"options\":\"UOM\",\"search_index\":0,\"hidden\":0,\"set_only_once\":0,\"allow_in_quick_entry\":0,\"print_hide\":0,\"report_hide\":0,\"reqd\":0,\"bold\":0,\"in_global_search\":0,\"collapsible\":0,\"unique\":0,\"no_copy\":0,\"allow_on_submit\":0,\"show_preview_popup\":0,\"permlevel\":0,\"ignore_user_permissions\":0,\"columns\":1,\"in_list_view\":1,\"fetch_if_empty\":0,\"in_filter\":0,\"remember_last_selected_value\":0,\"ignore_xss_filter\":0,\"print_hide_if_no_value\":0,\"allow_bulk_edit\":0,\"in_standard_filter\":0,\"in_preview\":0,\"read_only\":0,\"precision\":\"\",\"length\":0,\"translatable\":0,\"doctype\":\"DocField\"},{\"name\":\"85007b42bb\",\"creation\":\"2021-09-03 17:39:05.742405\",\"modified\":\"2021-09-17 21:44:06.263475\",\"modified_by\":\"Administrator\",\"owner\":\"Administrator\",\"docstatus\":0,\"parent\":\"Items\",\"parentfield\":\"fields\",\"parenttype\":\"DocType\",\"idx\":5,\"fieldname\":\"broken_qty\",\"label\":\"Broken Qty\",\"fieldtype\":\"Float\",\"search_index\":0,\"hidden\":0,\"set_only_once\":0,\"allow_in_quick_entry\":0,\"print_hide\":0,\"report_hide\":0,\"reqd\":0,\"bold\":0,\"in_global_search\":0,\"collapsible\":0,\"unique\":0,\"no_copy\":0,\"allow_on_submit\":0,\"show_preview_popup\":0,\"permlevel\":0,\"ignore_user_permissions\":0,\"columns\":1,\"in_list_view\":1,\"fetch_if_empty\":0,\"in_filter\":0,\"remember_last_selected_value\":0,\"ignore_xss_filter\":0,\"print_hide_if_no_value\":0,\"allow_bulk_edit\":0,\"in_standard_filter\":0,\"in_preview\":0,\"read_only\":0,\"precision\":\"\",\"length\":0,\"translatable\":0,\"doctype\":\"DocField\"},{\"name\":\"0596d4eb1b\",\"creation\":\"2021-09-03 17:39:05.742405\",\"modified\":\"2021-09-17 21:44:06.263475\",\"modified_by\":\"Administrator\",\"owner\":\"Administrator\",\"docstatus\":0,\"parent\":\"Items\",\"parentfield\":\"fields\",\"parenttype\":\"DocType\",\"idx\":6,\"fieldname\":\"broken_uom\",\"label\":\"Broken UOM\",\"fieldtype\":\"Link\",\"options\":\"UOM\",\"search_index\":0,\"hidden\":0,\"set_only_once\":0,\"allow_in_quick_entry\":0,\"print_hide\":0,\"report_hide\":0,\"reqd\":0,\"bold\":0,\"in_global_search\":0,\"collapsible\":0,\"unique\":0,\"no_copy\":0,\"allow_on_submit\":0,\"show_preview_popup\":0,\"permlevel\":0,\"ignore_user_permissions\":0,\"columns\":1,\"in_list_view\":1,\"fetch_if_empty\":0,\"in_filter\":0,\"remember_last_selected_value\":0,\"ignore_xss_filter\":0,\"print_hide_if_no_value\":0,\"allow_bulk_edit\":0,\"in_standard_filter\":0,\"in_preview\":0,\"read_only\":0,\"precision\":\"\",\"length\":0,\"translatable\":0,\"doctype\":\"DocField\"},{\"name\":\"1b1c621588\",\"creation\":\"2021-09-03 17:39:05.742405\",\"modified\":\"2021-09-17 21:44:06.263475\",\"modified_by\":\"Administrator\",\"owner\":\"Administrator\",\"docstatus\":0,\"parent\":\"Items\",\"parentfield\":\"fields\",\"parenttype\":\"DocType\",\"idx\":7,\"fieldname\":\"item_uom\",\"label\":\"Item UOM\",\"fieldtype\":\"Data\",\"options\":\"\",\"search_index\":0,\"hidden\":1,\"set_only_once\":0,\"allow_in_quick_entry\":0,\"print_hide\":0,\"report_hide\":0,\"reqd\":0,\"bold\":0,\"in_global_search\":0,\"collapsible\":0,\"unique\":0,\"no_copy\":0,\"allow_on_submit\":0,\"show_preview_popup\":0,\"permlevel\":0,\"ignore_user_permissions\":0,\"columns\":0,\"in_list_view\":0,\"fetch_if_empty\":0,\"in_filter\":0,\"remember_last_selected_value\":0,\"ignore_xss_filter\":0,\"print_hide_if_no_value\":0,\"allow_bulk_edit\":0,\"in_standard_filter\":0,\"in_preview\":0,\"read_only\":0,\"precision\":\"\",\"length\":0,\"translatable\":0,\"doctype\":\"DocField\"}],\"permissions\":[],\"__last_sync_on\":\"2021-09-17T13:58:55.469Z\",\"__unsaved\":1}"
}
Request Error
Traceback (most recent call last):
  File "/home/ubuntu/reagan-bench2/apps/frappe/frappe/app.py", line 67, in application
    response = frappe.api.handle()
  File "/home/ubuntu/reagan-bench2/apps/frappe/frappe/api.py", line 59, in handle
    return frappe.handler.handle()
  File "/home/ubuntu/reagan-bench2/apps/frappe/frappe/handler.py", line 24, in handle
    data = execute_cmd(cmd)
  File "/home/ubuntu/reagan-bench2/apps/frappe/frappe/handler.py", line 64, in execute_cmd
    return frappe.call(method, **frappe.form_dict)
  File "/home/ubuntu/reagan-bench2/apps/frappe/frappe/__init__.py", line 1075, in call
    return fn(*args, **newargs)
  File "/home/ubuntu/reagan-bench2/apps/frappe/frappe/desk/form/save.py", line 21, in savedocs
    doc.save()
  File "/home/ubuntu/reagan-bench2/apps/frappe/frappe/model/document.py", line 273, in save
    return self._save(*args, **kwargs)
  File "/home/ubuntu/reagan-bench2/apps/frappe/frappe/model/document.py", line 326, in _save
    self.run_post_save_methods()
  File "/home/ubuntu/reagan-bench2/apps/frappe/frappe/model/document.py", line 932, in run_post_save_methods
    self.run_method("on_update")
  File "/home/ubuntu/reagan-bench2/apps/frappe/frappe/model/document.py", line 802, in run_method
    out = Document.hook(fn)(self, *args, **kwargs)
  File "/home/ubuntu/reagan-bench2/apps/frappe/frappe/model/document.py", line 1081, in composer
    return composed(self, method, *args, **kwargs)
  File "/home/ubuntu/reagan-bench2/apps/frappe/frappe/model/document.py", line 1064, in runner
    add_to_return_value(self, fn(self, *args, **kwargs))
  File "/home/ubuntu/reagan-bench2/apps/frappe/frappe/model/document.py", line 796, in <lambda>
    fn = lambda self, *args, **kwargs: getattr(self, method)(*args, **kwargs)
  File "/home/ubuntu/reagan-bench2/apps/frappe/frappe/core/doctype/doctype/doctype.py", line 282, in on_update
    raise e
  File "/home/ubuntu/reagan-bench2/apps/frappe/frappe/core/doctype/doctype/doctype.py", line 279, in on_update
    frappe.db.updatedb(self.name, Meta(self))
  File "/home/ubuntu/reagan-bench2/apps/frappe/frappe/database/mariadb/database.py", line 291, in updatedb
    db_table.sync()
  File "/home/ubuntu/reagan-bench2/apps/frappe/frappe/database/schema.py", line 37, in sync
    self.alter()
  File "/home/ubuntu/reagan-bench2/apps/frappe/frappe/database/mariadb/schema.py", line 86, in alter
    raise e
  File "/home/ubuntu/reagan-bench2/apps/frappe/frappe/database/mariadb/schema.py", line 75, in alter
    frappe.db.sql(query)
  File "/home/ubuntu/reagan-bench2/apps/frappe/frappe/database/database.py", line 170, in sql
    self._cursor.execute(query)
  File "/home/ubuntu/reagan-bench2/env/lib/python3.8/site-packages/pymysql/cursors.py", line 170, in execute
    result = self._query(query)
  File "/home/ubuntu/reagan-bench2/env/lib/python3.8/site-packages/pymysql/cursors.py", line 328, in _query
    conn.query(q)
  File "/home/ubuntu/reagan-bench2/env/lib/python3.8/site-packages/pymysql/connections.py", line 517, in query
    self._affected_rows = self._read_query_result(unbuffered=unbuffered)
  File "/home/ubuntu/reagan-bench2/env/lib/python3.8/site-packages/pymysql/connections.py", line 732, in _read_query_result
    result.read()
  File "/home/ubuntu/reagan-bench2/env/lib/python3.8/site-packages/pymysql/connections.py", line 1075, in read
    first_packet = self.connection._read_packet()
  File "/home/ubuntu/reagan-bench2/env/lib/python3.8/site-packages/pymysql/connections.py", line 684, in _read_packet
    packet.check_error()
  File "/home/ubuntu/reagan-bench2/env/lib/python3.8/site-packages/pymysql/protocol.py", line 220, in check_error
    err.raise_mysql_exception(self._data)
  File "/home/ubuntu/reagan-bench2/env/lib/python3.8/site-packages/pymysql/err.py", line 109, in raise_mysql_exception
    raise errorclass(errno, errval)
pymysql.err.DataError: (1265, "Data truncated for column 'whole_qty' at row 4")
[ERROR] 2021-09-17 19:29:35,992 | /home/ubuntu/reagan-bench2/apps/frappe/frappe/utils/error.py:
New Exception collected with id: 2021-09-17 19:29:35.889830-127.0.0.1-814
[ERROR] 2021-09-17 19:32:22,723 | /home/ubuntu/reagan-bench2/apps/frappe/frappe/app.py:
Site: reaganerp.com
Form Dict: {
 "action": "Save",
 "cmd": "frappe.desk.form.save.savedocs",
 "doc": "{\"name\":\"Items\",\"creation\":\"2021-09-03 17:39:05.742405\",\"modified\":\"2021-09-17 21:59:33.973764\",\"modified_by\":\"Administrator\",\"owner\":\"Administrator\",\"docstatus\":0,\"idx\":0,\"issingle\":0,\"is_tree\":0,\"istable\":1,\"editable_grid\":1,\"track_changes\":1,\"module\":\"DSR\",\"name_case\":\"\",\"sort_field\":\"modified\",\"sort_order\":\"DESC\",\"read_only\":0,\"in_create\":0,\"allow_copy\":0,\"allow_rename\":0,\"allow_import\":0,\"hide_toolbar\":0,\"track_seen\":0,\"max_attachments\":0,\"document_type\":\"\",\"engine\":\"InnoDB\",\"is_submittable\":0,\"show_name_in_global_search\":0,\"custom\":0,\"beta\":0,\"has_web_view\":0,\"allow_guest_to_view\":0,\"allow_auto_repeat\":0,\"allow_events_in_timeline\":0,\"track_views\":0,\"show_preview_popup\":0,\"quick_entry\":1,\"doctype\":\"DocType\",\"fields\":[{\"name\":\"4edd52156b\",\"creation\":\"2021-09-03 17:39:05.742405\",\"modified\":\"2021-09-17 21:59:33.973764\",\"modified_by\":\"Administrator\",\"owner\":\"Administrator\",\"docstatus\":0,\"parent\":\"Items\",\"parentfield\":\"fields\",\"parenttype\":\"DocType\",\"idx\":1,\"fieldname\":\"item_code\",\"label\":\"Item Code\",\"fieldtype\":\"Link\",\"options\":\"Item\",\"search_index\":0,\"hidden\":0,\"set_only_once\":0,\"allow_in_quick_entry\":0,\"print_hide\":0,\"report_hide\":0,\"reqd\":0,\"bold\":0,\"in_global_search\":0,\"collapsible\":0,\"unique\":0,\"no_copy\":0,\"allow_on_submit\":0,\"show_preview_popup\":0,\"permlevel\":0,\"ignore_user_permissions\":0,\"columns\":2,\"in_list_view\":1,\"fetch_if_empty\":0,\"in_filter\":0,\"remember_last_selected_value\":0,\"ignore_xss_filter\":0,\"print_hide_if_no_value\":0,\"allow_bulk_edit\":0,\"in_standard_filter\":0,\"in_preview\":0,\"read_only\":1,\"precision\":\"\",\"length\":0,\"translatable\":0,\"doctype\":\"DocField\"},{\"name\":\"92bdf2687d\",\"creation\":\"2021-09-03 17:39:05.742405\",\"modified\":\"2021-09-17 21:59:33.973764\",\"modified_by\":\"Administrator\",\"owner\":\"Administrator\",\"docstatus\":0,\"parent\":\"Items\",\"parentfield\":\"fields\",\"parenttype\":\"DocType\",\"idx\":2,\"fieldname\":\"item_group\",\"label\":\"Item Group\",\"fieldtype\":\"Link\",\"options\":\"Item Group\",\"search_index\":0,\"hidden\":0,\"set_only_once\":0,\"allow_in_quick_entry\":0,\"print_hide\":0,\"report_hide\":0,\"reqd\":0,\"bold\":0,\"in_global_search\":0,\"collapsible\":0,\"unique\":0,\"no_copy\":0,\"allow_on_submit\":0,\"show_preview_popup\":0,\"permlevel\":0,\"ignore_user_permissions\":0,\"columns\":2,\"in_list_view\":1,\"fetch_if_empty\":0,\"in_filter\":0,\"remember_last_selected_value\":0,\"ignore_xss_filter\":0,\"print_hide_if_no_value\":0,\"allow_bulk_edit\":0,\"in_standard_filter\":0,\"in_preview\":0,\"read_only\":1,\"precision\":\"\",\"length\":0,\"translatable\":0,\"doctype\":\"DocField\"},{\"name\":\"0e4d46008b\",\"creation\":\"2021-09-03 17:39:05.742405\",\"modified\":\"2021-09-17 21:59:33.973764\",\"modified_by\":\"Administrator\",\"owner\":\"Administrator\",\"docstatus\":0,\"parent\":\"Items\",\"parentfield\":\"fields\",\"parenttype\":\"DocType\",\"idx\":3,\"fieldname\":\"whole_uom\",\"label\":\"Whole UOM\",\"fieldtype\":\"Link\",\"options\":\"UOM\",\"search_index\":0,\"hidden\":0,\"set_only_once\":0,\"allow_in_quick_entry\":0,\"print_hide\":0,\"report_hide\":0,\"reqd\":0,\"bold\":0,\"in_global_search\":0,\"collapsible\":0,\"unique\":0,\"no_copy\":0,\"allow_on_submit\":0,\"show_preview_popup\":0,\"permlevel\":0,\"ignore_user_permissions\":0,\"columns\":1,\"in_list_view\":1,\"fetch_if_empty\":0,\"in_filter\":0,\"remember_last_selected_value\":0,\"ignore_xss_filter\":0,\"print_hide_if_no_value\":0,\"allow_bulk_edit\":0,\"in_standard_filter\":0,\"in_preview\":0,\"read_only\":0,\"precision\":\"\",\"length\":0,\"translatable\":0,\"doctype\":\"DocField\"},{\"name\":\"85007b42bb\",\"creation\":\"2021-09-03 17:39:05.742405\",\"modified\":\"2021-09-17 21:59:33.973764\",\"modified_by\":\"Administrator\",\"owner\":\"Administrator\",\"docstatus\":0,\"parent\":\"Items\",\"parentfield\":\"fields\",\"parenttype\":\"DocType\",\"idx\":4,\"fieldname\":\"broken_qty\",\"label\":\"Broken Qty\",\"fieldtype\":\"Float\",\"search_index\":0,\"hidden\":0,\"set_only_once\":0,\"allow_in_quick_entry\":0,\"print_hide\":0,\"report_hide\":0,\"reqd\":0,\"bold\":0,\"in_global_search\":0,\"collapsible\":0,\"unique\":0,\"no_copy\":0,\"allow_on_submit\":0,\"show_preview_popup\":0,\"permlevel\":0,\"ignore_user_permissions\":0,\"columns\":1,\"in_list_view\":1,\"fetch_if_empty\":0,\"in_filter\":0,\"remember_last_selected_value\":0,\"ignore_xss_filter\":0,\"print_hide_if_no_value\":0,\"allow_bulk_edit\":0,\"in_standard_filter\":0,\"in_preview\":0,\"read_only\":0,\"precision\":\"\",\"length\":0,\"translatable\":0,\"doctype\":\"DocField\"},{\"name\":\"0596d4eb1b\",\"creation\":\"2021-09-03 17:39:05.742405\",\"modified\":\"2021-09-17 21:59:33.973764\",\"modified_by\":\"Administrator\",\"owner\":\"Administrator\",\"docstatus\":0,\"parent\":\"Items\",\"parentfield\":\"fields\",\"parenttype\":\"DocType\",\"idx\":5,\"fieldname\":\"broken_uom\",\"label\":\"Broken UOM\",\"fieldtype\":\"Link\",\"options\":\"UOM\",\"search_index\":0,\"hidden\":0,\"set_only_once\":0,\"allow_in_quick_entry\":0,\"print_hide\":0,\"report_hide\":0,\"reqd\":0,\"bold\":0,\"in_global_search\":0,\"collapsible\":0,\"unique\":0,\"no_copy\":0,\"allow_on_submit\":0,\"show_preview_popup\":0,\"permlevel\":0,\"ignore_user_permissions\":0,\"columns\":1,\"in_list_view\":1,\"fetch_if_empty\":0,\"in_filter\":0,\"remember_last_selected_value\":0,\"ignore_xss_filter\":0,\"print_hide_if_no_value\":0,\"allow_bulk_edit\":0,\"in_standard_filter\":0,\"in_preview\":0,\"read_only\":0,\"precision\":\"\",\"length\":0,\"translatable\":0,\"doctype\":\"DocField\"},{\"name\":\"1b1c621588\",\"creation\":\"2021-09-03 17:39:05.742405\",\"modified\":\"2021-09-17 21:59:33.973764\",\"modified_by\":\"Administrator\",\"owner\":\"Administrator\",\"docstatus\":0,\"parent\":\"Items\",\"parentfield\":\"fields\",\"parenttype\":\"DocType\",\"idx\":6,\"fieldname\":\"item_uom\",\"label\":\"Item UOM\",\"fieldtype\":\"Data\",\"options\":\"\",\"search_index\":0,\"hidden\":1,\"set_only_once\":0,\"allow_in_quick_entry\":0,\"print_hide\":0,\"report_hide\":0,\"reqd\":0,\"bold\":0,\"in_global_search\":0,\"collapsible\":0,\"unique\":0,\"no_copy\":0,\"allow_on_submit\":0,\"show_preview_popup\":0,\"permlevel\":0,\"ignore_user_permissions\":0,\"columns\":0,\"in_list_view\":0,\"fetch_if_empty\":0,\"in_filter\":0,\"remember_last_selected_value\":0,\"ignore_xss_filter\":0,\"print_hide_if_no_value\":0,\"allow_bulk_edit\":0,\"in_standard_filter\":0,\"in_preview\":0,\"read_only\":0,\"precision\":\"\",\"length\":0,\"translatable\":0,\"doctype\":\"DocField\"}],\"permissions\":[],\"__last_sync_on\":\"2021-09-17T14:02:04.461Z\",\"__unsaved\":1}"
}
Request Error
Traceback (most recent call last):
  File "/home/ubuntu/reagan-bench2/apps/frappe/frappe/app.py", line 67, in application
    response = frappe.api.handle()
  File "/home/ubuntu/reagan-bench2/apps/frappe/frappe/api.py", line 59, in handle
    return frappe.handler.handle()
  File "/home/ubuntu/reagan-bench2/apps/frappe/frappe/handler.py", line 24, in handle
    data = execute_cmd(cmd)
  File "/home/ubuntu/reagan-bench2/apps/frappe/frappe/handler.py", line 64, in execute_cmd
    return frappe.call(method, **frappe.form_dict)
  File "/home/ubuntu/reagan-bench2/apps/frappe/frappe/__init__.py", line 1075, in call
    return fn(*args, **newargs)
  File "/home/ubuntu/reagan-bench2/apps/frappe/frappe/desk/form/save.py", line 21, in savedocs
    doc.save()
  File "/home/ubuntu/reagan-bench2/apps/frappe/frappe/model/document.py", line 273, in save
    return self._save(*args, **kwargs)
  File "/home/ubuntu/reagan-bench2/apps/frappe/frappe/model/document.py", line 326, in _save
    self.run_post_save_methods()
  File "/home/ubuntu/reagan-bench2/apps/frappe/frappe/model/document.py", line 932, in run_post_save_methods
    self.run_method("on_update")
  File "/home/ubuntu/reagan-bench2/apps/frappe/frappe/model/document.py", line 802, in run_method
    out = Document.hook(fn)(self, *args, **kwargs)
  File "/home/ubuntu/reagan-bench2/apps/frappe/frappe/model/document.py", line 1081, in composer
    return composed(self, method, *args, **kwargs)
  File "/home/ubuntu/reagan-bench2/apps/frappe/frappe/model/document.py", line 1064, in runner
    add_to_return_value(self, fn(self, *args, **kwargs))
  File "/home/ubuntu/reagan-bench2/apps/frappe/frappe/model/document.py", line 796, in <lambda>
    fn = lambda self, *args, **kwargs: getattr(self, method)(*args, **kwargs)
  File "/home/ubuntu/reagan-bench2/apps/frappe/frappe/core/doctype/doctype/doctype.py", line 282, in on_update
    raise e
  File "/home/ubuntu/reagan-bench2/apps/frappe/frappe/core/doctype/doctype/doctype.py", line 279, in on_update
    frappe.db.updatedb(self.name, Meta(self))
  File "/home/ubuntu/reagan-bench2/apps/frappe/frappe/database/mariadb/database.py", line 291, in updatedb
    db_table.sync()
  File "/home/ubuntu/reagan-bench2/apps/frappe/frappe/database/schema.py", line 37, in sync
    self.alter()
  File "/home/ubuntu/reagan-bench2/apps/frappe/frappe/database/mariadb/schema.py", line 86, in alter
    raise e
  File "/home/ubuntu/reagan-bench2/apps/frappe/frappe/database/mariadb/schema.py", line 75, in alter
    frappe.db.sql(query)
  File "/home/ubuntu/reagan-bench2/apps/frappe/frappe/database/database.py", line 170, in sql
    self._cursor.execute(query)
  File "/home/ubuntu/reagan-bench2/env/lib/python3.8/site-packages/pymysql/cursors.py", line 170, in execute
    result = self._query(query)
  File "/home/ubuntu/reagan-bench2/env/lib/python3.8/site-packages/pymysql/cursors.py", line 328, in _query
    conn.query(q)
  File "/home/ubuntu/reagan-bench2/env/lib/python3.8/site-packages/pymysql/connections.py", line 517, in query
    self._affected_rows = self._read_query_result(unbuffered=unbuffered)
  File "/home/ubuntu/reagan-bench2/env/lib/python3.8/site-packages/pymysql/connections.py", line 732, in _read_query_result
    result.read()
  File "/home/ubuntu/reagan-bench2/env/lib/python3.8/site-packages/pymysql/connections.py", line 1075, in read
    first_packet = self.connection._read_packet()
  File "/home/ubuntu/reagan-bench2/env/lib/python3.8/site-packages/pymysql/connections.py", line 684, in _read_packet
    packet.check_error()
  File "/home/ubuntu/reagan-bench2/env/lib/python3.8/site-packages/pymysql/protocol.py", line 220, in check_error
    err.raise_mysql_exception(self._data)
  File "/home/ubuntu/reagan-bench2/env/lib/python3.8/site-packages/pymysql/err.py", line 109, in raise_mysql_exception
    raise errorclass(errno, errval)
pymysql.err.DataError: (1265, "Data truncated for column 'broken_qty' at row 4")
[ERROR] 2021-09-17 19:32:22,836 | /home/ubuntu/reagan-bench2/apps/frappe/frappe/utils/error.py:
New Exception collected with id: 2021-09-17 19:32:22.744505-127.0.0.1-6eb
[ERROR] 2021-09-17 19:37:48,246 | /home/ubuntu/reagan-bench2/apps/frappe/frappe/app.py:
Site: reaganerp.com
Form Dict: {
 "action": "Save",
 "cmd": "frappe.desk.form.save.savedocs",
 "doc": "{\"name\":\"Items\",\"creation\":\"2021-09-03 17:39:05.742405\",\"modified\":\"2021-09-17 22:03:55.219853\",\"modified_by\":\"Administrator\",\"owner\":\"Administrator\",\"docstatus\":0,\"idx\":0,\"issingle\":0,\"is_tree\":0,\"istable\":1,\"editable_grid\":1,\"track_changes\":1,\"module\":\"DSR\",\"name_case\":\"\",\"sort_field\":\"modified\",\"sort_order\":\"DESC\",\"read_only\":0,\"in_create\":0,\"allow_copy\":0,\"allow_rename\":0,\"allow_import\":0,\"hide_toolbar\":0,\"track_seen\":0,\"max_attachments\":0,\"document_type\":\"\",\"engine\":\"InnoDB\",\"is_submittable\":0,\"show_name_in_global_search\":0,\"custom\":0,\"beta\":0,\"has_web_view\":0,\"allow_guest_to_view\":0,\"allow_auto_repeat\":0,\"allow_events_in_timeline\":0,\"track_views\":0,\"show_preview_popup\":0,\"quick_entry\":1,\"doctype\":\"DocType\",\"fields\":[{\"name\":\"4edd52156b\",\"creation\":\"2021-09-03 17:39:05.742405\",\"modified\":\"2021-09-17 22:03:55.219853\",\"modified_by\":\"Administrator\",\"owner\":\"Administrator\",\"docstatus\":0,\"parent\":\"Items\",\"parentfield\":\"fields\",\"parenttype\":\"DocType\",\"idx\":1,\"fieldname\":\"item_code\",\"label\":\"Item Code\",\"fieldtype\":\"Link\",\"options\":\"Item\",\"search_index\":0,\"hidden\":0,\"set_only_once\":0,\"allow_in_quick_entry\":0,\"print_hide\":0,\"report_hide\":0,\"reqd\":0,\"bold\":0,\"in_global_search\":0,\"collapsible\":0,\"unique\":0,\"no_copy\":0,\"allow_on_submit\":0,\"show_preview_popup\":0,\"permlevel\":0,\"ignore_user_permissions\":0,\"columns\":2,\"in_list_view\":1,\"fetch_if_empty\":0,\"in_filter\":0,\"remember_last_selected_value\":0,\"ignore_xss_filter\":0,\"print_hide_if_no_value\":0,\"allow_bulk_edit\":0,\"in_standard_filter\":0,\"in_preview\":0,\"read_only\":1,\"precision\":\"\",\"length\":0,\"translatable\":0,\"doctype\":\"DocField\"},{\"name\":\"92bdf2687d\",\"creation\":\"2021-09-03 17:39:05.742405\",\"modified\":\"2021-09-17 22:03:55.219853\",\"modified_by\":\"Administrator\",\"owner\":\"Administrator\",\"docstatus\":0,\"parent\":\"Items\",\"parentfield\":\"fields\",\"parenttype\":\"DocType\",\"idx\":2,\"fieldname\":\"item_group\",\"label\":\"Item Group\",\"fieldtype\":\"Link\",\"options\":\"Item Group\",\"search_index\":0,\"hidden\":0,\"set_only_once\":0,\"allow_in_quick_entry\":0,\"print_hide\":0,\"report_hide\":0,\"reqd\":0,\"bold\":0,\"in_global_search\":0,\"collapsible\":0,\"unique\":0,\"no_copy\":0,\"allow_on_submit\":0,\"show_preview_popup\":0,\"permlevel\":0,\"ignore_user_permissions\":0,\"columns\":2,\"in_list_view\":1,\"fetch_if_empty\":0,\"in_filter\":0,\"remember_last_selected_value\":0,\"ignore_xss_filter\":0,\"print_hide_if_no_value\":0,\"allow_bulk_edit\":0,\"in_standard_filter\":0,\"in_preview\":0,\"read_only\":1,\"precision\":\"\",\"length\":0,\"translatable\":0,\"doctype\":\"DocField\"},{\"docstatus\":0,\"doctype\":\"DocField\",\"name\":\"New DocField 1\",\"__islocal\":1,\"__unsaved\":1,\"owner\":\"Administrator\",\"fieldtype\":\"Float\",\"reqd\":0,\"precision\":\"\",\"search_index\":0,\"in_list_view\":1,\"in_standard_filter\":0,\"in_global_search\":0,\"in_preview\":0,\"allow_in_quick_entry\":0,\"bold\":0,\"translatable\":0,\"collapsible\":0,\"fetch_if_empty\":0,\"hidden\":0,\"read_only\":0,\"unique\":0,\"set_only_once\":0,\"allow_bulk_edit\":0,\"permlevel\":0,\"ignore_user_permissions\":0,\"allow_on_submit\":0,\"report_hide\":0,\"remember_last_selected_value\":0,\"ignore_xss_filter\":0,\"in_filter\":0,\"no_copy\":0,\"print_hide\":0,\"print_hide_if_no_value\":0,\"parent\":\"Items\",\"parentfield\":\"fields\",\"parenttype\":\"DocType\",\"idx\":3,\"__unedited\":false,\"label\":\"Whole Qty\",\"fieldname\":\"whole_qty\",\"columns\":1},{\"name\":\"0e4d46008b\",\"creation\":\"2021-09-03 17:39:05.742405\",\"modified\":\"2021-09-17 22:03:55.219853\",\"modified_by\":\"Administrator\",\"owner\":\"Administrator\",\"docstatus\":0,\"parent\":\"Items\",\"parentfield\":\"fields\",\"parenttype\":\"DocType\",\"idx\":4,\"fieldname\":\"whole_uom\",\"label\":\"Whole UOM\",\"fieldtype\":\"Link\",\"options\":\"UOM\",\"search_index\":0,\"hidden\":0,\"set_only_once\":0,\"allow_in_quick_entry\":0,\"print_hide\":0,\"report_hide\":0,\"reqd\":0,\"bold\":0,\"in_global_search\":0,\"collapsible\":0,\"unique\":0,\"no_copy\":0,\"allow_on_submit\":0,\"show_preview_popup\":0,\"permlevel\":0,\"ignore_user_permissions\":0,\"columns\":1,\"in_list_view\":1,\"fetch_if_empty\":0,\"in_filter\":0,\"remember_last_selected_value\":0,\"ignore_xss_filter\":0,\"print_hide_if_no_value\":0,\"allow_bulk_edit\":0,\"in_standard_filter\":0,\"in_preview\":0,\"read_only\":0,\"precision\":\"\",\"length\":0,\"translatable\":0,\"doctype\":\"DocField\"},{\"docstatus\":0,\"doctype\":\"DocField\",\"name\":\"New DocField 2\",\"__islocal\":1,\"__unsaved\":1,\"owner\":\"Administrator\",\"fieldtype\":\"Float\",\"reqd\":0,\"precision\":\"\",\"search_index\":0,\"in_list_view\":1,\"in_standard_filter\":0,\"in_global_search\":0,\"in_preview\":0,\"allow_in_quick_entry\":0,\"bold\":0,\"translatable\":0,\"collapsible\":0,\"fetch_if_empty\":0,\"hidden\":0,\"read_only\":0,\"unique\":0,\"set_only_once\":0,\"allow_bulk_edit\":0,\"permlevel\":0,\"ignore_user_permissions\":0,\"allow_on_submit\":0,\"report_hide\":0,\"remember_last_selected_value\":0,\"ignore_xss_filter\":0,\"in_filter\":0,\"no_copy\":0,\"print_hide\":0,\"print_hide_if_no_value\":0,\"parent\":\"Items\",\"parentfield\":\"fields\",\"parenttype\":\"DocType\",\"idx\":5,\"__unedited\":false,\"label\":\"Broken Qty\",\"fieldname\":\"broken_qty\",\"columns\":1},{\"name\":\"0596d4eb1b\",\"creation\":\"2021-09-03 17:39:05.742405\",\"modified\":\"2021-09-17 22:03:55.219853\",\"modified_by\":\"Administrator\",\"owner\":\"Administrator\",\"docstatus\":0,\"parent\":\"Items\",\"parentfield\":\"fields\",\"parenttype\":\"DocType\",\"idx\":6,\"fieldname\":\"broken_uom\",\"label\":\"Broken UOM\",\"fieldtype\":\"Link\",\"options\":\"UOM\",\"search_index\":0,\"hidden\":0,\"set_only_once\":0,\"allow_in_quick_entry\":0,\"print_hide\":0,\"report_hide\":0,\"reqd\":0,\"bold\":0,\"in_global_search\":0,\"collapsible\":0,\"unique\":0,\"no_copy\":0,\"allow_on_submit\":0,\"show_preview_popup\":0,\"permlevel\":0,\"ignore_user_permissions\":0,\"columns\":1,\"in_list_view\":1,\"fetch_if_empty\":0,\"in_filter\":0,\"remember_last_selected_value\":0,\"ignore_xss_filter\":0,\"print_hide_if_no_value\":0,\"allow_bulk_edit\":0,\"in_standard_filter\":0,\"in_preview\":0,\"read_only\":0,\"precision\":\"\",\"length\":0,\"translatable\":0,\"doctype\":\"DocField\"},{\"name\":\"1b1c621588\",\"creation\":\"2021-09-03 17:39:05.742405\",\"modified\":\"2021-09-17 22:03:55.219853\",\"modified_by\":\"Administrator\",\"owner\":\"Administrator\",\"docstatus\":0,\"parent\":\"Items\",\"parentfield\":\"fields\",\"parenttype\":\"DocType\",\"idx\":7,\"fieldname\":\"item_uom\",\"label\":\"Item UOM\",\"fieldtype\":\"Data\",\"options\":\"\",\"search_index\":0,\"hidden\":0,\"set_only_once\":0,\"allow_in_quick_entry\":0,\"print_hide\":0,\"report_hide\":0,\"reqd\":0,\"bold\":0,\"in_global_search\":0,\"collapsible\":0,\"unique\":0,\"no_copy\":0,\"allow_on_submit\":0,\"show_preview_popup\":0,\"permlevel\":0,\"ignore_user_permissions\":0,\"columns\":0,\"in_list_view\":0,\"fetch_if_empty\":0,\"in_filter\":0,\"remember_last_selected_value\":0,\"ignore_xss_filter\":0,\"print_hide_if_no_value\":0,\"allow_bulk_edit\":0,\"in_standard_filter\":0,\"in_preview\":0,\"read_only\":0,\"precision\":\"\",\"length\":0,\"translatable\":0,\"doctype\":\"DocField\"}],\"permissions\":[],\"__unsaved\":1}"
}
Request Error
Traceback (most recent call last):
  File "/home/ubuntu/reagan-bench2/apps/frappe/frappe/app.py", line 67, in application
    response = frappe.api.handle()
  File "/home/ubuntu/reagan-bench2/apps/frappe/frappe/api.py", line 59, in handle
    return frappe.handler.handle()
  File "/home/ubuntu/reagan-bench2/apps/frappe/frappe/handler.py", line 24, in handle
    data = execute_cmd(cmd)
  File "/home/ubuntu/reagan-bench2/apps/frappe/frappe/handler.py", line 64, in execute_cmd
    return frappe.call(method, **frappe.form_dict)
  File "/home/ubuntu/reagan-bench2/apps/frappe/frappe/__init__.py", line 1075, in call
    return fn(*args, **newargs)
  File "/home/ubuntu/reagan-bench2/apps/frappe/frappe/desk/form/save.py", line 21, in savedocs
    doc.save()
  File "/home/ubuntu/reagan-bench2/apps/frappe/frappe/model/document.py", line 273, in save
    return self._save(*args, **kwargs)
  File "/home/ubuntu/reagan-bench2/apps/frappe/frappe/model/document.py", line 326, in _save
    self.run_post_save_methods()
  File "/home/ubuntu/reagan-bench2/apps/frappe/frappe/model/document.py", line 932, in run_post_save_methods
    self.run_method("on_update")
  File "/home/ubuntu/reagan-bench2/apps/frappe/frappe/model/document.py", line 802, in run_method
    out = Document.hook(fn)(self, *args, **kwargs)
  File "/home/ubuntu/reagan-bench2/apps/frappe/frappe/model/document.py", line 1081, in composer
    return composed(self, method, *args, **kwargs)
  File "/home/ubuntu/reagan-bench2/apps/frappe/frappe/model/document.py", line 1064, in runner
    add_to_return_value(self, fn(self, *args, **kwargs))
  File "/home/ubuntu/reagan-bench2/apps/frappe/frappe/model/document.py", line 796, in <lambda>
    fn = lambda self, *args, **kwargs: getattr(self, method)(*args, **kwargs)
  File "/home/ubuntu/reagan-bench2/apps/frappe/frappe/core/doctype/doctype/doctype.py", line 282, in on_update
    raise e
  File "/home/ubuntu/reagan-bench2/apps/frappe/frappe/core/doctype/doctype/doctype.py", line 279, in on_update
    frappe.db.updatedb(self.name, Meta(self))
  File "/home/ubuntu/reagan-bench2/apps/frappe/frappe/database/mariadb/database.py", line 291, in updatedb
    db_table.sync()
  File "/home/ubuntu/reagan-bench2/apps/frappe/frappe/database/schema.py", line 37, in sync
    self.alter()
  File "/home/ubuntu/reagan-bench2/apps/frappe/frappe/database/mariadb/schema.py", line 86, in alter
    raise e
  File "/home/ubuntu/reagan-bench2/apps/frappe/frappe/database/mariadb/schema.py", line 75, in alter
    frappe.db.sql(query)
  File "/home/ubuntu/reagan-bench2/apps/frappe/frappe/database/database.py", line 170, in sql
    self._cursor.execute(query)
  File "/home/ubuntu/reagan-bench2/env/lib/python3.8/site-packages/pymysql/cursors.py", line 170, in execute
    result = self._query(query)
  File "/home/ubuntu/reagan-bench2/env/lib/python3.8/site-packages/pymysql/cursors.py", line 328, in _query
    conn.query(q)
  File "/home/ubuntu/reagan-bench2/env/lib/python3.8/site-packages/pymysql/connections.py", line 517, in query
    self._affected_rows = self._read_query_result(unbuffered=unbuffered)
  File "/home/ubuntu/reagan-bench2/env/lib/python3.8/site-packages/pymysql/connections.py", line 732, in _read_query_result
    result.read()
  File "/home/ubuntu/reagan-bench2/env/lib/python3.8/site-packages/pymysql/connections.py", line 1075, in read
    first_packet = self.connection._read_packet()
  File "/home/ubuntu/reagan-bench2/env/lib/python3.8/site-packages/pymysql/connections.py", line 684, in _read_packet
    packet.check_error()
  File "/home/ubuntu/reagan-bench2/env/lib/python3.8/site-packages/pymysql/protocol.py", line 220, in check_error
    err.raise_mysql_exception(self._data)
  File "/home/ubuntu/reagan-bench2/env/lib/python3.8/site-packages/pymysql/err.py", line 109, in raise_mysql_exception
    raise errorclass(errno, errval)
pymysql.err.DataError: (1265, "Data truncated for column 'whole_qty' at row 4")
[ERROR] 2021-09-17 19:37:48,501 | /home/ubuntu/reagan-bench2/apps/frappe/frappe/utils/error.py:
New Exception collected with id: 2021-09-17 19:37:48.257207-127.0.0.1-8f4
[ERROR] 2021-09-17 19:46:30,056 | /home/ubuntu/reagan-bench2/apps/frappe/frappe/app.py:
Site: reaganerp.com
Form Dict: {
 "action": "Save",
 "cmd": "frappe.desk.form.save.savedocs",
 "doc": "{\"docstatus\":0,\"doctype\":\"DocType\",\"name\":\"New DocType 1\",\"__islocal\":1,\"__unsaved\":1,\"owner\":\"Administrator\",\"is_submittable\":0,\"istable\":1,\"issingle\":0,\"is_tree\":0,\"editable_grid\":1,\"quick_entry\":1,\"track_changes\":1,\"track_seen\":0,\"track_views\":0,\"custom\":0,\"beta\":0,\"name_case\":\"\",\"hide_toolbar\":0,\"allow_copy\":0,\"allow_rename\":0,\"allow_import\":0,\"allow_events_in_timeline\":0,\"allow_auto_repeat\":0,\"sort_field\":\"modified\",\"sort_order\":\"DESC\",\"document_type\":\"\",\"show_preview_popup\":0,\"show_name_in_global_search\":0,\"read_only\":0,\"in_create\":0,\"has_web_view\":0,\"allow_guest_to_view\":0,\"engine\":\"InnoDB\",\"permissions\":[{\"docstatus\":0,\"doctype\":\"DocPerm\",\"name\":\"New DocPerm 1\",\"__islocal\":1,\"__unsaved\":1,\"owner\":\"Administrator\",\"permlevel\":0,\"read\":1,\"write\":1,\"create\":1,\"delete\":1,\"report\":1,\"export\":1,\"share\":1,\"print\":1,\"email\":1,\"parent\":\"New DocType 1\",\"parentfield\":\"permissions\",\"parenttype\":\"DocType\",\"idx\":1,\"role\":\"System Manager\"}],\"__newname\":\"Items\",\"module\":\"DSR\",\"fields\":[{\"docstatus\":0,\"doctype\":\"DocField\",\"name\":\"New DocField 3\",\"__islocal\":1,\"__unsaved\":1,\"owner\":\"Administrator\",\"fieldtype\":\"Link\",\"reqd\":0,\"precision\":\"\",\"search_index\":0,\"in_list_view\":1,\"in_standard_filter\":0,\"in_global_search\":0,\"in_preview\":0,\"allow_in_quick_entry\":0,\"bold\":0,\"translatable\":0,\"collapsible\":0,\"fetch_if_empty\":0,\"hidden\":0,\"read_only\":1,\"unique\":0,\"set_only_once\":0,\"allow_bulk_edit\":0,\"permlevel\":0,\"ignore_user_permissions\":0,\"allow_on_submit\":0,\"report_hide\":0,\"remember_last_selected_value\":0,\"ignore_xss_filter\":0,\"in_filter\":0,\"no_copy\":0,\"print_hide\":0,\"print_hide_if_no_value\":0,\"parent\":\"New DocType 1\",\"parentfield\":\"fields\",\"parenttype\":\"DocType\",\"idx\":1,\"__unedited\":false,\"label\":\"Item Code\",\"fieldname\":\"item_code\",\"options\":\"Item\",\"columns\":2},{\"docstatus\":0,\"doctype\":\"DocField\",\"name\":\"New DocField 4\",\"__islocal\":1,\"__unsaved\":1,\"owner\":\"Administrator\",\"fieldtype\":\"Link\",\"reqd\":0,\"precision\":\"\",\"search_index\":0,\"in_list_view\":1,\"in_standard_filter\":0,\"in_global_search\":0,\"in_preview\":0,\"allow_in_quick_entry\":0,\"bold\":0,\"translatable\":0,\"collapsible\":0,\"fetch_if_empty\":0,\"hidden\":0,\"read_only\":1,\"unique\":0,\"set_only_once\":0,\"allow_bulk_edit\":0,\"permlevel\":0,\"ignore_user_permissions\":0,\"allow_on_submit\":0,\"report_hide\":0,\"remember_last_selected_value\":0,\"ignore_xss_filter\":0,\"in_filter\":0,\"no_copy\":0,\"print_hide\":0,\"print_hide_if_no_value\":0,\"parent\":\"New DocType 1\",\"parentfield\":\"fields\",\"parenttype\":\"DocType\",\"idx\":2,\"__unedited\":false,\"label\":\"Item Group\",\"fieldname\":\"item_group\",\"options\":\"Item Group\",\"columns\":2},{\"docstatus\":0,\"doctype\":\"DocField\",\"name\":\"New DocField 5\",\"__islocal\":1,\"__unsaved\":1,\"owner\":\"Administrator\",\"fieldtype\":\"Float\",\"reqd\":0,\"precision\":\"\",\"search_index\":0,\"in_list_view\":1,\"in_standard_filter\":0,\"in_global_search\":0,\"in_preview\":0,\"allow_in_quick_entry\":0,\"bold\":0,\"translatable\":0,\"collapsible\":0,\"fetch_if_empty\":0,\"hidden\":0,\"read_only\":0,\"unique\":0,\"set_only_once\":0,\"allow_bulk_edit\":0,\"permlevel\":0,\"ignore_user_permissions\":0,\"allow_on_submit\":0,\"report_hide\":0,\"remember_last_selected_value\":0,\"ignore_xss_filter\":0,\"in_filter\":0,\"no_copy\":0,\"print_hide\":0,\"print_hide_if_no_value\":0,\"parent\":\"New DocType 1\",\"parentfield\":\"fields\",\"parenttype\":\"DocType\",\"idx\":3,\"__unedited\":false,\"label\":\"Whole Qty\",\"fieldname\":\"whole_qty\",\"columns\":1},{\"docstatus\":0,\"doctype\":\"DocField\",\"name\":\"New DocField 6\",\"__islocal\":1,\"__unsaved\":1,\"owner\":\"Administrator\",\"fieldtype\":\"Link\",\"reqd\":0,\"precision\":\"\",\"search_index\":0,\"in_list_view\":1,\"in_standard_filter\":0,\"in_global_search\":0,\"in_preview\":0,\"allow_in_quick_entry\":0,\"bold\":0,\"translatable\":0,\"collapsible\":0,\"fetch_if_empty\":0,\"hidden\":0,\"read_only\":1,\"unique\":0,\"set_only_once\":0,\"allow_bulk_edit\":0,\"permlevel\":0,\"ignore_user_permissions\":0,\"allow_on_submit\":0,\"report_hide\":0,\"remember_last_selected_value\":0,\"ignore_xss_filter\":0,\"in_filter\":0,\"no_copy\":0,\"print_hide\":0,\"print_hide_if_no_value\":0,\"parent\":\"New DocType 1\",\"parentfield\":\"fields\",\"parenttype\":\"DocType\",\"idx\":4,\"__unedited\":false,\"label\":\"Whole UOM\",\"fieldname\":\"whole_uom\",\"options\":\"UOM\",\"columns\":1},{\"docstatus\":0,\"doctype\":\"DocField\",\"name\":\"New DocField 7\",\"__islocal\":1,\"__unsaved\":1,\"owner\":\"Administrator\",\"fieldtype\":\"Float\",\"reqd\":0,\"precision\":\"\",\"search_index\":0,\"in_list_view\":1,\"in_standard_filter\":0,\"in_global_search\":0,\"in_preview\":0,\"allow_in_quick_entry\":0,\"bold\":0,\"translatable\":0,\"collapsible\":0,\"fetch_if_empty\":0,\"hidden\":0,\"read_only\":0,\"unique\":0,\"set_only_once\":0,\"allow_bulk_edit\":0,\"permlevel\":0,\"ignore_user_permissions\":0,\"allow_on_submit\":0,\"report_hide\":0,\"remember_last_selected_value\":0,\"ignore_xss_filter\":0,\"in_filter\":0,\"no_copy\":0,\"print_hide\":0,\"print_hide_if_no_value\":0,\"parent\":\"New DocType 1\",\"parentfield\":\"fields\",\"parenttype\":\"DocType\",\"idx\":5,\"__unedited\":false,\"label\":\"Broken Qty\",\"fieldname\":\"broken_qty\",\"columns\":1},{\"docstatus\":0,\"doctype\":\"DocField\",\"name\":\"New DocField 8\",\"__islocal\":1,\"__unsaved\":1,\"owner\":\"Administrator\",\"fieldtype\":\"Link\",\"reqd\":0,\"precision\":\"\",\"search_index\":0,\"in_list_view\":1,\"in_standard_filter\":0,\"in_global_search\":0,\"in_preview\":0,\"allow_in_quick_entry\":0,\"bold\":0,\"translatable\":0,\"collapsible\":0,\"fetch_if_empty\":0,\"hidden\":0,\"read_only\":0,\"unique\":0,\"set_only_once\":0,\"allow_bulk_edit\":0,\"permlevel\":0,\"ignore_user_permissions\":0,\"allow_on_submit\":0,\"report_hide\":0,\"remember_last_selected_value\":0,\"ignore_xss_filter\":0,\"in_filter\":0,\"no_copy\":0,\"print_hide\":0,\"print_hide_if_no_value\":0,\"parent\":\"New DocType 1\",\"parentfield\":\"fields\",\"parenttype\":\"DocType\",\"idx\":6,\"__unedited\":false,\"label\":\"Broken UOM\",\"fieldname\":\"broken_uom\",\"options\":\"UOM\",\"columns\":1},{\"docstatus\":0,\"doctype\":\"DocField\",\"name\":\"New DocField 9\",\"__islocal\":1,\"__unsaved\":1,\"owner\":\"Administrator\",\"fieldtype\":\"Data\",\"reqd\":0,\"precision\":\"\",\"search_index\":0,\"in_list_view\":0,\"in_standard_filter\":0,\"in_global_search\":0,\"in_preview\":0,\"allow_in_quick_entry\":0,\"bold\":0,\"translatable\":0,\"collapsible\":0,\"fetch_if_empty\":0,\"hidden\":1,\"read_only\":0,\"unique\":0,\"set_only_once\":0,\"allow_bulk_edit\":0,\"permlevel\":0,\"ignore_user_permissions\":0,\"allow_on_submit\":0,\"report_hide\":0,\"remember_last_selected_value\":0,\"ignore_xss_filter\":0,\"in_filter\":0,\"no_copy\":0,\"print_hide\":0,\"print_hide_if_no_value\":0,\"parent\":\"New DocType 1\",\"parentfield\":\"fields\",\"parenttype\":\"DocType\",\"idx\":7,\"__unedited\":false,\"label\":\"Item UOM\",\"fieldname\":\"item_uom\"}]}"
}
Request Error
Traceback (most recent call last):
  File "/home/ubuntu/reagan-bench2/apps/frappe/frappe/app.py", line 67, in application
    response = frappe.api.handle()
  File "/home/ubuntu/reagan-bench2/apps/frappe/frappe/api.py", line 59, in handle
    return frappe.handler.handle()
  File "/home/ubuntu/reagan-bench2/apps/frappe/frappe/handler.py", line 24, in handle
    data = execute_cmd(cmd)
  File "/home/ubuntu/reagan-bench2/apps/frappe/frappe/handler.py", line 64, in execute_cmd
    return frappe.call(method, **frappe.form_dict)
  File "/home/ubuntu/reagan-bench2/apps/frappe/frappe/__init__.py", line 1075, in call
    return fn(*args, **newargs)
  File "/home/ubuntu/reagan-bench2/apps/frappe/frappe/desk/form/save.py", line 21, in savedocs
    doc.save()
  File "/home/ubuntu/reagan-bench2/apps/frappe/frappe/model/document.py", line 273, in save
    return self._save(*args, **kwargs)
  File "/home/ubuntu/reagan-bench2/apps/frappe/frappe/model/document.py", line 296, in _save
    self.insert()
  File "/home/ubuntu/reagan-bench2/apps/frappe/frappe/model/document.py", line 260, in insert
    self.run_post_save_methods()
  File "/home/ubuntu/reagan-bench2/apps/frappe/frappe/model/document.py", line 932, in run_post_save_methods
    self.run_method("on_update")
  File "/home/ubuntu/reagan-bench2/apps/frappe/frappe/model/document.py", line 802, in run_method
    out = Document.hook(fn)(self, *args, **kwargs)
  File "/home/ubuntu/reagan-bench2/apps/frappe/frappe/model/document.py", line 1081, in composer
    return composed(self, method, *args, **kwargs)
  File "/home/ubuntu/reagan-bench2/apps/frappe/frappe/model/document.py", line 1064, in runner
    add_to_return_value(self, fn(self, *args, **kwargs))
  File "/home/ubuntu/reagan-bench2/apps/frappe/frappe/model/document.py", line 796, in <lambda>
    fn = lambda self, *args, **kwargs: getattr(self, method)(*args, **kwargs)
  File "/home/ubuntu/reagan-bench2/apps/frappe/frappe/core/doctype/doctype/doctype.py", line 282, in on_update
    raise e
  File "/home/ubuntu/reagan-bench2/apps/frappe/frappe/core/doctype/doctype/doctype.py", line 279, in on_update
    frappe.db.updatedb(self.name, Meta(self))
  File "/home/ubuntu/reagan-bench2/apps/frappe/frappe/database/mariadb/database.py", line 291, in updatedb
    db_table.sync()
  File "/home/ubuntu/reagan-bench2/apps/frappe/frappe/database/schema.py", line 37, in sync
    self.alter()
  File "/home/ubuntu/reagan-bench2/apps/frappe/frappe/database/mariadb/schema.py", line 86, in alter
    raise e
  File "/home/ubuntu/reagan-bench2/apps/frappe/frappe/database/mariadb/schema.py", line 75, in alter
    frappe.db.sql(query)
  File "/home/ubuntu/reagan-bench2/apps/frappe/frappe/database/database.py", line 170, in sql
    self._cursor.execute(query)
  File "/home/ubuntu/reagan-bench2/env/lib/python3.8/site-packages/pymysql/cursors.py", line 170, in execute
    result = self._query(query)
  File "/home/ubuntu/reagan-bench2/env/lib/python3.8/site-packages/pymysql/cursors.py", line 328, in _query
    conn.query(q)
  File "/home/ubuntu/reagan-bench2/env/lib/python3.8/site-packages/pymysql/connections.py", line 517, in query
    self._affected_rows = self._read_query_result(unbuffered=unbuffered)
  File "/home/ubuntu/reagan-bench2/env/lib/python3.8/site-packages/pymysql/connections.py", line 732, in _read_query_result
    result.read()
  File "/home/ubuntu/reagan-bench2/env/lib/python3.8/site-packages/pymysql/connections.py", line 1075, in read
    first_packet = self.connection._read_packet()
  File "/home/ubuntu/reagan-bench2/env/lib/python3.8/site-packages/pymysql/connections.py", line 684, in _read_packet
    packet.check_error()
  File "/home/ubuntu/reagan-bench2/env/lib/python3.8/site-packages/pymysql/protocol.py", line 220, in check_error
    err.raise_mysql_exception(self._data)
  File "/home/ubuntu/reagan-bench2/env/lib/python3.8/site-packages/pymysql/err.py", line 109, in raise_mysql_exception
    raise errorclass(errno, errval)
pymysql.err.DataError: (1265, "Data truncated for column 'whole_qty' at row 4")
[ERROR] 2021-09-17 19:46:34,651 | /home/ubuntu/reagan-bench2/apps/frappe/frappe/utils/error.py:
New Exception collected with id: 2021-09-17 19:46:30.135842-127.0.0.1-8db
[DEBUG] 2021-09-17 19:58:52,985 | /home/ubuntu/reagan-bench2/apps/frappe/frappe/utils/scheduler.py:
Site: reaganerp.com
Queued events for site reaganerp.com
[DEBUG] 2021-09-17 19:59:53,665 | /home/ubuntu/reagan-bench2/apps/frappe/frappe/utils/scheduler.py:
Site: reaganerp.com
Queued events for site reaganerp.com
[DEBUG] 2021-09-17 20:00:53,886 | /home/ubuntu/reagan-bench2/apps/frappe/frappe/utils/scheduler.py:
Site: reaganerp.com
Queued events for site reaganerp.com
[ERROR] 2021-09-17 20:01:36,312 | /home/ubuntu/reagan-bench2/apps/frappe/frappe/app.py:
Site: reaganerp.com
Form Dict: {
 "action": "Save",
 "cmd": "frappe.desk.form.save.savedocs",
 "doc": "{\"name\":\"Items\",\"creation\":\"2021-09-17 22:16:26.905082\",\"modified\":\"2021-09-17 22:29:41.400370\",\"modified_by\":\"Administrator\",\"owner\":\"Administrator\",\"docstatus\":0,\"idx\":0,\"issingle\":0,\"is_tree\":0,\"istable\":1,\"editable_grid\":1,\"track_changes\":1,\"module\":\"DSR\",\"name_case\":\"\",\"sort_field\":\"modified\",\"sort_order\":\"DESC\",\"read_only\":0,\"in_create\":0,\"allow_copy\":0,\"allow_rename\":0,\"allow_import\":0,\"hide_toolbar\":0,\"track_seen\":0,\"max_attachments\":0,\"document_type\":\"\",\"engine\":\"InnoDB\",\"is_submittable\":0,\"show_name_in_global_search\":0,\"custom\":0,\"beta\":0,\"has_web_view\":0,\"allow_guest_to_view\":0,\"allow_auto_repeat\":0,\"allow_events_in_timeline\":0,\"track_views\":0,\"show_preview_popup\":0,\"quick_entry\":1,\"doctype\":\"DocType\",\"fields\":[{\"name\":\"11baba86eb\",\"creation\":\"2021-09-17 22:16:26.905082\",\"modified\":\"2021-09-17 22:29:41.400370\",\"modified_by\":\"Administrator\",\"owner\":\"Administrator\",\"docstatus\":0,\"parent\":\"Items\",\"parentfield\":\"fields\",\"parenttype\":\"DocType\",\"idx\":1,\"fieldname\":\"item_code\",\"label\":\"Item Code\",\"fieldtype\":\"Link\",\"options\":\"Item\",\"search_index\":0,\"hidden\":0,\"set_only_once\":0,\"allow_in_quick_entry\":0,\"print_hide\":0,\"report_hide\":0,\"reqd\":0,\"bold\":0,\"in_global_search\":0,\"collapsible\":0,\"unique\":0,\"no_copy\":0,\"allow_on_submit\":0,\"show_preview_popup\":0,\"permlevel\":0,\"ignore_user_permissions\":0,\"columns\":2,\"in_list_view\":1,\"fetch_if_empty\":0,\"in_filter\":0,\"remember_last_selected_value\":0,\"ignore_xss_filter\":0,\"print_hide_if_no_value\":0,\"allow_bulk_edit\":0,\"in_standard_filter\":0,\"in_preview\":0,\"read_only\":1,\"precision\":\"\",\"length\":0,\"translatable\":0,\"doctype\":\"DocField\"},{\"name\":\"7e89754e91\",\"creation\":\"2021-09-17 22:16:26.905082\",\"modified\":\"2021-09-17 22:29:41.400370\",\"modified_by\":\"Administrator\",\"owner\":\"Administrator\",\"docstatus\":0,\"parent\":\"Items\",\"parentfield\":\"fields\",\"parenttype\":\"DocType\",\"idx\":2,\"fieldname\":\"item_group\",\"label\":\"Item Group\",\"fieldtype\":\"Link\",\"options\":\"Item Group\",\"search_index\":0,\"hidden\":0,\"set_only_once\":0,\"allow_in_quick_entry\":0,\"print_hide\":0,\"report_hide\":0,\"reqd\":0,\"bold\":0,\"in_global_search\":0,\"collapsible\":0,\"unique\":0,\"no_copy\":0,\"allow_on_submit\":0,\"show_preview_popup\":0,\"permlevel\":0,\"ignore_user_permissions\":0,\"columns\":2,\"in_list_view\":1,\"fetch_if_empty\":0,\"in_filter\":0,\"remember_last_selected_value\":0,\"ignore_xss_filter\":0,\"print_hide_if_no_value\":0,\"allow_bulk_edit\":0,\"in_standard_filter\":0,\"in_preview\":0,\"read_only\":1,\"precision\":\"\",\"length\":0,\"translatable\":0,\"doctype\":\"DocField\"},{\"docstatus\":0,\"doctype\":\"DocField\",\"name\":\"New DocField 1\",\"__islocal\":1,\"__unsaved\":1,\"owner\":\"Administrator\",\"fieldtype\":\"Float\",\"reqd\":0,\"precision\":\"\",\"search_index\":0,\"in_list_view\":1,\"in_standard_filter\":0,\"in_global_search\":0,\"in_preview\":0,\"allow_in_quick_entry\":0,\"bold\":0,\"translatable\":0,\"collapsible\":0,\"fetch_if_empty\":0,\"hidden\":0,\"read_only\":0,\"unique\":0,\"set_only_once\":0,\"allow_bulk_edit\":0,\"permlevel\":0,\"ignore_user_permissions\":0,\"allow_on_submit\":0,\"report_hide\":0,\"remember_last_selected_value\":0,\"ignore_xss_filter\":0,\"in_filter\":0,\"no_copy\":0,\"print_hide\":0,\"print_hide_if_no_value\":0,\"parent\":\"Items\",\"parentfield\":\"fields\",\"parenttype\":\"DocType\",\"idx\":3,\"__unedited\":false,\"label\":\"Whole Qty\",\"fieldname\":\"whole_qty\"},{\"name\":\"fd6776db2d\",\"creation\":\"2021-09-17 22:16:26.905082\",\"modified\":\"2021-09-17 22:29:41.400370\",\"modified_by\":\"Administrator\",\"owner\":\"Administrator\",\"docstatus\":0,\"parent\":\"Items\",\"parentfield\":\"fields\",\"parenttype\":\"DocType\",\"idx\":4,\"fieldname\":\"whole_uom\",\"label\":\"Whole UOM\",\"fieldtype\":\"Link\",\"options\":\"UOM\",\"search_index\":0,\"hidden\":0,\"set_only_once\":0,\"allow_in_quick_entry\":0,\"print_hide\":0,\"report_hide\":0,\"reqd\":0,\"bold\":0,\"in_global_search\":0,\"collapsible\":0,\"unique\":0,\"no_copy\":0,\"allow_on_submit\":0,\"show_preview_popup\":0,\"permlevel\":0,\"ignore_user_permissions\":0,\"columns\":1,\"in_list_view\":1,\"fetch_if_empty\":0,\"in_filter\":0,\"remember_last_selected_value\":0,\"ignore_xss_filter\":0,\"print_hide_if_no_value\":0,\"allow_bulk_edit\":0,\"in_standard_filter\":0,\"in_preview\":0,\"read_only\":1,\"precision\":\"\",\"length\":0,\"translatable\":0,\"doctype\":\"DocField\"},{\"docstatus\":0,\"doctype\":\"DocField\",\"name\":\"New DocField 2\",\"__islocal\":1,\"__unsaved\":1,\"owner\":\"Administrator\",\"fieldtype\":\"Float\",\"reqd\":0,\"precision\":\"\",\"search_index\":0,\"in_list_view\":1,\"in_standard_filter\":0,\"in_global_search\":0,\"in_preview\":0,\"allow_in_quick_entry\":0,\"bold\":0,\"translatable\":0,\"collapsible\":0,\"fetch_if_empty\":0,\"hidden\":0,\"read_only\":0,\"unique\":0,\"set_only_once\":0,\"allow_bulk_edit\":0,\"permlevel\":0,\"ignore_user_permissions\":0,\"allow_on_submit\":0,\"report_hide\":0,\"remember_last_selected_value\":0,\"ignore_xss_filter\":0,\"in_filter\":0,\"no_copy\":0,\"print_hide\":0,\"print_hide_if_no_value\":0,\"parent\":\"Items\",\"parentfield\":\"fields\",\"parenttype\":\"DocType\",\"idx\":5,\"__unedited\":false,\"label\":\"Broken Qty\",\"fieldname\":\"broken_qty\"},{\"name\":\"d2e0cfb078\",\"creation\":\"2021-09-17 22:16:26.905082\",\"modified\":\"2021-09-17 22:29:41.400370\",\"modified_by\":\"Administrator\",\"owner\":\"Administrator\",\"docstatus\":0,\"parent\":\"Items\",\"parentfield\":\"fields\",\"parenttype\":\"DocType\",\"idx\":6,\"fieldname\":\"broken_uom\",\"label\":\"Broken UOM\",\"fieldtype\":\"Link\",\"options\":\"UOM\",\"search_index\":0,\"hidden\":0,\"set_only_once\":0,\"allow_in_quick_entry\":0,\"print_hide\":0,\"report_hide\":0,\"reqd\":0,\"bold\":0,\"in_global_search\":0,\"collapsible\":0,\"unique\":0,\"no_copy\":0,\"allow_on_submit\":0,\"show_preview_popup\":0,\"permlevel\":0,\"ignore_user_permissions\":0,\"columns\":1,\"in_list_view\":1,\"fetch_if_empty\":0,\"in_filter\":0,\"remember_last_selected_value\":0,\"ignore_xss_filter\":0,\"print_hide_if_no_value\":0,\"allow_bulk_edit\":0,\"in_standard_filter\":0,\"in_preview\":0,\"read_only\":0,\"precision\":\"\",\"length\":0,\"translatable\":0,\"doctype\":\"DocField\"},{\"name\":\"2db61db409\",\"creation\":\"2021-09-17 22:16:26.905082\",\"modified\":\"2021-09-17 22:29:41.400370\",\"modified_by\":\"Administrator\",\"owner\":\"Administrator\",\"docstatus\":0,\"parent\":\"Items\",\"parentfield\":\"fields\",\"parenttype\":\"DocType\",\"idx\":7,\"fieldname\":\"item_uom\",\"label\":\"Item UOM\",\"fieldtype\":\"Data\",\"search_index\":0,\"hidden\":1,\"set_only_once\":0,\"allow_in_quick_entry\":0,\"print_hide\":0,\"report_hide\":0,\"reqd\":0,\"bold\":0,\"in_global_search\":0,\"collapsible\":0,\"unique\":0,\"no_copy\":0,\"allow_on_submit\":0,\"show_preview_popup\":0,\"permlevel\":0,\"ignore_user_permissions\":0,\"columns\":0,\"in_list_view\":0,\"fetch_if_empty\":0,\"in_filter\":0,\"remember_last_selected_value\":0,\"ignore_xss_filter\":0,\"print_hide_if_no_value\":0,\"allow_bulk_edit\":0,\"in_standard_filter\":0,\"in_preview\":0,\"read_only\":0,\"precision\":\"\",\"length\":0,\"translatable\":0,\"doctype\":\"DocField\"}],\"permissions\":[],\"__unsaved\":1}"
}
Request Error
Traceback (most recent call last):
  File "/home/ubuntu/reagan-bench2/apps/frappe/frappe/app.py", line 67, in application
    response = frappe.api.handle()
  File "/home/ubuntu/reagan-bench2/apps/frappe/frappe/api.py", line 59, in handle
    return frappe.handler.handle()
  File "/home/ubuntu/reagan-bench2/apps/frappe/frappe/handler.py", line 24, in handle
    data = execute_cmd(cmd)
  File "/home/ubuntu/reagan-bench2/apps/frappe/frappe/handler.py", line 64, in execute_cmd
    return frappe.call(method, **frappe.form_dict)
  File "/home/ubuntu/reagan-bench2/apps/frappe/frappe/__init__.py", line 1075, in call
    return fn(*args, **newargs)
  File "/home/ubuntu/reagan-bench2/apps/frappe/frappe/desk/form/save.py", line 21, in savedocs
    doc.save()
  File "/home/ubuntu/reagan-bench2/apps/frappe/frappe/model/document.py", line 273, in save
    return self._save(*args, **kwargs)
  File "/home/ubuntu/reagan-bench2/apps/frappe/frappe/model/document.py", line 326, in _save
    self.run_post_save_methods()
  File "/home/ubuntu/reagan-bench2/apps/frappe/frappe/model/document.py", line 932, in run_post_save_methods
    self.run_method("on_update")
  File "/home/ubuntu/reagan-bench2/apps/frappe/frappe/model/document.py", line 802, in run_method
    out = Document.hook(fn)(self, *args, **kwargs)
  File "/home/ubuntu/reagan-bench2/apps/frappe/frappe/model/document.py", line 1081, in composer
    return composed(self, method, *args, **kwargs)
  File "/home/ubuntu/reagan-bench2/apps/frappe/frappe/model/document.py", line 1064, in runner
    add_to_return_value(self, fn(self, *args, **kwargs))
  File "/home/ubuntu/reagan-bench2/apps/frappe/frappe/model/document.py", line 796, in <lambda>
    fn = lambda self, *args, **kwargs: getattr(self, method)(*args, **kwargs)
  File "/home/ubuntu/reagan-bench2/apps/frappe/frappe/core/doctype/doctype/doctype.py", line 282, in on_update
    raise e
  File "/home/ubuntu/reagan-bench2/apps/frappe/frappe/core/doctype/doctype/doctype.py", line 279, in on_update
    frappe.db.updatedb(self.name, Meta(self))
  File "/home/ubuntu/reagan-bench2/apps/frappe/frappe/database/mariadb/database.py", line 291, in updatedb
    db_table.sync()
  File "/home/ubuntu/reagan-bench2/apps/frappe/frappe/database/schema.py", line 37, in sync
    self.alter()
  File "/home/ubuntu/reagan-bench2/apps/frappe/frappe/database/mariadb/schema.py", line 86, in alter
    raise e
  File "/home/ubuntu/reagan-bench2/apps/frappe/frappe/database/mariadb/schema.py", line 75, in alter
    frappe.db.sql(query)
  File "/home/ubuntu/reagan-bench2/apps/frappe/frappe/database/database.py", line 170, in sql
    self._cursor.execute(query)
  File "/home/ubuntu/reagan-bench2/env/lib/python3.8/site-packages/pymysql/cursors.py", line 170, in execute
    result = self._query(query)
  File "/home/ubuntu/reagan-bench2/env/lib/python3.8/site-packages/pymysql/cursors.py", line 328, in _query
    conn.query(q)
  File "/home/ubuntu/reagan-bench2/env/lib/python3.8/site-packages/pymysql/connections.py", line 517, in query
    self._affected_rows = self._read_query_result(unbuffered=unbuffered)
  File "/home/ubuntu/reagan-bench2/env/lib/python3.8/site-packages/pymysql/connections.py", line 732, in _read_query_result
    result.read()
  File "/home/ubuntu/reagan-bench2/env/lib/python3.8/site-packages/pymysql/connections.py", line 1075, in read
    first_packet = self.connection._read_packet()
  File "/home/ubuntu/reagan-bench2/env/lib/python3.8/site-packages/pymysql/connections.py", line 684, in _read_packet
    packet.check_error()
  File "/home/ubuntu/reagan-bench2/env/lib/python3.8/site-packages/pymysql/protocol.py", line 220, in check_error
    err.raise_mysql_exception(self._data)
  File "/home/ubuntu/reagan-bench2/env/lib/python3.8/site-packages/pymysql/err.py", line 109, in raise_mysql_exception
    raise errorclass(errno, errval)
pymysql.err.DataError: (1265, "Data truncated for column 'whole_qty' at row 4")
[ERROR] 2021-09-17 20:01:36,387 | /home/ubuntu/reagan-bench2/apps/frappe/frappe/utils/error.py:
New Exception collected with id: 2021-09-17 20:01:36.313136-127.0.0.1-c1e
[ERROR] 2021-09-17 20:01:51,543 | /home/ubuntu/reagan-bench2/apps/frappe/frappe/app.py:
Site: reaganerp.com
Form Dict: {
 "action": "Save",
 "cmd": "frappe.desk.form.save.savedocs",
 "doc": "{\"name\":\"Items\",\"creation\":\"2021-09-17 22:16:26.905082\",\"modified\":\"2021-09-17 22:29:41.400370\",\"modified_by\":\"Administrator\",\"owner\":\"Administrator\",\"docstatus\":0,\"idx\":0,\"issingle\":0,\"is_tree\":0,\"istable\":1,\"editable_grid\":1,\"track_changes\":1,\"module\":\"DSR\",\"name_case\":\"\",\"sort_field\":\"modified\",\"sort_order\":\"DESC\",\"read_only\":0,\"in_create\":0,\"allow_copy\":0,\"allow_rename\":0,\"allow_import\":0,\"hide_toolbar\":0,\"track_seen\":0,\"max_attachments\":0,\"document_type\":\"\",\"engine\":\"InnoDB\",\"is_submittable\":0,\"show_name_in_global_search\":0,\"custom\":0,\"beta\":0,\"has_web_view\":0,\"allow_guest_to_view\":0,\"allow_auto_repeat\":0,\"allow_events_in_timeline\":0,\"track_views\":0,\"show_preview_popup\":0,\"quick_entry\":1,\"doctype\":\"DocType\",\"fields\":[{\"name\":\"11baba86eb\",\"creation\":\"2021-09-17 22:16:26.905082\",\"modified\":\"2021-09-17 22:29:41.400370\",\"modified_by\":\"Administrator\",\"owner\":\"Administrator\",\"docstatus\":0,\"parent\":\"Items\",\"parentfield\":\"fields\",\"parenttype\":\"DocType\",\"idx\":1,\"fieldname\":\"item_code\",\"label\":\"Item Code\",\"fieldtype\":\"Link\",\"options\":\"Item\",\"search_index\":0,\"hidden\":0,\"set_only_once\":0,\"allow_in_quick_entry\":0,\"print_hide\":0,\"report_hide\":0,\"reqd\":0,\"bold\":0,\"in_global_search\":0,\"collapsible\":0,\"unique\":0,\"no_copy\":0,\"allow_on_submit\":0,\"show_preview_popup\":0,\"permlevel\":0,\"ignore_user_permissions\":0,\"columns\":2,\"in_list_view\":1,\"fetch_if_empty\":0,\"in_filter\":0,\"remember_last_selected_value\":0,\"ignore_xss_filter\":0,\"print_hide_if_no_value\":0,\"allow_bulk_edit\":0,\"in_standard_filter\":0,\"in_preview\":0,\"read_only\":1,\"precision\":\"\",\"length\":0,\"translatable\":0,\"doctype\":\"DocField\"},{\"name\":\"7e89754e91\",\"creation\":\"2021-09-17 22:16:26.905082\",\"modified\":\"2021-09-17 22:29:41.400370\",\"modified_by\":\"Administrator\",\"owner\":\"Administrator\",\"docstatus\":0,\"parent\":\"Items\",\"parentfield\":\"fields\",\"parenttype\":\"DocType\",\"idx\":2,\"fieldname\":\"item_group\",\"label\":\"Item Group\",\"fieldtype\":\"Link\",\"options\":\"Item Group\",\"search_index\":0,\"hidden\":0,\"set_only_once\":0,\"allow_in_quick_entry\":0,\"print_hide\":0,\"report_hide\":0,\"reqd\":0,\"bold\":0,\"in_global_search\":0,\"collapsible\":0,\"unique\":0,\"no_copy\":0,\"allow_on_submit\":0,\"show_preview_popup\":0,\"permlevel\":0,\"ignore_user_permissions\":0,\"columns\":2,\"in_list_view\":1,\"fetch_if_empty\":0,\"in_filter\":0,\"remember_last_selected_value\":0,\"ignore_xss_filter\":0,\"print_hide_if_no_value\":0,\"allow_bulk_edit\":0,\"in_standard_filter\":0,\"in_preview\":0,\"read_only\":1,\"precision\":\"\",\"length\":0,\"translatable\":0,\"doctype\":\"DocField\"},{\"docstatus\":0,\"doctype\":\"DocField\",\"name\":\"New DocField 1\",\"__islocal\":1,\"__unsaved\":1,\"owner\":\"Administrator\",\"fieldtype\":\"Float\",\"reqd\":0,\"precision\":\"\",\"search_index\":0,\"in_list_view\":1,\"in_standard_filter\":0,\"in_global_search\":0,\"in_preview\":0,\"allow_in_quick_entry\":0,\"bold\":0,\"translatable\":0,\"collapsible\":0,\"fetch_if_empty\":0,\"hidden\":0,\"read_only\":0,\"unique\":0,\"set_only_once\":0,\"allow_bulk_edit\":0,\"permlevel\":0,\"ignore_user_permissions\":0,\"allow_on_submit\":0,\"report_hide\":0,\"remember_last_selected_value\":0,\"ignore_xss_filter\":0,\"in_filter\":0,\"no_copy\":0,\"print_hide\":0,\"print_hide_if_no_value\":0,\"parent\":\"Items\",\"parentfield\":\"fields\",\"parenttype\":\"DocType\",\"idx\":3,\"__unedited\":false,\"label\":\"Whole Qty\",\"fieldname\":\"whole_qty\"},{\"name\":\"fd6776db2d\",\"creation\":\"2021-09-17 22:16:26.905082\",\"modified\":\"2021-09-17 22:29:41.400370\",\"modified_by\":\"Administrator\",\"owner\":\"Administrator\",\"docstatus\":0,\"parent\":\"Items\",\"parentfield\":\"fields\",\"parenttype\":\"DocType\",\"idx\":4,\"fieldname\":\"whole_uom\",\"label\":\"Whole UOM\",\"fieldtype\":\"Link\",\"options\":\"UOM\",\"search_index\":0,\"hidden\":0,\"set_only_once\":0,\"allow_in_quick_entry\":0,\"print_hide\":0,\"report_hide\":0,\"reqd\":0,\"bold\":0,\"in_global_search\":0,\"collapsible\":0,\"unique\":0,\"no_copy\":0,\"allow_on_submit\":0,\"show_preview_popup\":0,\"permlevel\":0,\"ignore_user_permissions\":0,\"columns\":1,\"in_list_view\":1,\"fetch_if_empty\":0,\"in_filter\":0,\"remember_last_selected_value\":0,\"ignore_xss_filter\":0,\"print_hide_if_no_value\":0,\"allow_bulk_edit\":0,\"in_standard_filter\":0,\"in_preview\":0,\"read_only\":1,\"precision\":\"\",\"length\":0,\"translatable\":0,\"doctype\":\"DocField\"},{\"docstatus\":0,\"doctype\":\"DocField\",\"name\":\"New DocField 2\",\"__islocal\":1,\"__unsaved\":1,\"owner\":\"Administrator\",\"fieldtype\":\"Float\",\"reqd\":0,\"precision\":\"\",\"search_index\":0,\"in_list_view\":1,\"in_standard_filter\":0,\"in_global_search\":0,\"in_preview\":0,\"allow_in_quick_entry\":0,\"bold\":0,\"translatable\":0,\"collapsible\":0,\"fetch_if_empty\":0,\"hidden\":0,\"read_only\":0,\"unique\":0,\"set_only_once\":0,\"allow_bulk_edit\":0,\"permlevel\":0,\"ignore_user_permissions\":0,\"allow_on_submit\":0,\"report_hide\":0,\"remember_last_selected_value\":0,\"ignore_xss_filter\":0,\"in_filter\":0,\"no_copy\":0,\"print_hide\":0,\"print_hide_if_no_value\":0,\"parent\":\"Items\",\"parentfield\":\"fields\",\"parenttype\":\"DocType\",\"idx\":5,\"__unedited\":false,\"label\":\"Broken Qty\",\"fieldname\":\"broken_qty\"},{\"name\":\"d2e0cfb078\",\"creation\":\"2021-09-17 22:16:26.905082\",\"modified\":\"2021-09-17 22:29:41.400370\",\"modified_by\":\"Administrator\",\"owner\":\"Administrator\",\"docstatus\":0,\"parent\":\"Items\",\"parentfield\":\"fields\",\"parenttype\":\"DocType\",\"idx\":6,\"fieldname\":\"broken_uom\",\"label\":\"Broken UOM\",\"fieldtype\":\"Link\",\"options\":\"UOM\",\"search_index\":0,\"hidden\":0,\"set_only_once\":0,\"allow_in_quick_entry\":0,\"print_hide\":0,\"report_hide\":0,\"reqd\":0,\"bold\":0,\"in_global_search\":0,\"collapsible\":0,\"unique\":0,\"no_copy\":0,\"allow_on_submit\":0,\"show_preview_popup\":0,\"permlevel\":0,\"ignore_user_permissions\":0,\"columns\":1,\"in_list_view\":1,\"fetch_if_empty\":0,\"in_filter\":0,\"remember_last_selected_value\":0,\"ignore_xss_filter\":0,\"print_hide_if_no_value\":0,\"allow_bulk_edit\":0,\"in_standard_filter\":0,\"in_preview\":0,\"read_only\":0,\"precision\":\"\",\"length\":0,\"translatable\":0,\"doctype\":\"DocField\"},{\"name\":\"2db61db409\",\"creation\":\"2021-09-17 22:16:26.905082\",\"modified\":\"2021-09-17 22:29:41.400370\",\"modified_by\":\"Administrator\",\"owner\":\"Administrator\",\"docstatus\":0,\"parent\":\"Items\",\"parentfield\":\"fields\",\"parenttype\":\"DocType\",\"idx\":7,\"fieldname\":\"item_uom\",\"label\":\"Item UOM\",\"fieldtype\":\"Data\",\"search_index\":0,\"hidden\":1,\"set_only_once\":0,\"allow_in_quick_entry\":0,\"print_hide\":0,\"report_hide\":0,\"reqd\":0,\"bold\":0,\"in_global_search\":0,\"collapsible\":0,\"unique\":0,\"no_copy\":0,\"allow_on_submit\":0,\"show_preview_popup\":0,\"permlevel\":0,\"ignore_user_permissions\":0,\"columns\":0,\"in_list_view\":0,\"fetch_if_empty\":0,\"in_filter\":0,\"remember_last_selected_value\":0,\"ignore_xss_filter\":0,\"print_hide_if_no_value\":0,\"allow_bulk_edit\":0,\"in_standard_filter\":0,\"in_preview\":0,\"read_only\":0,\"precision\":\"\",\"length\":0,\"translatable\":0,\"doctype\":\"DocField\"}],\"permissions\":[],\"__unsaved\":1}"
}
Request Error
Traceback (most recent call last):
  File "/home/ubuntu/reagan-bench2/apps/frappe/frappe/app.py", line 67, in application
    response = frappe.api.handle()
  File "/home/ubuntu/reagan-bench2/apps/frappe/frappe/api.py", line 59, in handle
    return frappe.handler.handle()
  File "/home/ubuntu/reagan-bench2/apps/frappe/frappe/handler.py", line 24, in handle
    data = execute_cmd(cmd)
  File "/home/ubuntu/reagan-bench2/apps/frappe/frappe/handler.py", line 64, in execute_cmd
    return frappe.call(method, **frappe.form_dict)
  File "/home/ubuntu/reagan-bench2/apps/frappe/frappe/__init__.py", line 1075, in call
    return fn(*args, **newargs)
  File "/home/ubuntu/reagan-bench2/apps/frappe/frappe/desk/form/save.py", line 21, in savedocs
    doc.save()
  File "/home/ubuntu/reagan-bench2/apps/frappe/frappe/model/document.py", line 273, in save
    return self._save(*args, **kwargs)
  File "/home/ubuntu/reagan-bench2/apps/frappe/frappe/model/document.py", line 326, in _save
    self.run_post_save_methods()
  File "/home/ubuntu/reagan-bench2/apps/frappe/frappe/model/document.py", line 932, in run_post_save_methods
    self.run_method("on_update")
  File "/home/ubuntu/reagan-bench2/apps/frappe/frappe/model/document.py", line 802, in run_method
    out = Document.hook(fn)(self, *args, **kwargs)
  File "/home/ubuntu/reagan-bench2/apps/frappe/frappe/model/document.py", line 1081, in composer
    return composed(self, method, *args, **kwargs)
  File "/home/ubuntu/reagan-bench2/apps/frappe/frappe/model/document.py", line 1064, in runner
    add_to_return_value(self, fn(self, *args, **kwargs))
  File "/home/ubuntu/reagan-bench2/apps/frappe/frappe/model/document.py", line 796, in <lambda>
    fn = lambda self, *args, **kwargs: getattr(self, method)(*args, **kwargs)
  File "/home/ubuntu/reagan-bench2/apps/frappe/frappe/core/doctype/doctype/doctype.py", line 282, in on_update
    raise e
  File "/home/ubuntu/reagan-bench2/apps/frappe/frappe/core/doctype/doctype/doctype.py", line 279, in on_update
    frappe.db.updatedb(self.name, Meta(self))
  File "/home/ubuntu/reagan-bench2/apps/frappe/frappe/database/mariadb/database.py", line 291, in updatedb
    db_table.sync()
  File "/home/ubuntu/reagan-bench2/apps/frappe/frappe/database/schema.py", line 37, in sync
    self.alter()
  File "/home/ubuntu/reagan-bench2/apps/frappe/frappe/database/mariadb/schema.py", line 86, in alter
    raise e
  File "/home/ubuntu/reagan-bench2/apps/frappe/frappe/database/mariadb/schema.py", line 75, in alter
    frappe.db.sql(query)
  File "/home/ubuntu/reagan-bench2/apps/frappe/frappe/database/database.py", line 170, in sql
    self._cursor.execute(query)
  File "/home/ubuntu/reagan-bench2/env/lib/python3.8/site-packages/pymysql/cursors.py", line 170, in execute
    result = self._query(query)
  File "/home/ubuntu/reagan-bench2/env/lib/python3.8/site-packages/pymysql/cursors.py", line 328, in _query
    conn.query(q)
  File "/home/ubuntu/reagan-bench2/env/lib/python3.8/site-packages/pymysql/connections.py", line 517, in query
    self._affected_rows = self._read_query_result(unbuffered=unbuffered)
  File "/home/ubuntu/reagan-bench2/env/lib/python3.8/site-packages/pymysql/connections.py", line 732, in _read_query_result
    result.read()
  File "/home/ubuntu/reagan-bench2/env/lib/python3.8/site-packages/pymysql/connections.py", line 1075, in read
    first_packet = self.connection._read_packet()
  File "/home/ubuntu/reagan-bench2/env/lib/python3.8/site-packages/pymysql/connections.py", line 684, in _read_packet
    packet.check_error()
  File "/home/ubuntu/reagan-bench2/env/lib/python3.8/site-packages/pymysql/protocol.py", line 220, in check_error
    err.raise_mysql_exception(self._data)
  File "/home/ubuntu/reagan-bench2/env/lib/python3.8/site-packages/pymysql/err.py", line 109, in raise_mysql_exception
    raise errorclass(errno, errval)
pymysql.err.DataError: (1265, "Data truncated for column 'whole_qty' at row 4")
[ERROR] 2021-09-17 20:01:51,550 | /home/ubuntu/reagan-bench2/apps/frappe/frappe/utils/error.py:
New Exception collected with id: 2021-09-17 20:01:51.543726-127.0.0.1-7c4
[DEBUG] 2021-09-17 20:01:54,066 | /home/ubuntu/reagan-bench2/apps/frappe/frappe/utils/scheduler.py:
Site: reaganerp.com
Queued events for site reaganerp.com
[ERROR] 2021-09-17 20:02:13,892 | /home/ubuntu/reagan-bench2/apps/frappe/frappe/app.py:
Site: reaganerp.com
Form Dict: {
 "action": "Save",
 "cmd": "frappe.desk.form.save.savedocs",
 "doc": "{\"name\":\"Items\",\"creation\":\"2021-09-17 22:16:26.905082\",\"modified\":\"2021-09-17 22:31:50.891814\",\"modified_by\":\"Administrator\",\"owner\":\"Administrator\",\"docstatus\":0,\"idx\":0,\"issingle\":0,\"is_tree\":0,\"istable\":1,\"editable_grid\":1,\"track_changes\":1,\"module\":\"DSR\",\"name_case\":\"\",\"sort_field\":\"modified\",\"sort_order\":\"DESC\",\"read_only\":0,\"in_create\":0,\"allow_copy\":0,\"allow_rename\":0,\"allow_import\":0,\"hide_toolbar\":0,\"track_seen\":0,\"max_attachments\":0,\"document_type\":\"\",\"engine\":\"InnoDB\",\"is_submittable\":0,\"show_name_in_global_search\":0,\"custom\":0,\"beta\":0,\"has_web_view\":0,\"allow_guest_to_view\":0,\"allow_auto_repeat\":0,\"allow_events_in_timeline\":0,\"track_views\":0,\"show_preview_popup\":0,\"quick_entry\":1,\"doctype\":\"DocType\",\"fields\":[{\"name\":\"9a87590126\",\"creation\":\"2021-09-17 22:16:26.905082\",\"modified\":\"2021-09-17 22:31:50.891814\",\"modified_by\":\"Administrator\",\"owner\":\"Administrator\",\"docstatus\":0,\"parent\":\"Items\",\"parentfield\":\"fields\",\"parenttype\":\"DocType\",\"idx\":3,\"fieldname\":\"whole_qty\",\"label\":\"Whole Qty\",\"fieldtype\":\"Float\",\"search_index\":0,\"hidden\":0,\"set_only_once\":0,\"allow_in_quick_entry\":0,\"print_hide\":0,\"report_hide\":0,\"reqd\":0,\"bold\":0,\"in_global_search\":0,\"collapsible\":0,\"unique\":0,\"no_copy\":0,\"allow_on_submit\":0,\"show_preview_popup\":0,\"permlevel\":0,\"ignore_user_permissions\":0,\"columns\":0,\"in_list_view\":1,\"fetch_if_empty\":0,\"in_filter\":0,\"remember_last_selected_value\":0,\"ignore_xss_filter\":0,\"print_hide_if_no_value\":0,\"allow_bulk_edit\":0,\"in_standard_filter\":0,\"in_preview\":0,\"read_only\":0,\"precision\":\"\",\"length\":0,\"translatable\":0,\"doctype\":\"DocField\"},{\"name\":\"df0694c7c5\",\"creation\":\"2021-09-17 22:16:26.905082\",\"modified\":\"2021-09-17 22:31:50.891814\",\"modified_by\":\"Administrator\",\"owner\":\"Administrator\",\"docstatus\":0,\"parent\":\"Items\",\"parentfield\":\"fields\",\"parenttype\":\"DocType\",\"idx\":5,\"fieldname\":\"broken_qty\",\"label\":\"Broken Qty\",\"fieldtype\":\"Float\",\"search_index\":0,\"hidden\":0,\"set_only_once\":0,\"allow_in_quick_entry\":0,\"print_hide\":0,\"report_hide\":0,\"reqd\":0,\"bold\":0,\"in_global_search\":0,\"collapsible\":0,\"unique\":0,\"no_copy\":0,\"allow_on_submit\":0,\"show_preview_popup\":0,\"permlevel\":0,\"ignore_user_permissions\":0,\"columns\":0,\"in_list_view\":1,\"fetch_if_empty\":0,\"in_filter\":0,\"remember_last_selected_value\":0,\"ignore_xss_filter\":0,\"print_hide_if_no_value\":0,\"allow_bulk_edit\":0,\"in_standard_filter\":0,\"in_preview\":0,\"read_only\":0,\"precision\":\"\",\"length\":0,\"translatable\":0,\"doctype\":\"DocField\"}],\"permissions\":[],\"__last_sync_on\":\"2021-09-17T14:32:10.993Z\"}"
}
Request Error
Traceback (most recent call last):
  File "/home/ubuntu/reagan-bench2/apps/frappe/frappe/app.py", line 67, in application
    response = frappe.api.handle()
  File "/home/ubuntu/reagan-bench2/apps/frappe/frappe/api.py", line 59, in handle
    return frappe.handler.handle()
  File "/home/ubuntu/reagan-bench2/apps/frappe/frappe/handler.py", line 24, in handle
    data = execute_cmd(cmd)
  File "/home/ubuntu/reagan-bench2/apps/frappe/frappe/handler.py", line 64, in execute_cmd
    return frappe.call(method, **frappe.form_dict)
  File "/home/ubuntu/reagan-bench2/apps/frappe/frappe/__init__.py", line 1075, in call
    return fn(*args, **newargs)
  File "/home/ubuntu/reagan-bench2/apps/frappe/frappe/desk/form/save.py", line 21, in savedocs
    doc.save()
  File "/home/ubuntu/reagan-bench2/apps/frappe/frappe/model/document.py", line 273, in save
    return self._save(*args, **kwargs)
  File "/home/ubuntu/reagan-bench2/apps/frappe/frappe/model/document.py", line 326, in _save
    self.run_post_save_methods()
  File "/home/ubuntu/reagan-bench2/apps/frappe/frappe/model/document.py", line 932, in run_post_save_methods
    self.run_method("on_update")
  File "/home/ubuntu/reagan-bench2/apps/frappe/frappe/model/document.py", line 802, in run_method
    out = Document.hook(fn)(self, *args, **kwargs)
  File "/home/ubuntu/reagan-bench2/apps/frappe/frappe/model/document.py", line 1081, in composer
    return composed(self, method, *args, **kwargs)
  File "/home/ubuntu/reagan-bench2/apps/frappe/frappe/model/document.py", line 1064, in runner
    add_to_return_value(self, fn(self, *args, **kwargs))
  File "/home/ubuntu/reagan-bench2/apps/frappe/frappe/model/document.py", line 796, in <lambda>
    fn = lambda self, *args, **kwargs: getattr(self, method)(*args, **kwargs)
  File "/home/ubuntu/reagan-bench2/apps/frappe/frappe/core/doctype/doctype/doctype.py", line 282, in on_update
    raise e
  File "/home/ubuntu/reagan-bench2/apps/frappe/frappe/core/doctype/doctype/doctype.py", line 279, in on_update
    frappe.db.updatedb(self.name, Meta(self))
  File "/home/ubuntu/reagan-bench2/apps/frappe/frappe/database/mariadb/database.py", line 291, in updatedb
    db_table.sync()
  File "/home/ubuntu/reagan-bench2/apps/frappe/frappe/database/schema.py", line 37, in sync
    self.alter()
  File "/home/ubuntu/reagan-bench2/apps/frappe/frappe/database/mariadb/schema.py", line 86, in alter
    raise e
  File "/home/ubuntu/reagan-bench2/apps/frappe/frappe/database/mariadb/schema.py", line 75, in alter
    frappe.db.sql(query)
  File "/home/ubuntu/reagan-bench2/apps/frappe/frappe/database/database.py", line 170, in sql
    self._cursor.execute(query)
  File "/home/ubuntu/reagan-bench2/env/lib/python3.8/site-packages/pymysql/cursors.py", line 170, in execute
    result = self._query(query)
  File "/home/ubuntu/reagan-bench2/env/lib/python3.8/site-packages/pymysql/cursors.py", line 328, in _query
    conn.query(q)
  File "/home/ubuntu/reagan-bench2/env/lib/python3.8/site-packages/pymysql/connections.py", line 517, in query
    self._affected_rows = self._read_query_result(unbuffered=unbuffered)
  File "/home/ubuntu/reagan-bench2/env/lib/python3.8/site-packages/pymysql/connections.py", line 732, in _read_query_result
    result.read()
  File "/home/ubuntu/reagan-bench2/env/lib/python3.8/site-packages/pymysql/connections.py", line 1075, in read
    first_packet = self.connection._read_packet()
  File "/home/ubuntu/reagan-bench2/env/lib/python3.8/site-packages/pymysql/connections.py", line 684, in _read_packet
    packet.check_error()
  File "/home/ubuntu/reagan-bench2/env/lib/python3.8/site-packages/pymysql/protocol.py", line 220, in check_error
    err.raise_mysql_exception(self._data)
  File "/home/ubuntu/reagan-bench2/env/lib/python3.8/site-packages/pymysql/err.py", line 109, in raise_mysql_exception
    raise errorclass(errno, errval)
pymysql.err.DataError: (1265, "Data truncated for column 'whole_qty' at row 4")
[ERROR] 2021-09-17 20:02:13,926 | /home/ubuntu/reagan-bench2/apps/frappe/frappe/utils/error.py:
New Exception collected with id: 2021-09-17 20:02:13.895206-127.0.0.1-f38
[DEBUG] 2021-09-17 20:02:54,356 | /home/ubuntu/reagan-bench2/apps/frappe/frappe/utils/scheduler.py:
Site: reaganerp.com
Queued events for site reaganerp.com
[DEBUG] 2021-09-17 20:03:54,600 | /home/ubuntu/reagan-bench2/apps/frappe/frappe/utils/scheduler.py:
Site: reaganerp.com
Queued events for site reaganerp.com
[DEBUG] 2021-09-17 20:04:54,837 | /home/ubuntu/reagan-bench2/apps/frappe/frappe/utils/scheduler.py:
Site: reaganerp.com
Queued events for site reaganerp.com
[DEBUG] 2021-09-17 20:05:55,005 | /home/ubuntu/reagan-bench2/apps/frappe/frappe/utils/scheduler.py:
Site: reaganerp.com
Queued events for site reaganerp.com
[DEBUG] 2021-09-17 20:06:55,383 | /home/ubuntu/reagan-bench2/apps/frappe/frappe/utils/scheduler.py:
Site: reaganerp.com
Queued events for site reaganerp.com
[DEBUG] 2021-09-17 20:07:55,536 | /home/ubuntu/reagan-bench2/apps/frappe/frappe/utils/scheduler.py:
Site: reaganerp.com
Queued events for site reaganerp.com
[DEBUG] 2021-09-17 20:08:55,702 | /home/ubuntu/reagan-bench2/apps/frappe/frappe/utils/scheduler.py:
Site: reaganerp.com
Queued events for site reaganerp.com
[DEBUG] 2021-09-17 20:10:25,810 | /home/ubuntu/reagan-bench2/apps/frappe/frappe/utils/scheduler.py:
Site: reaganerp.com
Queued events for site reaganerp.com
[DEBUG] 2021-09-17 20:11:25,954 | /home/ubuntu/reagan-bench2/apps/frappe/frappe/utils/scheduler.py:
Site: reaganerp.com
Queued events for site reaganerp.com
[DEBUG] 2021-09-17 20:12:26,161 | /home/ubuntu/reagan-bench2/apps/frappe/frappe/utils/scheduler.py:
Site: reaganerp.com
Queued events for site reaganerp.com
[DEBUG] 2021-09-17 20:13:26,327 | /home/ubuntu/reagan-bench2/apps/frappe/frappe/utils/scheduler.py:
Site: reaganerp.com
Queued events for site reaganerp.com
[DEBUG] 2021-09-17 20:14:26,583 | /home/ubuntu/reagan-bench2/apps/frappe/frappe/utils/scheduler.py:
Site: reaganerp.com
Queued events for site reaganerp.com
[DEBUG] 2021-09-17 20:15:26,735 | /home/ubuntu/reagan-bench2/apps/frappe/frappe/utils/scheduler.py:
Site: reaganerp.com
Queued events for site reaganerp.com
[DEBUG] 2021-09-17 20:16:26,914 | /home/ubuntu/reagan-bench2/apps/frappe/frappe/utils/scheduler.py:
Site: reaganerp.com
Queued events for site reaganerp.com
[DEBUG] 2021-09-17 20:17:27,094 | /home/ubuntu/reagan-bench2/apps/frappe/frappe/utils/scheduler.py:
Site: reaganerp.com
Queued events for site reaganerp.com
[DEBUG] 2021-09-17 20:18:27,314 | /home/ubuntu/reagan-bench2/apps/frappe/frappe/utils/scheduler.py:
Site: reaganerp.com
Queued events for site reaganerp.com
[DEBUG] 2021-09-17 20:19:27,475 | /home/ubuntu/reagan-bench2/apps/frappe/frappe/utils/scheduler.py:
Site: reaganerp.com
Queued events for site reaganerp.com
[DEBUG] 2021-09-17 20:20:27,643 | /home/ubuntu/reagan-bench2/apps/frappe/frappe/utils/scheduler.py:
Site: reaganerp.com
Queued events for site reaganerp.com
[DEBUG] 2021-09-17 20:21:27,814 | /home/ubuntu/reagan-bench2/apps/frappe/frappe/utils/scheduler.py:
Site: reaganerp.com
Queued events for site reaganerp.com
[DEBUG] 2021-09-17 20:22:28,004 | /home/ubuntu/reagan-bench2/apps/frappe/frappe/utils/scheduler.py:
Site: reaganerp.com
Queued events for site reaganerp.com
[DEBUG] 2021-09-17 20:23:28,241 | /home/ubuntu/reagan-bench2/apps/frappe/frappe/utils/scheduler.py:
Site: reaganerp.com
Queued events for site reaganerp.com
[DEBUG] 2021-09-17 20:24:28,387 | /home/ubuntu/reagan-bench2/apps/frappe/frappe/utils/scheduler.py:
Site: reaganerp.com
Queued events for site reaganerp.com
[DEBUG] 2021-09-17 20:25:28,553 | /home/ubuntu/reagan-bench2/apps/frappe/frappe/utils/scheduler.py:
Site: reaganerp.com
Queued events for site reaganerp.com
[DEBUG] 2021-09-17 20:26:28,780 | /home/ubuntu/reagan-bench2/apps/frappe/frappe/utils/scheduler.py:
Site: reaganerp.com
Queued events for site reaganerp.com
[DEBUG] 2021-09-17 20:27:28,953 | /home/ubuntu/reagan-bench2/apps/frappe/frappe/utils/scheduler.py:
Site: reaganerp.com
Queued events for site reaganerp.com
[DEBUG] 2021-09-17 20:28:29,140 | /home/ubuntu/reagan-bench2/apps/frappe/frappe/utils/scheduler.py:
Site: reaganerp.com
Queued events for site reaganerp.com
[DEBUG] 2021-09-17 20:29:29,556 | /home/ubuntu/reagan-bench2/apps/frappe/frappe/utils/scheduler.py:
Site: reaganerp.com
Queued events for site reaganerp.com
[DEBUG] 2021-09-17 20:30:29,778 | /home/ubuntu/reagan-bench2/apps/frappe/frappe/utils/scheduler.py:
Site: reaganerp.com
Queued events for site reaganerp.com
[DEBUG] 2021-09-17 20:31:29,979 | /home/ubuntu/reagan-bench2/apps/frappe/frappe/utils/scheduler.py:
Site: reaganerp.com
Queued events for site reaganerp.com
[DEBUG] 2021-09-17 20:32:30,151 | /home/ubuntu/reagan-bench2/apps/frappe/frappe/utils/scheduler.py:
Site: reaganerp.com
Queued events for site reaganerp.com
[DEBUG] 2021-09-17 20:33:30,363 | /home/ubuntu/reagan-bench2/apps/frappe/frappe/utils/scheduler.py:
Site: reaganerp.com
Queued events for site reaganerp.com
[DEBUG] 2021-09-17 20:34:30,581 | /home/ubuntu/reagan-bench2/apps/frappe/frappe/utils/scheduler.py:
Site: reaganerp.com
Queued events for site reaganerp.com
[DEBUG] 2021-09-17 20:35:30,972 | /home/ubuntu/reagan-bench2/apps/frappe/frappe/utils/scheduler.py:
Site: reaganerp.com
Queued events for site reaganerp.com
[DEBUG] 2021-09-17 20:36:31,130 | /home/ubuntu/reagan-bench2/apps/frappe/frappe/utils/scheduler.py:
Site: reaganerp.com
Queued events for site reaganerp.com
[DEBUG] 2021-09-17 20:37:31,308 | /home/ubuntu/reagan-bench2/apps/frappe/frappe/utils/scheduler.py:
Site: reaganerp.com
Queued events for site reaganerp.com
[DEBUG] 2021-09-17 20:38:31,539 | /home/ubuntu/reagan-bench2/apps/frappe/frappe/utils/scheduler.py:
Site: reaganerp.com
Queued events for site reaganerp.com
[DEBUG] 2021-09-17 20:39:31,711 | /home/ubuntu/reagan-bench2/apps/frappe/frappe/utils/scheduler.py:
Site: reaganerp.com
Queued events for site reaganerp.com
[DEBUG] 2021-09-17 20:40:31,913 | /home/ubuntu/reagan-bench2/apps/frappe/frappe/utils/scheduler.py:
Site: reaganerp.com
Queued events for site reaganerp.com
[DEBUG] 2021-09-17 20:41:32,104 | /home/ubuntu/reagan-bench2/apps/frappe/frappe/utils/scheduler.py:
Site: reaganerp.com
Queued events for site reaganerp.com
[DEBUG] 2021-09-17 20:42:32,344 | /home/ubuntu/reagan-bench2/apps/frappe/frappe/utils/scheduler.py:
Site: reaganerp.com
Queued events for site reaganerp.com
[DEBUG] 2021-09-17 20:43:32,501 | /home/ubuntu/reagan-bench2/apps/frappe/frappe/utils/scheduler.py:
Site: reaganerp.com
Queued events for site reaganerp.com
[DEBUG] 2021-09-17 20:44:32,684 | /home/ubuntu/reagan-bench2/apps/frappe/frappe/utils/scheduler.py:
Site: reaganerp.com
Queued events for site reaganerp.com
[DEBUG] 2021-09-17 20:45:32,871 | /home/ubuntu/reagan-bench2/apps/frappe/frappe/utils/scheduler.py:
Site: reaganerp.com
Queued events for site reaganerp.com
[DEBUG] 2021-09-17 20:46:33,068 | /home/ubuntu/reagan-bench2/apps/frappe/frappe/utils/scheduler.py:
Site: reaganerp.com
Queued events for site reaganerp.com
[DEBUG] 2021-09-17 20:47:33,246 | /home/ubuntu/reagan-bench2/apps/frappe/frappe/utils/scheduler.py:
Site: reaganerp.com
Queued events for site reaganerp.com
[DEBUG] 2021-09-17 20:48:33,440 | /home/ubuntu/reagan-bench2/apps/frappe/frappe/utils/scheduler.py:
Site: reaganerp.com
Queued events for site reaganerp.com
[DEBUG] 2021-09-17 20:49:33,608 | /home/ubuntu/reagan-bench2/apps/frappe/frappe/utils/scheduler.py:
Site: reaganerp.com
Queued events for site reaganerp.com
[DEBUG] 2021-09-17 20:50:33,806 | /home/ubuntu/reagan-bench2/apps/frappe/frappe/utils/scheduler.py:
Site: reaganerp.com
Queued events for site reaganerp.com
[DEBUG] 2021-09-17 20:51:33,986 | /home/ubuntu/reagan-bench2/apps/frappe/frappe/utils/scheduler.py:
Site: reaganerp.com
Queued events for site reaganerp.com
[DEBUG] 2021-09-17 22:49:07,209 | /home/ubuntu/reagan-bench2/apps/frappe/frappe/utils/scheduler.py:
Site: reaganerp.com
Queued events for site reaganerp.com
[DEBUG] 2021-09-17 22:50:07,494 | /home/ubuntu/reagan-bench2/apps/frappe/frappe/utils/scheduler.py:
Site: reaganerp.com
Queued events for site reaganerp.com
[DEBUG] 2021-09-17 22:51:07,707 | /home/ubuntu/reagan-bench2/apps/frappe/frappe/utils/scheduler.py:
Site: reaganerp.com
Queued events for site reaganerp.com
[DEBUG] 2021-09-17 22:52:07,904 | /home/ubuntu/reagan-bench2/apps/frappe/frappe/utils/scheduler.py:
Site: reaganerp.com
Queued events for site reaganerp.com
[DEBUG] 2021-09-17 22:53:08,111 | /home/ubuntu/reagan-bench2/apps/frappe/frappe/utils/scheduler.py:
Site: reaganerp.com
Queued events for site reaganerp.com
[DEBUG] 2021-09-17 22:54:08,309 | /home/ubuntu/reagan-bench2/apps/frappe/frappe/utils/scheduler.py:
Site: reaganerp.com
Queued events for site reaganerp.com
[DEBUG] 2021-09-17 22:55:08,478 | /home/ubuntu/reagan-bench2/apps/frappe/frappe/utils/scheduler.py:
Site: reaganerp.com
Queued events for site reaganerp.com
[DEBUG] 2021-09-17 22:56:08,663 | /home/ubuntu/reagan-bench2/apps/frappe/frappe/utils/scheduler.py:
Site: reaganerp.com
Queued events for site reaganerp.com
[DEBUG] 2021-09-17 22:57:08,845 | /home/ubuntu/reagan-bench2/apps/frappe/frappe/utils/scheduler.py:
Site: reaganerp.com
Queued events for site reaganerp.com
[DEBUG] 2021-09-17 22:58:09,056 | /home/ubuntu/reagan-bench2/apps/frappe/frappe/utils/scheduler.py:
Site: reaganerp.com
Queued events for site reaganerp.com
[DEBUG] 2021-09-17 22:59:09,517 | /home/ubuntu/reagan-bench2/apps/frappe/frappe/utils/scheduler.py:
Site: reaganerp.com
Queued events for site reaganerp.com
[DEBUG] 2021-09-17 23:00:09,716 | /home/ubuntu/reagan-bench2/apps/frappe/frappe/utils/scheduler.py:
Site: reaganerp.com
Queued events for site reaganerp.com
[DEBUG] 2021-09-17 23:01:09,922 | /home/ubuntu/reagan-bench2/apps/frappe/frappe/utils/scheduler.py:
Site: reaganerp.com
Queued events for site reaganerp.com
