[DEBUG] 2021-09-16 15:01:41,449 | /home/ubuntu/reagan-bench2/apps/frappe/frappe/utils/scheduler.py:
Site: reaganerp.com
Queued events for site reaganerp.com
[DEBUG] 2021-09-16 15:02:41,800 | /home/ubuntu/reagan-bench2/apps/frappe/frappe/utils/scheduler.py:
Site: reaganerp.com
Queued events for site reaganerp.com
[DEBUG] 2021-09-16 15:03:42,002 | /home/ubuntu/reagan-bench2/apps/frappe/frappe/utils/scheduler.py:
Site: reaganerp.com
Queued events for site reaganerp.com
[DEBUG] 2021-09-16 15:04:42,191 | /home/ubuntu/reagan-bench2/apps/frappe/frappe/utils/scheduler.py:
Site: reaganerp.com
Queued events for site reaganerp.com
[DEBUG] 2021-09-16 15:05:42,363 | /home/ubuntu/reagan-bench2/apps/frappe/frappe/utils/scheduler.py:
Site: reaganerp.com
Queued events for site reaganerp.com
[DEBUG] 2021-09-16 15:06:42,569 | /home/ubuntu/reagan-bench2/apps/frappe/frappe/utils/scheduler.py:
Site: reaganerp.com
Queued events for site reaganerp.com
[DEBUG] 2021-09-16 15:07:42,777 | /home/ubuntu/reagan-bench2/apps/frappe/frappe/utils/scheduler.py:
Site: reaganerp.com
Queued events for site reaganerp.com
[DEBUG] 2021-09-16 15:08:42,967 | /home/ubuntu/reagan-bench2/apps/frappe/frappe/utils/scheduler.py:
Site: reaganerp.com
Queued events for site reaganerp.com
[DEBUG] 2021-09-16 15:09:43,155 | /home/ubuntu/reagan-bench2/apps/frappe/frappe/utils/scheduler.py:
Site: reaganerp.com
Queued events for site reaganerp.com
[DEBUG] 2021-09-16 15:10:43,371 | /home/ubuntu/reagan-bench2/apps/frappe/frappe/utils/scheduler.py:
Site: reaganerp.com
Queued events for site reaganerp.com
[DEBUG] 2021-09-16 15:11:43,566 | /home/ubuntu/reagan-bench2/apps/frappe/frappe/utils/scheduler.py:
Site: reaganerp.com
Queued events for site reaganerp.com
[DEBUG] 2021-09-16 15:12:44,054 | /home/ubuntu/reagan-bench2/apps/frappe/frappe/utils/scheduler.py:
Site: reaganerp.com
Queued events for site reaganerp.com
[DEBUG] 2021-09-16 15:13:44,280 | /home/ubuntu/reagan-bench2/apps/frappe/frappe/utils/scheduler.py:
Site: reaganerp.com
Queued events for site reaganerp.com
[DEBUG] 2021-09-16 15:14:44,530 | /home/ubuntu/reagan-bench2/apps/frappe/frappe/utils/scheduler.py:
Site: reaganerp.com
Queued events for site reaganerp.com
[DEBUG] 2021-09-16 15:15:44,722 | /home/ubuntu/reagan-bench2/apps/frappe/frappe/utils/scheduler.py:
Site: reaganerp.com
Queued events for site reaganerp.com
[DEBUG] 2021-09-16 15:16:44,911 | /home/ubuntu/reagan-bench2/apps/frappe/frappe/utils/scheduler.py:
Site: reaganerp.com
Queued events for site reaganerp.com
[DEBUG] 2021-09-16 15:17:45,117 | /home/ubuntu/reagan-bench2/apps/frappe/frappe/utils/scheduler.py:
Site: reaganerp.com
Queued events for site reaganerp.com
[DEBUG] 2021-09-16 15:18:45,354 | /home/ubuntu/reagan-bench2/apps/frappe/frappe/utils/scheduler.py:
Site: reaganerp.com
Queued events for site reaganerp.com
[DEBUG] 2021-09-16 15:19:45,534 | /home/ubuntu/reagan-bench2/apps/frappe/frappe/utils/scheduler.py:
Site: reaganerp.com
Queued events for site reaganerp.com
[DEBUG] 2021-09-16 15:20:45,716 | /home/ubuntu/reagan-bench2/apps/frappe/frappe/utils/scheduler.py:
Site: reaganerp.com
Queued events for site reaganerp.com
[DEBUG] 2021-09-16 15:21:45,918 | /home/ubuntu/reagan-bench2/apps/frappe/frappe/utils/scheduler.py:
Site: reaganerp.com
Queued events for site reaganerp.com
[DEBUG] 2021-09-16 15:22:46,140 | /home/ubuntu/reagan-bench2/apps/frappe/frappe/utils/scheduler.py:
Site: reaganerp.com
Queued events for site reaganerp.com
[DEBUG] 2021-09-16 15:23:46,328 | /home/ubuntu/reagan-bench2/apps/frappe/frappe/utils/scheduler.py:
Site: reaganerp.com
Queued events for site reaganerp.com
[DEBUG] 2021-09-16 15:24:46,545 | /home/ubuntu/reagan-bench2/apps/frappe/frappe/utils/scheduler.py:
Site: reaganerp.com
Queued events for site reaganerp.com
[DEBUG] 2021-09-16 15:25:46,744 | /home/ubuntu/reagan-bench2/apps/frappe/frappe/utils/scheduler.py:
Site: reaganerp.com
Queued events for site reaganerp.com
[DEBUG] 2021-09-16 15:26:46,979 | /home/ubuntu/reagan-bench2/apps/frappe/frappe/utils/scheduler.py:
Site: reaganerp.com
Queued events for site reaganerp.com
[DEBUG] 2021-09-16 15:27:47,144 | /home/ubuntu/reagan-bench2/apps/frappe/frappe/utils/scheduler.py:
Site: reaganerp.com
Queued events for site reaganerp.com
[DEBUG] 2021-09-16 15:28:47,329 | /home/ubuntu/reagan-bench2/apps/frappe/frappe/utils/scheduler.py:
Site: reaganerp.com
Queued events for site reaganerp.com
[DEBUG] 2021-09-16 15:29:47,556 | /home/ubuntu/reagan-bench2/apps/frappe/frappe/utils/scheduler.py:
Site: reaganerp.com
Queued events for site reaganerp.com
[DEBUG] 2021-09-16 15:30:47,833 | /home/ubuntu/reagan-bench2/apps/frappe/frappe/utils/scheduler.py:
Site: reaganerp.com
Queued events for site reaganerp.com
[DEBUG] 2021-09-16 15:31:48,028 | /home/ubuntu/reagan-bench2/apps/frappe/frappe/utils/scheduler.py:
Site: reaganerp.com
Queued events for site reaganerp.com
[DEBUG] 2021-09-16 15:32:48,229 | /home/ubuntu/reagan-bench2/apps/frappe/frappe/utils/scheduler.py:
Site: reaganerp.com
Queued events for site reaganerp.com
[DEBUG] 2021-09-16 15:33:48,455 | /home/ubuntu/reagan-bench2/apps/frappe/frappe/utils/scheduler.py:
Site: reaganerp.com
Queued events for site reaganerp.com
[DEBUG] 2021-09-16 15:34:48,653 | /home/ubuntu/reagan-bench2/apps/frappe/frappe/utils/scheduler.py:
Site: reaganerp.com
Queued events for site reaganerp.com
[DEBUG] 2021-09-16 15:35:48,851 | /home/ubuntu/reagan-bench2/apps/frappe/frappe/utils/scheduler.py:
Site: reaganerp.com
Queued events for site reaganerp.com
[DEBUG] 2021-09-16 15:36:49,027 | /home/ubuntu/reagan-bench2/apps/frappe/frappe/utils/scheduler.py:
Site: reaganerp.com
Queued events for site reaganerp.com
[DEBUG] 2021-09-16 15:37:49,230 | /home/ubuntu/reagan-bench2/apps/frappe/frappe/utils/scheduler.py:
Site: reaganerp.com
Queued events for site reaganerp.com
[DEBUG] 2021-09-16 15:38:49,418 | /home/ubuntu/reagan-bench2/apps/frappe/frappe/utils/scheduler.py:
Site: reaganerp.com
Queued events for site reaganerp.com
[DEBUG] 2021-09-16 15:39:49,611 | /home/ubuntu/reagan-bench2/apps/frappe/frappe/utils/scheduler.py:
Site: reaganerp.com
Queued events for site reaganerp.com
[DEBUG] 2021-09-16 15:40:49,796 | /home/ubuntu/reagan-bench2/apps/frappe/frappe/utils/scheduler.py:
Site: reaganerp.com
Queued events for site reaganerp.com
[DEBUG] 2021-09-16 15:41:50,077 | /home/ubuntu/reagan-bench2/apps/frappe/frappe/utils/scheduler.py:
Site: reaganerp.com
Queued events for site reaganerp.com
[DEBUG] 2021-09-16 15:42:50,312 | /home/ubuntu/reagan-bench2/apps/frappe/frappe/utils/scheduler.py:
Site: reaganerp.com
Queued events for site reaganerp.com
[DEBUG] 2021-09-16 15:43:50,496 | /home/ubuntu/reagan-bench2/apps/frappe/frappe/utils/scheduler.py:
Site: reaganerp.com
Queued events for site reaganerp.com
[DEBUG] 2021-09-16 15:44:50,672 | /home/ubuntu/reagan-bench2/apps/frappe/frappe/utils/scheduler.py:
Site: reaganerp.com
Queued events for site reaganerp.com
[DEBUG] 2021-09-16 15:45:50,875 | /home/ubuntu/reagan-bench2/apps/frappe/frappe/utils/scheduler.py:
Site: reaganerp.com
Queued events for site reaganerp.com
[DEBUG] 2021-09-16 15:46:51,176 | /home/ubuntu/reagan-bench2/apps/frappe/frappe/utils/scheduler.py:
Site: reaganerp.com
Queued events for site reaganerp.com
[DEBUG] 2021-09-16 15:47:51,373 | /home/ubuntu/reagan-bench2/apps/frappe/frappe/utils/scheduler.py:
Site: reaganerp.com
Queued events for site reaganerp.com
[DEBUG] 2021-09-16 15:48:51,557 | /home/ubuntu/reagan-bench2/apps/frappe/frappe/utils/scheduler.py:
Site: reaganerp.com
Queued events for site reaganerp.com
[DEBUG] 2021-09-16 15:49:51,752 | /home/ubuntu/reagan-bench2/apps/frappe/frappe/utils/scheduler.py:
Site: reaganerp.com
Queued events for site reaganerp.com
[DEBUG] 2021-09-16 15:50:52,005 | /home/ubuntu/reagan-bench2/apps/frappe/frappe/utils/scheduler.py:
Site: reaganerp.com
Queued events for site reaganerp.com
[DEBUG] 2021-09-16 15:51:52,261 | /home/ubuntu/reagan-bench2/apps/frappe/frappe/utils/scheduler.py:
Site: reaganerp.com
Queued events for site reaganerp.com
[DEBUG] 2021-09-16 15:52:52,516 | /home/ubuntu/reagan-bench2/apps/frappe/frappe/utils/scheduler.py:
Site: reaganerp.com
Queued events for site reaganerp.com
[DEBUG] 2021-09-16 15:53:52,769 | /home/ubuntu/reagan-bench2/apps/frappe/frappe/utils/scheduler.py:
Site: reaganerp.com
Queued events for site reaganerp.com
[DEBUG] 2021-09-16 15:54:53,037 | /home/ubuntu/reagan-bench2/apps/frappe/frappe/utils/scheduler.py:
Site: reaganerp.com
Queued events for site reaganerp.com
[DEBUG] 2021-09-16 15:55:53,260 | /home/ubuntu/reagan-bench2/apps/frappe/frappe/utils/scheduler.py:
Site: reaganerp.com
Queued events for site reaganerp.com
[DEBUG] 2021-09-16 15:56:53,454 | /home/ubuntu/reagan-bench2/apps/frappe/frappe/utils/scheduler.py:
Site: reaganerp.com
Queued events for site reaganerp.com
[DEBUG] 2021-09-16 15:57:53,640 | /home/ubuntu/reagan-bench2/apps/frappe/frappe/utils/scheduler.py:
Site: reaganerp.com
Queued events for site reaganerp.com
[DEBUG] 2021-09-16 15:58:53,853 | /home/ubuntu/reagan-bench2/apps/frappe/frappe/utils/scheduler.py:
Site: reaganerp.com
Queued events for site reaganerp.com
[DEBUG] 2021-09-16 15:59:54,083 | /home/ubuntu/reagan-bench2/apps/frappe/frappe/utils/scheduler.py:
Site: reaganerp.com
Queued events for site reaganerp.com
[DEBUG] 2021-09-16 16:00:54,250 | /home/ubuntu/reagan-bench2/apps/frappe/frappe/utils/scheduler.py:
Site: reaganerp.com
Queued events for site reaganerp.com
[DEBUG] 2021-09-16 16:01:54,427 | /home/ubuntu/reagan-bench2/apps/frappe/frappe/utils/scheduler.py:
Site: reaganerp.com
Queued events for site reaganerp.com
[DEBUG] 2021-09-16 16:02:54,705 | /home/ubuntu/reagan-bench2/apps/frappe/frappe/utils/scheduler.py:
Site: reaganerp.com
Queued events for site reaganerp.com
[DEBUG] 2021-09-16 16:03:54,902 | /home/ubuntu/reagan-bench2/apps/frappe/frappe/utils/scheduler.py:
Site: reaganerp.com
Queued events for site reaganerp.com
[DEBUG] 2021-09-16 16:04:55,080 | /home/ubuntu/reagan-bench2/apps/frappe/frappe/utils/scheduler.py:
Site: reaganerp.com
Queued events for site reaganerp.com
