[DEBUG] 2021-09-16 17:43:43,401 | /home/ubuntu/reagan-bench2/apps/frappe/frappe/utils/scheduler.py:
Site: reaganerp.com
Queued events for site reaganerp.com
[DEBUG] 2021-09-16 17:44:43,722 | /home/ubuntu/reagan-bench2/apps/frappe/frappe/utils/scheduler.py:
Site: reaganerp.com
Queued events for site reaganerp.com
[DEBUG] 2021-09-16 17:45:43,931 | /home/ubuntu/reagan-bench2/apps/frappe/frappe/utils/scheduler.py:
Site: reaganerp.com
Queued events for site reaganerp.com
[DEBUG] 2021-09-16 17:46:44,163 | /home/ubuntu/reagan-bench2/apps/frappe/frappe/utils/scheduler.py:
Site: reaganerp.com
Queued events for site reaganerp.com
[DEBUG] 2021-09-16 17:47:44,330 | /home/ubuntu/reagan-bench2/apps/frappe/frappe/utils/scheduler.py:
Site: reaganerp.com
Queued events for site reaganerp.com
[DEBUG] 2021-09-16 17:48:44,517 | /home/ubuntu/reagan-bench2/apps/frappe/frappe/utils/scheduler.py:
Site: reaganerp.com
Queued events for site reaganerp.com
[DEBUG] 2021-09-16 17:49:44,700 | /home/ubuntu/reagan-bench2/apps/frappe/frappe/utils/scheduler.py:
Site: reaganerp.com
Queued events for site reaganerp.com
[DEBUG] 2021-09-16 17:50:44,905 | /home/ubuntu/reagan-bench2/apps/frappe/frappe/utils/scheduler.py:
Site: reaganerp.com
Queued events for site reaganerp.com
[DEBUG] 2021-09-16 17:51:45,076 | /home/ubuntu/reagan-bench2/apps/frappe/frappe/utils/scheduler.py:
Site: reaganerp.com
Queued events for site reaganerp.com
[DEBUG] 2021-09-16 17:52:45,266 | /home/ubuntu/reagan-bench2/apps/frappe/frappe/utils/scheduler.py:
Site: reaganerp.com
Queued events for site reaganerp.com
[DEBUG] 2021-09-16 17:53:45,445 | /home/ubuntu/reagan-bench2/apps/frappe/frappe/utils/scheduler.py:
Site: reaganerp.com
Queued events for site reaganerp.com
[DEBUG] 2021-09-16 17:54:45,656 | /home/ubuntu/reagan-bench2/apps/frappe/frappe/utils/scheduler.py:
Site: reaganerp.com
Queued events for site reaganerp.com
[DEBUG] 2021-09-16 17:55:45,848 | /home/ubuntu/reagan-bench2/apps/frappe/frappe/utils/scheduler.py:
Site: reaganerp.com
Queued events for site reaganerp.com
[DEBUG] 2021-09-16 17:56:46,013 | /home/ubuntu/reagan-bench2/apps/frappe/frappe/utils/scheduler.py:
Site: reaganerp.com
Queued events for site reaganerp.com
[DEBUG] 2021-09-16 17:57:46,208 | /home/ubuntu/reagan-bench2/apps/frappe/frappe/utils/scheduler.py:
Site: reaganerp.com
Queued events for site reaganerp.com
[DEBUG] 2021-09-16 17:58:46,450 | /home/ubuntu/reagan-bench2/apps/frappe/frappe/utils/scheduler.py:
Site: reaganerp.com
Queued events for site reaganerp.com
[DEBUG] 2021-09-16 17:59:46,650 | /home/ubuntu/reagan-bench2/apps/frappe/frappe/utils/scheduler.py:
Site: reaganerp.com
Queued events for site reaganerp.com
[DEBUG] 2021-09-16 18:00:47,063 | /home/ubuntu/reagan-bench2/apps/frappe/frappe/utils/scheduler.py:
Site: reaganerp.com
Queued events for site reaganerp.com
[DEBUG] 2021-09-16 18:01:47,324 | /home/ubuntu/reagan-bench2/apps/frappe/frappe/utils/scheduler.py:
Site: reaganerp.com
Queued events for site reaganerp.com
[DEBUG] 2021-09-16 18:02:47,584 | /home/ubuntu/reagan-bench2/apps/frappe/frappe/utils/scheduler.py:
Site: reaganerp.com
Queued events for site reaganerp.com
[DEBUG] 2021-09-16 18:03:47,829 | /home/ubuntu/reagan-bench2/apps/frappe/frappe/utils/scheduler.py:
Site: reaganerp.com
Queued events for site reaganerp.com
[DEBUG] 2021-09-16 18:04:48,025 | /home/ubuntu/reagan-bench2/apps/frappe/frappe/utils/scheduler.py:
Site: reaganerp.com
Queued events for site reaganerp.com
[DEBUG] 2021-09-16 18:05:48,454 | /home/ubuntu/reagan-bench2/apps/frappe/frappe/utils/scheduler.py:
Site: reaganerp.com
Queued events for site reaganerp.com
[DEBUG] 2021-09-16 18:06:48,686 | /home/ubuntu/reagan-bench2/apps/frappe/frappe/utils/scheduler.py:
Site: reaganerp.com
Queued events for site reaganerp.com
[DEBUG] 2021-09-16 18:07:48,874 | /home/ubuntu/reagan-bench2/apps/frappe/frappe/utils/scheduler.py:
Site: reaganerp.com
Queued events for site reaganerp.com
[DEBUG] 2021-09-16 18:08:49,122 | /home/ubuntu/reagan-bench2/apps/frappe/frappe/utils/scheduler.py:
Site: reaganerp.com
Queued events for site reaganerp.com
[DEBUG] 2021-09-16 18:09:49,299 | /home/ubuntu/reagan-bench2/apps/frappe/frappe/utils/scheduler.py:
Site: reaganerp.com
Queued events for site reaganerp.com
[DEBUG] 2021-09-16 18:10:49,513 | /home/ubuntu/reagan-bench2/apps/frappe/frappe/utils/scheduler.py:
Site: reaganerp.com
Queued events for site reaganerp.com
[DEBUG] 2021-09-16 18:11:49,716 | /home/ubuntu/reagan-bench2/apps/frappe/frappe/utils/scheduler.py:
Site: reaganerp.com
Queued events for site reaganerp.com
[DEBUG] 2021-09-16 18:12:49,974 | /home/ubuntu/reagan-bench2/apps/frappe/frappe/utils/scheduler.py:
Site: reaganerp.com
Queued events for site reaganerp.com
[DEBUG] 2021-09-16 18:13:50,156 | /home/ubuntu/reagan-bench2/apps/frappe/frappe/utils/scheduler.py:
Site: reaganerp.com
Queued events for site reaganerp.com
[DEBUG] 2021-09-16 18:14:50,368 | /home/ubuntu/reagan-bench2/apps/frappe/frappe/utils/scheduler.py:
Site: reaganerp.com
Queued events for site reaganerp.com
[DEBUG] 2021-09-16 18:15:50,574 | /home/ubuntu/reagan-bench2/apps/frappe/frappe/utils/scheduler.py:
Site: reaganerp.com
Queued events for site reaganerp.com
[DEBUG] 2021-09-16 18:16:50,767 | /home/ubuntu/reagan-bench2/apps/frappe/frappe/utils/scheduler.py:
Site: reaganerp.com
Queued events for site reaganerp.com
[DEBUG] 2021-09-16 18:17:50,952 | /home/ubuntu/reagan-bench2/apps/frappe/frappe/utils/scheduler.py:
Site: reaganerp.com
Queued events for site reaganerp.com
[DEBUG] 2021-09-16 18:18:51,198 | /home/ubuntu/reagan-bench2/apps/frappe/frappe/utils/scheduler.py:
Site: reaganerp.com
Queued events for site reaganerp.com
[DEBUG] 2021-09-16 18:19:51,388 | /home/ubuntu/reagan-bench2/apps/frappe/frappe/utils/scheduler.py:
Site: reaganerp.com
Queued events for site reaganerp.com
[DEBUG] 2021-09-16 18:20:51,579 | /home/ubuntu/reagan-bench2/apps/frappe/frappe/utils/scheduler.py:
Site: reaganerp.com
Queued events for site reaganerp.com
[DEBUG] 2021-09-16 18:21:51,764 | /home/ubuntu/reagan-bench2/apps/frappe/frappe/utils/scheduler.py:
Site: reaganerp.com
Queued events for site reaganerp.com
[DEBUG] 2021-09-16 18:22:51,980 | /home/ubuntu/reagan-bench2/apps/frappe/frappe/utils/scheduler.py:
Site: reaganerp.com
Queued events for site reaganerp.com
[DEBUG] 2021-09-16 18:23:52,174 | /home/ubuntu/reagan-bench2/apps/frappe/frappe/utils/scheduler.py:
Site: reaganerp.com
Queued events for site reaganerp.com
[DEBUG] 2021-09-16 18:24:52,377 | /home/ubuntu/reagan-bench2/apps/frappe/frappe/utils/scheduler.py:
Site: reaganerp.com
Queued events for site reaganerp.com
[DEBUG] 2021-09-16 18:25:52,553 | /home/ubuntu/reagan-bench2/apps/frappe/frappe/utils/scheduler.py:
Site: reaganerp.com
Queued events for site reaganerp.com
[DEBUG] 2021-09-16 18:26:52,737 | /home/ubuntu/reagan-bench2/apps/frappe/frappe/utils/scheduler.py:
Site: reaganerp.com
Queued events for site reaganerp.com
[DEBUG] 2021-09-16 18:27:52,919 | /home/ubuntu/reagan-bench2/apps/frappe/frappe/utils/scheduler.py:
Site: reaganerp.com
Queued events for site reaganerp.com
[DEBUG] 2021-09-16 18:28:53,082 | /home/ubuntu/reagan-bench2/apps/frappe/frappe/utils/scheduler.py:
Site: reaganerp.com
Queued events for site reaganerp.com
[DEBUG] 2021-09-16 18:29:53,298 | /home/ubuntu/reagan-bench2/apps/frappe/frappe/utils/scheduler.py:
Site: reaganerp.com
Queued events for site reaganerp.com
[DEBUG] 2021-09-16 18:30:53,497 | /home/ubuntu/reagan-bench2/apps/frappe/frappe/utils/scheduler.py:
Site: reaganerp.com
Queued events for site reaganerp.com
[DEBUG] 2021-09-16 18:31:53,732 | /home/ubuntu/reagan-bench2/apps/frappe/frappe/utils/scheduler.py:
Site: reaganerp.com
Queued events for site reaganerp.com
[DEBUG] 2021-09-16 18:32:53,926 | /home/ubuntu/reagan-bench2/apps/frappe/frappe/utils/scheduler.py:
Site: reaganerp.com
Queued events for site reaganerp.com
[DEBUG] 2021-09-16 18:33:54,118 | /home/ubuntu/reagan-bench2/apps/frappe/frappe/utils/scheduler.py:
Site: reaganerp.com
Queued events for site reaganerp.com
[DEBUG] 2021-09-16 18:34:54,323 | /home/ubuntu/reagan-bench2/apps/frappe/frappe/utils/scheduler.py:
Site: reaganerp.com
Queued events for site reaganerp.com
[DEBUG] 2021-09-16 18:35:54,679 | /home/ubuntu/reagan-bench2/apps/frappe/frappe/utils/scheduler.py:
Site: reaganerp.com
Queued events for site reaganerp.com
[DEBUG] 2021-09-16 18:36:54,870 | /home/ubuntu/reagan-bench2/apps/frappe/frappe/utils/scheduler.py:
Site: reaganerp.com
Queued events for site reaganerp.com
[DEBUG] 2021-09-16 18:37:55,180 | /home/ubuntu/reagan-bench2/apps/frappe/frappe/utils/scheduler.py:
Site: reaganerp.com
Queued events for site reaganerp.com
[DEBUG] 2021-09-16 18:38:55,398 | /home/ubuntu/reagan-bench2/apps/frappe/frappe/utils/scheduler.py:
Site: reaganerp.com
Queued events for site reaganerp.com
[DEBUG] 2021-09-16 18:39:55,591 | /home/ubuntu/reagan-bench2/apps/frappe/frappe/utils/scheduler.py:
Site: reaganerp.com
Queued events for site reaganerp.com
[DEBUG] 2021-09-16 18:40:55,771 | /home/ubuntu/reagan-bench2/apps/frappe/frappe/utils/scheduler.py:
Site: reaganerp.com
Queued events for site reaganerp.com
[DEBUG] 2021-09-16 18:41:55,975 | /home/ubuntu/reagan-bench2/apps/frappe/frappe/utils/scheduler.py:
Site: reaganerp.com
Queued events for site reaganerp.com
[DEBUG] 2021-09-16 18:42:56,206 | /home/ubuntu/reagan-bench2/apps/frappe/frappe/utils/scheduler.py:
Site: reaganerp.com
Queued events for site reaganerp.com
[DEBUG] 2021-09-16 18:43:56,394 | /home/ubuntu/reagan-bench2/apps/frappe/frappe/utils/scheduler.py:
Site: reaganerp.com
Queued events for site reaganerp.com
[DEBUG] 2021-09-16 18:44:56,624 | /home/ubuntu/reagan-bench2/apps/frappe/frappe/utils/scheduler.py:
Site: reaganerp.com
Queued events for site reaganerp.com
[DEBUG] 2021-09-16 18:45:56,811 | /home/ubuntu/reagan-bench2/apps/frappe/frappe/utils/scheduler.py:
Site: reaganerp.com
Queued events for site reaganerp.com
[DEBUG] 2021-09-16 18:46:57,045 | /home/ubuntu/reagan-bench2/apps/frappe/frappe/utils/scheduler.py:
Site: reaganerp.com
Queued events for site reaganerp.com
[DEBUG] 2021-09-16 18:47:57,255 | /home/ubuntu/reagan-bench2/apps/frappe/frappe/utils/scheduler.py:
Site: reaganerp.com
Queued events for site reaganerp.com
[DEBUG] 2021-09-16 18:48:57,454 | /home/ubuntu/reagan-bench2/apps/frappe/frappe/utils/scheduler.py:
Site: reaganerp.com
Queued events for site reaganerp.com
[DEBUG] 2021-09-16 18:49:57,651 | /home/ubuntu/reagan-bench2/apps/frappe/frappe/utils/scheduler.py:
Site: reaganerp.com
Queued events for site reaganerp.com
[DEBUG] 2021-09-16 18:50:57,881 | /home/ubuntu/reagan-bench2/apps/frappe/frappe/utils/scheduler.py:
Site: reaganerp.com
Queued events for site reaganerp.com
[DEBUG] 2021-09-16 18:51:58,049 | /home/ubuntu/reagan-bench2/apps/frappe/frappe/utils/scheduler.py:
Site: reaganerp.com
Queued events for site reaganerp.com
[DEBUG] 2021-09-16 21:11:40,186 | /home/ubuntu/reagan-bench2/apps/frappe/frappe/utils/scheduler.py:
Site: reaganerp.com
Queued events for site reaganerp.com
[DEBUG] 2021-09-16 21:12:40,442 | /home/ubuntu/reagan-bench2/apps/frappe/frappe/utils/scheduler.py:
Site: reaganerp.com
Queued events for site reaganerp.com
[DEBUG] 2021-09-16 21:13:40,671 | /home/ubuntu/reagan-bench2/apps/frappe/frappe/utils/scheduler.py:
Site: reaganerp.com
Queued events for site reaganerp.com
[DEBUG] 2021-09-16 22:27:12,593 | /home/ubuntu/reagan-bench2/apps/frappe/frappe/utils/scheduler.py:
Site: reaganerp.com
Queued events for site reaganerp.com
[DEBUG] 2021-09-16 22:28:13,172 | /home/ubuntu/reagan-bench2/apps/frappe/frappe/utils/scheduler.py:
Site: reaganerp.com
Queued events for site reaganerp.com
[DEBUG] 2021-09-16 22:29:13,483 | /home/ubuntu/reagan-bench2/apps/frappe/frappe/utils/scheduler.py:
Site: reaganerp.com
Queued events for site reaganerp.com
[DEBUG] 2021-09-16 22:30:13,753 | /home/ubuntu/reagan-bench2/apps/frappe/frappe/utils/scheduler.py:
Site: reaganerp.com
Queued events for site reaganerp.com
[DEBUG] 2021-09-16 22:31:14,000 | /home/ubuntu/reagan-bench2/apps/frappe/frappe/utils/scheduler.py:
Site: reaganerp.com
Queued events for site reaganerp.com
[DEBUG] 2021-09-16 22:32:14,177 | /home/ubuntu/reagan-bench2/apps/frappe/frappe/utils/scheduler.py:
Site: reaganerp.com
Queued events for site reaganerp.com
[DEBUG] 2021-09-16 22:33:14,370 | /home/ubuntu/reagan-bench2/apps/frappe/frappe/utils/scheduler.py:
Site: reaganerp.com
Queued events for site reaganerp.com
[DEBUG] 2021-09-16 22:34:14,643 | /home/ubuntu/reagan-bench2/apps/frappe/frappe/utils/scheduler.py:
Site: reaganerp.com
Queued events for site reaganerp.com
[DEBUG] 2021-09-16 22:35:14,829 | /home/ubuntu/reagan-bench2/apps/frappe/frappe/utils/scheduler.py:
Site: reaganerp.com
Queued events for site reaganerp.com
[DEBUG] 2021-09-16 22:36:14,974 | /home/ubuntu/reagan-bench2/apps/frappe/frappe/utils/scheduler.py:
Site: reaganerp.com
Queued events for site reaganerp.com
[DEBUG] 2021-09-16 22:37:15,169 | /home/ubuntu/reagan-bench2/apps/frappe/frappe/utils/scheduler.py:
Site: reaganerp.com
Queued events for site reaganerp.com
[DEBUG] 2021-09-16 22:38:15,363 | /home/ubuntu/reagan-bench2/apps/frappe/frappe/utils/scheduler.py:
Site: reaganerp.com
Queued events for site reaganerp.com
[DEBUG] 2021-09-16 22:39:15,523 | /home/ubuntu/reagan-bench2/apps/frappe/frappe/utils/scheduler.py:
Site: reaganerp.com
Queued events for site reaganerp.com
[DEBUG] 2021-09-16 22:40:15,741 | /home/ubuntu/reagan-bench2/apps/frappe/frappe/utils/scheduler.py:
Site: reaganerp.com
Queued events for site reaganerp.com
[DEBUG] 2021-09-16 22:41:15,923 | /home/ubuntu/reagan-bench2/apps/frappe/frappe/utils/scheduler.py:
Site: reaganerp.com
Queued events for site reaganerp.com
[DEBUG] 2021-09-16 22:42:16,139 | /home/ubuntu/reagan-bench2/apps/frappe/frappe/utils/scheduler.py:
Site: reaganerp.com
Queued events for site reaganerp.com
[DEBUG] 2021-09-16 22:43:16,343 | /home/ubuntu/reagan-bench2/apps/frappe/frappe/utils/scheduler.py:
Site: reaganerp.com
Queued events for site reaganerp.com
[DEBUG] 2021-09-16 22:44:16,543 | /home/ubuntu/reagan-bench2/apps/frappe/frappe/utils/scheduler.py:
Site: reaganerp.com
Queued events for site reaganerp.com
[DEBUG] 2021-09-16 22:45:16,711 | /home/ubuntu/reagan-bench2/apps/frappe/frappe/utils/scheduler.py:
Site: reaganerp.com
Queued events for site reaganerp.com
[DEBUG] 2021-09-16 22:46:16,879 | /home/ubuntu/reagan-bench2/apps/frappe/frappe/utils/scheduler.py:
Site: reaganerp.com
Queued events for site reaganerp.com
[DEBUG] 2021-09-16 22:47:17,068 | /home/ubuntu/reagan-bench2/apps/frappe/frappe/utils/scheduler.py:
Site: reaganerp.com
Queued events for site reaganerp.com
[DEBUG] 2021-09-16 22:48:17,278 | /home/ubuntu/reagan-bench2/apps/frappe/frappe/utils/scheduler.py:
Site: reaganerp.com
Queued events for site reaganerp.com
[DEBUG] 2021-09-16 22:49:17,463 | /home/ubuntu/reagan-bench2/apps/frappe/frappe/utils/scheduler.py:
Site: reaganerp.com
Queued events for site reaganerp.com
[DEBUG] 2021-09-16 22:50:17,678 | /home/ubuntu/reagan-bench2/apps/frappe/frappe/utils/scheduler.py:
Site: reaganerp.com
Queued events for site reaganerp.com
[DEBUG] 2021-09-16 22:51:17,871 | /home/ubuntu/reagan-bench2/apps/frappe/frappe/utils/scheduler.py:
Site: reaganerp.com
Queued events for site reaganerp.com
[DEBUG] 2021-09-16 22:52:18,073 | /home/ubuntu/reagan-bench2/apps/frappe/frappe/utils/scheduler.py:
Site: reaganerp.com
Queued events for site reaganerp.com
[DEBUG] 2021-09-16 22:53:18,267 | /home/ubuntu/reagan-bench2/apps/frappe/frappe/utils/scheduler.py:
Site: reaganerp.com
Queued events for site reaganerp.com
[DEBUG] 2021-09-16 22:54:18,466 | /home/ubuntu/reagan-bench2/apps/frappe/frappe/utils/scheduler.py:
Site: reaganerp.com
Queued events for site reaganerp.com
[DEBUG] 2021-09-16 22:55:18,685 | /home/ubuntu/reagan-bench2/apps/frappe/frappe/utils/scheduler.py:
Site: reaganerp.com
Queued events for site reaganerp.com
[DEBUG] 2021-09-16 22:56:18,872 | /home/ubuntu/reagan-bench2/apps/frappe/frappe/utils/scheduler.py:
Site: reaganerp.com
Queued events for site reaganerp.com
[DEBUG] 2021-09-16 22:57:19,079 | /home/ubuntu/reagan-bench2/apps/frappe/frappe/utils/scheduler.py:
Site: reaganerp.com
Queued events for site reaganerp.com
[DEBUG] 2021-09-16 22:58:19,297 | /home/ubuntu/reagan-bench2/apps/frappe/frappe/utils/scheduler.py:
Site: reaganerp.com
Queued events for site reaganerp.com
[DEBUG] 2021-09-16 22:59:19,494 | /home/ubuntu/reagan-bench2/apps/frappe/frappe/utils/scheduler.py:
Site: reaganerp.com
Queued events for site reaganerp.com
[DEBUG] 2021-09-16 23:00:19,766 | /home/ubuntu/reagan-bench2/apps/frappe/frappe/utils/scheduler.py:
Site: reaganerp.com
Queued events for site reaganerp.com
[DEBUG] 2021-09-16 23:01:20,552 | /home/ubuntu/reagan-bench2/apps/frappe/frappe/utils/scheduler.py:
Site: reaganerp.com
Queued events for site reaganerp.com
[DEBUG] 2021-09-16 23:02:21,564 | /home/ubuntu/reagan-bench2/apps/frappe/frappe/utils/scheduler.py:
Site: reaganerp.com
Queued events for site reaganerp.com
[DEBUG] 2021-09-16 23:03:21,838 | /home/ubuntu/reagan-bench2/apps/frappe/frappe/utils/scheduler.py:
Site: reaganerp.com
Queued events for site reaganerp.com
[DEBUG] 2021-09-16 23:04:22,015 | /home/ubuntu/reagan-bench2/apps/frappe/frappe/utils/scheduler.py:
Site: reaganerp.com
Queued events for site reaganerp.com
[DEBUG] 2021-09-16 23:05:22,191 | /home/ubuntu/reagan-bench2/apps/frappe/frappe/utils/scheduler.py:
Site: reaganerp.com
Queued events for site reaganerp.com
[DEBUG] 2021-09-16 23:06:22,456 | /home/ubuntu/reagan-bench2/apps/frappe/frappe/utils/scheduler.py:
Site: reaganerp.com
Queued events for site reaganerp.com
[DEBUG] 2021-09-16 23:07:22,671 | /home/ubuntu/reagan-bench2/apps/frappe/frappe/utils/scheduler.py:
Site: reaganerp.com
Queued events for site reaganerp.com
[DEBUG] 2021-09-16 23:08:22,883 | /home/ubuntu/reagan-bench2/apps/frappe/frappe/utils/scheduler.py:
Site: reaganerp.com
Queued events for site reaganerp.com
[DEBUG] 2021-09-16 23:09:23,065 | /home/ubuntu/reagan-bench2/apps/frappe/frappe/utils/scheduler.py:
Site: reaganerp.com
Queued events for site reaganerp.com
[DEBUG] 2021-09-16 23:10:23,309 | /home/ubuntu/reagan-bench2/apps/frappe/frappe/utils/scheduler.py:
Site: reaganerp.com
Queued events for site reaganerp.com
[DEBUG] 2021-09-16 23:11:23,549 | /home/ubuntu/reagan-bench2/apps/frappe/frappe/utils/scheduler.py:
Site: reaganerp.com
Queued events for site reaganerp.com
[DEBUG] 2021-09-16 23:12:23,746 | /home/ubuntu/reagan-bench2/apps/frappe/frappe/utils/scheduler.py:
Site: reaganerp.com
Queued events for site reaganerp.com
[DEBUG] 2021-09-16 23:13:24,016 | /home/ubuntu/reagan-bench2/apps/frappe/frappe/utils/scheduler.py:
Site: reaganerp.com
Queued events for site reaganerp.com
[DEBUG] 2021-09-16 23:14:24,240 | /home/ubuntu/reagan-bench2/apps/frappe/frappe/utils/scheduler.py:
Site: reaganerp.com
Queued events for site reaganerp.com
[DEBUG] 2021-09-16 23:15:24,415 | /home/ubuntu/reagan-bench2/apps/frappe/frappe/utils/scheduler.py:
Site: reaganerp.com
Queued events for site reaganerp.com
[DEBUG] 2021-09-16 23:16:24,609 | /home/ubuntu/reagan-bench2/apps/frappe/frappe/utils/scheduler.py:
Site: reaganerp.com
Queued events for site reaganerp.com
[DEBUG] 2021-09-16 23:17:24,908 | /home/ubuntu/reagan-bench2/apps/frappe/frappe/utils/scheduler.py:
Site: reaganerp.com
Queued events for site reaganerp.com
[DEBUG] 2021-09-16 23:18:25,181 | /home/ubuntu/reagan-bench2/apps/frappe/frappe/utils/scheduler.py:
Site: reaganerp.com
Queued events for site reaganerp.com
[DEBUG] 2021-09-16 23:19:25,385 | /home/ubuntu/reagan-bench2/apps/frappe/frappe/utils/scheduler.py:
Site: reaganerp.com
Queued events for site reaganerp.com
[DEBUG] 2021-09-16 23:20:25,569 | /home/ubuntu/reagan-bench2/apps/frappe/frappe/utils/scheduler.py:
Site: reaganerp.com
Queued events for site reaganerp.com
[DEBUG] 2021-09-16 23:21:25,761 | /home/ubuntu/reagan-bench2/apps/frappe/frappe/utils/scheduler.py:
Site: reaganerp.com
Queued events for site reaganerp.com
[DEBUG] 2021-09-16 23:22:26,007 | /home/ubuntu/reagan-bench2/apps/frappe/frappe/utils/scheduler.py:
Site: reaganerp.com
Queued events for site reaganerp.com
[DEBUG] 2021-09-16 23:23:26,201 | /home/ubuntu/reagan-bench2/apps/frappe/frappe/utils/scheduler.py:
Site: reaganerp.com
Queued events for site reaganerp.com
[DEBUG] 2021-09-16 23:24:26,405 | /home/ubuntu/reagan-bench2/apps/frappe/frappe/utils/scheduler.py:
Site: reaganerp.com
Queued events for site reaganerp.com
[DEBUG] 2021-09-16 23:25:26,696 | /home/ubuntu/reagan-bench2/apps/frappe/frappe/utils/scheduler.py:
Site: reaganerp.com
Queued events for site reaganerp.com
[DEBUG] 2021-09-16 23:26:26,884 | /home/ubuntu/reagan-bench2/apps/frappe/frappe/utils/scheduler.py:
Site: reaganerp.com
Queued events for site reaganerp.com
[DEBUG] 2021-09-16 23:27:27,066 | /home/ubuntu/reagan-bench2/apps/frappe/frappe/utils/scheduler.py:
Site: reaganerp.com
Queued events for site reaganerp.com
[DEBUG] 2021-09-16 23:28:27,218 | /home/ubuntu/reagan-bench2/apps/frappe/frappe/utils/scheduler.py:
Site: reaganerp.com
Queued events for site reaganerp.com
[DEBUG] 2021-09-16 23:29:27,459 | /home/ubuntu/reagan-bench2/apps/frappe/frappe/utils/scheduler.py:
Site: reaganerp.com
Queued events for site reaganerp.com
[DEBUG] 2021-09-16 23:30:27,670 | /home/ubuntu/reagan-bench2/apps/frappe/frappe/utils/scheduler.py:
Site: reaganerp.com
Queued events for site reaganerp.com
[DEBUG] 2021-09-16 23:31:27,934 | /home/ubuntu/reagan-bench2/apps/frappe/frappe/utils/scheduler.py:
Site: reaganerp.com
Queued events for site reaganerp.com
[DEBUG] 2021-09-16 23:32:28,121 | /home/ubuntu/reagan-bench2/apps/frappe/frappe/utils/scheduler.py:
Site: reaganerp.com
Queued events for site reaganerp.com
[DEBUG] 2021-09-16 23:33:28,324 | /home/ubuntu/reagan-bench2/apps/frappe/frappe/utils/scheduler.py:
Site: reaganerp.com
Queued events for site reaganerp.com
[DEBUG] 2021-09-16 23:34:28,585 | /home/ubuntu/reagan-bench2/apps/frappe/frappe/utils/scheduler.py:
Site: reaganerp.com
Queued events for site reaganerp.com
[DEBUG] 2021-09-16 23:35:28,782 | /home/ubuntu/reagan-bench2/apps/frappe/frappe/utils/scheduler.py:
Site: reaganerp.com
Queued events for site reaganerp.com
[DEBUG] 2021-09-16 23:36:28,953 | /home/ubuntu/reagan-bench2/apps/frappe/frappe/utils/scheduler.py:
Site: reaganerp.com
Queued events for site reaganerp.com
[DEBUG] 2021-09-16 23:37:29,139 | /home/ubuntu/reagan-bench2/apps/frappe/frappe/utils/scheduler.py:
Site: reaganerp.com
Queued events for site reaganerp.com
[DEBUG] 2021-09-16 23:38:29,410 | /home/ubuntu/reagan-bench2/apps/frappe/frappe/utils/scheduler.py:
Site: reaganerp.com
Queued events for site reaganerp.com
[DEBUG] 2021-09-16 23:39:29,611 | /home/ubuntu/reagan-bench2/apps/frappe/frappe/utils/scheduler.py:
Site: reaganerp.com
Queued events for site reaganerp.com
[DEBUG] 2021-09-16 23:40:29,868 | /home/ubuntu/reagan-bench2/apps/frappe/frappe/utils/scheduler.py:
Site: reaganerp.com
Queued events for site reaganerp.com
[DEBUG] 2021-09-16 23:41:30,049 | /home/ubuntu/reagan-bench2/apps/frappe/frappe/utils/scheduler.py:
Site: reaganerp.com
Queued events for site reaganerp.com
[DEBUG] 2021-09-16 23:42:30,249 | /home/ubuntu/reagan-bench2/apps/frappe/frappe/utils/scheduler.py:
Site: reaganerp.com
Queued events for site reaganerp.com
[DEBUG] 2021-09-16 23:43:30,440 | /home/ubuntu/reagan-bench2/apps/frappe/frappe/utils/scheduler.py:
Site: reaganerp.com
Queued events for site reaganerp.com
[DEBUG] 2021-09-16 23:44:30,641 | /home/ubuntu/reagan-bench2/apps/frappe/frappe/utils/scheduler.py:
Site: reaganerp.com
Queued events for site reaganerp.com
[DEBUG] 2021-09-16 23:45:30,806 | /home/ubuntu/reagan-bench2/apps/frappe/frappe/utils/scheduler.py:
Site: reaganerp.com
Queued events for site reaganerp.com
[DEBUG] 2021-09-16 23:46:30,991 | /home/ubuntu/reagan-bench2/apps/frappe/frappe/utils/scheduler.py:
Site: reaganerp.com
Queued events for site reaganerp.com
[DEBUG] 2021-09-16 23:47:31,194 | /home/ubuntu/reagan-bench2/apps/frappe/frappe/utils/scheduler.py:
Site: reaganerp.com
Queued events for site reaganerp.com
[DEBUG] 2021-09-16 23:48:31,373 | /home/ubuntu/reagan-bench2/apps/frappe/frappe/utils/scheduler.py:
Site: reaganerp.com
Queued events for site reaganerp.com
[DEBUG] 2021-09-16 23:49:31,568 | /home/ubuntu/reagan-bench2/apps/frappe/frappe/utils/scheduler.py:
Site: reaganerp.com
Queued events for site reaganerp.com
[DEBUG] 2021-09-16 23:50:31,777 | /home/ubuntu/reagan-bench2/apps/frappe/frappe/utils/scheduler.py:
Site: reaganerp.com
Queued events for site reaganerp.com
[DEBUG] 2021-09-16 23:51:31,966 | /home/ubuntu/reagan-bench2/apps/frappe/frappe/utils/scheduler.py:
Site: reaganerp.com
Queued events for site reaganerp.com
[DEBUG] 2021-09-16 23:52:32,377 | /home/ubuntu/reagan-bench2/apps/frappe/frappe/utils/scheduler.py:
Site: reaganerp.com
Queued events for site reaganerp.com
[DEBUG] 2021-09-16 23:53:32,581 | /home/ubuntu/reagan-bench2/apps/frappe/frappe/utils/scheduler.py:
Site: reaganerp.com
Queued events for site reaganerp.com
[DEBUG] 2021-09-16 23:54:32,762 | /home/ubuntu/reagan-bench2/apps/frappe/frappe/utils/scheduler.py:
Site: reaganerp.com
Queued events for site reaganerp.com
[DEBUG] 2021-09-16 23:55:32,954 | /home/ubuntu/reagan-bench2/apps/frappe/frappe/utils/scheduler.py:
Site: reaganerp.com
Queued events for site reaganerp.com
[DEBUG] 2021-09-16 23:56:33,157 | /home/ubuntu/reagan-bench2/apps/frappe/frappe/utils/scheduler.py:
Site: reaganerp.com
Queued events for site reaganerp.com
[DEBUG] 2021-09-16 23:57:33,365 | /home/ubuntu/reagan-bench2/apps/frappe/frappe/utils/scheduler.py:
Site: reaganerp.com
Queued events for site reaganerp.com
[DEBUG] 2021-09-16 23:58:33,580 | /home/ubuntu/reagan-bench2/apps/frappe/frappe/utils/scheduler.py:
Site: reaganerp.com
Queued events for site reaganerp.com
[DEBUG] 2021-09-16 23:59:33,776 | /home/ubuntu/reagan-bench2/apps/frappe/frappe/utils/scheduler.py:
Site: reaganerp.com
Queued events for site reaganerp.com
[DEBUG] 2021-09-17 00:00:34,158 | /home/ubuntu/reagan-bench2/apps/frappe/frappe/utils/scheduler.py:
Site: reaganerp.com
Queued events for site reaganerp.com
[DEBUG] 2021-09-17 00:01:34,621 | /home/ubuntu/reagan-bench2/apps/frappe/frappe/utils/scheduler.py:
Site: reaganerp.com
Queued events for site reaganerp.com
[DEBUG] 2021-09-17 00:02:35,044 | /home/ubuntu/reagan-bench2/apps/frappe/frappe/utils/scheduler.py:
Site: reaganerp.com
Queued events for site reaganerp.com
[DEBUG] 2021-09-17 00:03:35,236 | /home/ubuntu/reagan-bench2/apps/frappe/frappe/utils/scheduler.py:
Site: reaganerp.com
Queued events for site reaganerp.com
[DEBUG] 2021-09-17 00:04:35,460 | /home/ubuntu/reagan-bench2/apps/frappe/frappe/utils/scheduler.py:
Site: reaganerp.com
Queued events for site reaganerp.com
[DEBUG] 2021-09-17 00:05:35,849 | /home/ubuntu/reagan-bench2/apps/frappe/frappe/utils/scheduler.py:
Site: reaganerp.com
Queued events for site reaganerp.com
[DEBUG] 2021-09-17 00:06:36,074 | /home/ubuntu/reagan-bench2/apps/frappe/frappe/utils/scheduler.py:
Site: reaganerp.com
Queued events for site reaganerp.com
[DEBUG] 2021-09-17 00:07:36,302 | /home/ubuntu/reagan-bench2/apps/frappe/frappe/utils/scheduler.py:
Site: reaganerp.com
Queued events for site reaganerp.com
[DEBUG] 2021-09-17 00:08:36,501 | /home/ubuntu/reagan-bench2/apps/frappe/frappe/utils/scheduler.py:
Site: reaganerp.com
Queued events for site reaganerp.com
[DEBUG] 2021-09-17 00:09:36,682 | /home/ubuntu/reagan-bench2/apps/frappe/frappe/utils/scheduler.py:
Site: reaganerp.com
Queued events for site reaganerp.com
[DEBUG] 2021-09-17 00:10:36,930 | /home/ubuntu/reagan-bench2/apps/frappe/frappe/utils/scheduler.py:
Site: reaganerp.com
Queued events for site reaganerp.com
[DEBUG] 2021-09-17 00:11:37,163 | /home/ubuntu/reagan-bench2/apps/frappe/frappe/utils/scheduler.py:
Site: reaganerp.com
Queued events for site reaganerp.com
[DEBUG] 2021-09-17 00:12:37,353 | /home/ubuntu/reagan-bench2/apps/frappe/frappe/utils/scheduler.py:
Site: reaganerp.com
Queued events for site reaganerp.com
[DEBUG] 2021-09-17 00:13:37,512 | /home/ubuntu/reagan-bench2/apps/frappe/frappe/utils/scheduler.py:
Site: reaganerp.com
Queued events for site reaganerp.com
[DEBUG] 2021-09-17 00:14:37,716 | /home/ubuntu/reagan-bench2/apps/frappe/frappe/utils/scheduler.py:
Site: reaganerp.com
Queued events for site reaganerp.com
[DEBUG] 2021-09-17 00:15:37,895 | /home/ubuntu/reagan-bench2/apps/frappe/frappe/utils/scheduler.py:
Site: reaganerp.com
Queued events for site reaganerp.com
[DEBUG] 2021-09-17 00:16:38,066 | /home/ubuntu/reagan-bench2/apps/frappe/frappe/utils/scheduler.py:
Site: reaganerp.com
Queued events for site reaganerp.com
[DEBUG] 2021-09-17 00:17:38,249 | /home/ubuntu/reagan-bench2/apps/frappe/frappe/utils/scheduler.py:
Site: reaganerp.com
Queued events for site reaganerp.com
[DEBUG] 2021-09-17 00:18:38,472 | /home/ubuntu/reagan-bench2/apps/frappe/frappe/utils/scheduler.py:
Site: reaganerp.com
Queued events for site reaganerp.com
[DEBUG] 2021-09-17 00:19:38,674 | /home/ubuntu/reagan-bench2/apps/frappe/frappe/utils/scheduler.py:
Site: reaganerp.com
Queued events for site reaganerp.com
[DEBUG] 2021-09-17 00:20:38,862 | /home/ubuntu/reagan-bench2/apps/frappe/frappe/utils/scheduler.py:
Site: reaganerp.com
Queued events for site reaganerp.com
[DEBUG] 2021-09-17 00:21:39,062 | /home/ubuntu/reagan-bench2/apps/frappe/frappe/utils/scheduler.py:
Site: reaganerp.com
Queued events for site reaganerp.com
[DEBUG] 2021-09-17 00:22:39,250 | /home/ubuntu/reagan-bench2/apps/frappe/frappe/utils/scheduler.py:
Site: reaganerp.com
Queued events for site reaganerp.com
[DEBUG] 2021-09-17 00:23:39,534 | /home/ubuntu/reagan-bench2/apps/frappe/frappe/utils/scheduler.py:
Site: reaganerp.com
Queued events for site reaganerp.com
[DEBUG] 2021-09-17 00:24:39,708 | /home/ubuntu/reagan-bench2/apps/frappe/frappe/utils/scheduler.py:
Site: reaganerp.com
Queued events for site reaganerp.com
[DEBUG] 2021-09-17 00:25:39,897 | /home/ubuntu/reagan-bench2/apps/frappe/frappe/utils/scheduler.py:
Site: reaganerp.com
Queued events for site reaganerp.com
[DEBUG] 2021-09-17 00:26:40,101 | /home/ubuntu/reagan-bench2/apps/frappe/frappe/utils/scheduler.py:
Site: reaganerp.com
Queued events for site reaganerp.com
[DEBUG] 2021-09-17 00:27:40,296 | /home/ubuntu/reagan-bench2/apps/frappe/frappe/utils/scheduler.py:
Site: reaganerp.com
Queued events for site reaganerp.com
[DEBUG] 2021-09-17 00:28:40,463 | /home/ubuntu/reagan-bench2/apps/frappe/frappe/utils/scheduler.py:
Site: reaganerp.com
Queued events for site reaganerp.com
[DEBUG] 2021-09-17 00:29:40,651 | /home/ubuntu/reagan-bench2/apps/frappe/frappe/utils/scheduler.py:
Site: reaganerp.com
Queued events for site reaganerp.com
[DEBUG] 2021-09-17 00:30:42,169 | /home/ubuntu/reagan-bench2/apps/frappe/frappe/utils/scheduler.py:
Site: reaganerp.com
Queued events for site reaganerp.com
[DEBUG] 2021-09-17 10:51:04,918 | /home/ubuntu/reagan-bench2/apps/frappe/frappe/utils/scheduler.py:
Site: reaganerp.com
Queued events for site reaganerp.com
[DEBUG] 2021-09-17 10:52:05,454 | /home/ubuntu/reagan-bench2/apps/frappe/frappe/utils/scheduler.py:
Site: reaganerp.com
Queued events for site reaganerp.com
[DEBUG] 2021-09-17 10:53:08,957 | /home/ubuntu/reagan-bench2/apps/frappe/frappe/utils/scheduler.py:
Site: reaganerp.com
Queued events for site reaganerp.com
[DEBUG] 2021-09-17 10:54:11,804 | /home/ubuntu/reagan-bench2/apps/frappe/frappe/utils/scheduler.py:
Site: reaganerp.com
Queued events for site reaganerp.com
[DEBUG] 2021-09-17 10:55:22,101 | /home/ubuntu/reagan-bench2/apps/frappe/frappe/utils/scheduler.py:
Site: reaganerp.com
Queued events for site reaganerp.com
[DEBUG] 2021-09-17 10:56:26,653 | /home/ubuntu/reagan-bench2/apps/frappe/frappe/utils/scheduler.py:
Site: reaganerp.com
Queued events for site reaganerp.com
[DEBUG] 2021-09-17 10:57:46,214 | /home/ubuntu/reagan-bench2/apps/frappe/frappe/utils/scheduler.py:
Site: reaganerp.com
Queued events for site reaganerp.com
[DEBUG] 2021-09-17 12:21:42,540 | /home/ubuntu/reagan-bench2/apps/frappe/frappe/utils/scheduler.py:
Site: reaganerp.com
Queued events for site reaganerp.com
[DEBUG] 2021-09-17 12:22:42,876 | /home/ubuntu/reagan-bench2/apps/frappe/frappe/utils/scheduler.py:
Site: reaganerp.com
Queued events for site reaganerp.com
[DEBUG] 2021-09-17 12:23:43,084 | /home/ubuntu/reagan-bench2/apps/frappe/frappe/utils/scheduler.py:
Site: reaganerp.com
Queued events for site reaganerp.com
[DEBUG] 2021-09-17 12:24:43,298 | /home/ubuntu/reagan-bench2/apps/frappe/frappe/utils/scheduler.py:
Site: reaganerp.com
Queued events for site reaganerp.com
[DEBUG] 2021-09-17 12:25:43,708 | /home/ubuntu/reagan-bench2/apps/frappe/frappe/utils/scheduler.py:
Site: reaganerp.com
Queued events for site reaganerp.com
[DEBUG] 2021-09-17 12:26:44,001 | /home/ubuntu/reagan-bench2/apps/frappe/frappe/utils/scheduler.py:
Site: reaganerp.com
Queued events for site reaganerp.com
[DEBUG] 2021-09-17 12:27:44,241 | /home/ubuntu/reagan-bench2/apps/frappe/frappe/utils/scheduler.py:
Site: reaganerp.com
Queued events for site reaganerp.com
[DEBUG] 2021-09-17 12:28:44,639 | /home/ubuntu/reagan-bench2/apps/frappe/frappe/utils/scheduler.py:
Site: reaganerp.com
Queued events for site reaganerp.com
[DEBUG] 2021-09-17 12:29:44,819 | /home/ubuntu/reagan-bench2/apps/frappe/frappe/utils/scheduler.py:
Site: reaganerp.com
Queued events for site reaganerp.com
[DEBUG] 2021-09-17 12:30:45,090 | /home/ubuntu/reagan-bench2/apps/frappe/frappe/utils/scheduler.py:
Site: reaganerp.com
Queued events for site reaganerp.com
[DEBUG] 2021-09-17 12:31:45,286 | /home/ubuntu/reagan-bench2/apps/frappe/frappe/utils/scheduler.py:
Site: reaganerp.com
Queued events for site reaganerp.com
[DEBUG] 2021-09-17 12:32:45,427 | /home/ubuntu/reagan-bench2/apps/frappe/frappe/utils/scheduler.py:
Site: reaganerp.com
Queued events for site reaganerp.com
[DEBUG] 2021-09-17 12:33:46,182 | /home/ubuntu/reagan-bench2/apps/frappe/frappe/utils/scheduler.py:
Site: reaganerp.com
Queued events for site reaganerp.com
[DEBUG] 2021-09-17 12:34:46,397 | /home/ubuntu/reagan-bench2/apps/frappe/frappe/utils/scheduler.py:
Site: reaganerp.com
Queued events for site reaganerp.com
[DEBUG] 2021-09-17 12:35:46,578 | /home/ubuntu/reagan-bench2/apps/frappe/frappe/utils/scheduler.py:
Site: reaganerp.com
Queued events for site reaganerp.com
[DEBUG] 2021-09-17 12:36:46,776 | /home/ubuntu/reagan-bench2/apps/frappe/frappe/utils/scheduler.py:
Site: reaganerp.com
Queued events for site reaganerp.com
[DEBUG] 2021-09-17 12:37:46,985 | /home/ubuntu/reagan-bench2/apps/frappe/frappe/utils/scheduler.py:
Site: reaganerp.com
Queued events for site reaganerp.com
[DEBUG] 2021-09-17 12:38:47,210 | /home/ubuntu/reagan-bench2/apps/frappe/frappe/utils/scheduler.py:
Site: reaganerp.com
Queued events for site reaganerp.com
[DEBUG] 2021-09-17 12:39:47,394 | /home/ubuntu/reagan-bench2/apps/frappe/frappe/utils/scheduler.py:
Site: reaganerp.com
Queued events for site reaganerp.com
[DEBUG] 2021-09-17 12:40:47,576 | /home/ubuntu/reagan-bench2/apps/frappe/frappe/utils/scheduler.py:
Site: reaganerp.com
Queued events for site reaganerp.com
[DEBUG] 2021-09-17 12:41:47,767 | /home/ubuntu/reagan-bench2/apps/frappe/frappe/utils/scheduler.py:
Site: reaganerp.com
Queued events for site reaganerp.com
[DEBUG] 2021-09-17 12:42:48,426 | /home/ubuntu/reagan-bench2/apps/frappe/frappe/utils/scheduler.py:
Site: reaganerp.com
Queued events for site reaganerp.com
[DEBUG] 2021-09-17 12:43:48,640 | /home/ubuntu/reagan-bench2/apps/frappe/frappe/utils/scheduler.py:
Site: reaganerp.com
Queued events for site reaganerp.com
[DEBUG] 2021-09-17 12:44:48,833 | /home/ubuntu/reagan-bench2/apps/frappe/frappe/utils/scheduler.py:
Site: reaganerp.com
Queued events for site reaganerp.com
[DEBUG] 2021-09-17 12:45:49,024 | /home/ubuntu/reagan-bench2/apps/frappe/frappe/utils/scheduler.py:
Site: reaganerp.com
Queued events for site reaganerp.com
[DEBUG] 2021-09-17 12:46:49,254 | /home/ubuntu/reagan-bench2/apps/frappe/frappe/utils/scheduler.py:
Site: reaganerp.com
Queued events for site reaganerp.com
[DEBUG] 2021-09-17 12:47:49,438 | /home/ubuntu/reagan-bench2/apps/frappe/frappe/utils/scheduler.py:
Site: reaganerp.com
Queued events for site reaganerp.com
[DEBUG] 2021-09-17 12:48:49,666 | /home/ubuntu/reagan-bench2/apps/frappe/frappe/utils/scheduler.py:
Site: reaganerp.com
Queued events for site reaganerp.com
[DEBUG] 2021-09-17 12:49:49,883 | /home/ubuntu/reagan-bench2/apps/frappe/frappe/utils/scheduler.py:
Site: reaganerp.com
Queued events for site reaganerp.com
[DEBUG] 2021-09-17 12:50:50,117 | /home/ubuntu/reagan-bench2/apps/frappe/frappe/utils/scheduler.py:
Site: reaganerp.com
Queued events for site reaganerp.com
[DEBUG] 2021-09-17 12:51:50,315 | /home/ubuntu/reagan-bench2/apps/frappe/frappe/utils/scheduler.py:
Site: reaganerp.com
Queued events for site reaganerp.com
[DEBUG] 2021-09-17 12:52:50,505 | /home/ubuntu/reagan-bench2/apps/frappe/frappe/utils/scheduler.py:
Site: reaganerp.com
Queued events for site reaganerp.com
[DEBUG] 2021-09-17 12:53:50,688 | /home/ubuntu/reagan-bench2/apps/frappe/frappe/utils/scheduler.py:
Site: reaganerp.com
Queued events for site reaganerp.com
[DEBUG] 2021-09-17 12:54:50,979 | /home/ubuntu/reagan-bench2/apps/frappe/frappe/utils/scheduler.py:
Site: reaganerp.com
Queued events for site reaganerp.com
[DEBUG] 2021-09-17 12:55:51,196 | /home/ubuntu/reagan-bench2/apps/frappe/frappe/utils/scheduler.py:
Site: reaganerp.com
Queued events for site reaganerp.com
[DEBUG] 2021-09-17 12:56:51,370 | /home/ubuntu/reagan-bench2/apps/frappe/frappe/utils/scheduler.py:
Site: reaganerp.com
Queued events for site reaganerp.com
[DEBUG] 2021-09-17 12:57:51,570 | /home/ubuntu/reagan-bench2/apps/frappe/frappe/utils/scheduler.py:
Site: reaganerp.com
Queued events for site reaganerp.com
[DEBUG] 2021-09-17 12:58:51,801 | /home/ubuntu/reagan-bench2/apps/frappe/frappe/utils/scheduler.py:
Site: reaganerp.com
Queued events for site reaganerp.com
[DEBUG] 2021-09-17 12:59:51,972 | /home/ubuntu/reagan-bench2/apps/frappe/frappe/utils/scheduler.py:
Site: reaganerp.com
Queued events for site reaganerp.com
[DEBUG] 2021-09-17 13:00:52,177 | /home/ubuntu/reagan-bench2/apps/frappe/frappe/utils/scheduler.py:
Site: reaganerp.com
Queued events for site reaganerp.com
[DEBUG] 2021-09-17 13:01:52,434 | /home/ubuntu/reagan-bench2/apps/frappe/frappe/utils/scheduler.py:
Site: reaganerp.com
Queued events for site reaganerp.com
[DEBUG] 2021-09-17 13:02:52,655 | /home/ubuntu/reagan-bench2/apps/frappe/frappe/utils/scheduler.py:
Site: reaganerp.com
Queued events for site reaganerp.com
[DEBUG] 2021-09-17 13:03:52,843 | /home/ubuntu/reagan-bench2/apps/frappe/frappe/utils/scheduler.py:
Site: reaganerp.com
Queued events for site reaganerp.com
[DEBUG] 2021-09-17 13:04:53,014 | /home/ubuntu/reagan-bench2/apps/frappe/frappe/utils/scheduler.py:
Site: reaganerp.com
Queued events for site reaganerp.com
[DEBUG] 2021-09-17 13:05:53,207 | /home/ubuntu/reagan-bench2/apps/frappe/frappe/utils/scheduler.py:
Site: reaganerp.com
Queued events for site reaganerp.com
[DEBUG] 2021-09-17 13:06:53,414 | /home/ubuntu/reagan-bench2/apps/frappe/frappe/utils/scheduler.py:
Site: reaganerp.com
Queued events for site reaganerp.com
[DEBUG] 2021-09-17 13:07:53,597 | /home/ubuntu/reagan-bench2/apps/frappe/frappe/utils/scheduler.py:
Site: reaganerp.com
Queued events for site reaganerp.com
[DEBUG] 2021-09-17 13:08:53,772 | /home/ubuntu/reagan-bench2/apps/frappe/frappe/utils/scheduler.py:
Site: reaganerp.com
Queued events for site reaganerp.com
[DEBUG] 2021-09-17 13:09:53,973 | /home/ubuntu/reagan-bench2/apps/frappe/frappe/utils/scheduler.py:
Site: reaganerp.com
Queued events for site reaganerp.com
[DEBUG] 2021-09-17 13:10:54,319 | /home/ubuntu/reagan-bench2/apps/frappe/frappe/utils/scheduler.py:
Site: reaganerp.com
Queued events for site reaganerp.com
[DEBUG] 2021-09-17 13:11:54,715 | /home/ubuntu/reagan-bench2/apps/frappe/frappe/utils/scheduler.py:
Site: reaganerp.com
Queued events for site reaganerp.com
[DEBUG] 2021-09-17 13:12:54,927 | /home/ubuntu/reagan-bench2/apps/frappe/frappe/utils/scheduler.py:
Site: reaganerp.com
Queued events for site reaganerp.com
[DEBUG] 2021-09-17 13:13:55,119 | /home/ubuntu/reagan-bench2/apps/frappe/frappe/utils/scheduler.py:
Site: reaganerp.com
Queued events for site reaganerp.com
[DEBUG] 2021-09-17 13:14:55,351 | /home/ubuntu/reagan-bench2/apps/frappe/frappe/utils/scheduler.py:
Site: reaganerp.com
Queued events for site reaganerp.com
[DEBUG] 2021-09-17 13:15:55,594 | /home/ubuntu/reagan-bench2/apps/frappe/frappe/utils/scheduler.py:
Site: reaganerp.com
Queued events for site reaganerp.com
[DEBUG] 2021-09-17 13:16:55,798 | /home/ubuntu/reagan-bench2/apps/frappe/frappe/utils/scheduler.py:
Site: reaganerp.com
Queued events for site reaganerp.com
[DEBUG] 2021-09-17 13:17:55,978 | /home/ubuntu/reagan-bench2/apps/frappe/frappe/utils/scheduler.py:
Site: reaganerp.com
Queued events for site reaganerp.com
[DEBUG] 2021-09-17 13:18:56,174 | /home/ubuntu/reagan-bench2/apps/frappe/frappe/utils/scheduler.py:
Site: reaganerp.com
Queued events for site reaganerp.com
[DEBUG] 2021-09-17 13:19:56,360 | /home/ubuntu/reagan-bench2/apps/frappe/frappe/utils/scheduler.py:
Site: reaganerp.com
Queued events for site reaganerp.com
[DEBUG] 2021-09-17 13:20:56,577 | /home/ubuntu/reagan-bench2/apps/frappe/frappe/utils/scheduler.py:
Site: reaganerp.com
Queued events for site reaganerp.com
[DEBUG] 2021-09-17 13:21:56,750 | /home/ubuntu/reagan-bench2/apps/frappe/frappe/utils/scheduler.py:
Site: reaganerp.com
Queued events for site reaganerp.com
[DEBUG] 2021-09-17 13:22:56,956 | /home/ubuntu/reagan-bench2/apps/frappe/frappe/utils/scheduler.py:
Site: reaganerp.com
Queued events for site reaganerp.com
[DEBUG] 2021-09-17 13:23:57,147 | /home/ubuntu/reagan-bench2/apps/frappe/frappe/utils/scheduler.py:
Site: reaganerp.com
Queued events for site reaganerp.com
[DEBUG] 2021-09-17 13:24:57,370 | /home/ubuntu/reagan-bench2/apps/frappe/frappe/utils/scheduler.py:
Site: reaganerp.com
Queued events for site reaganerp.com
[DEBUG] 2021-09-17 13:25:57,587 | /home/ubuntu/reagan-bench2/apps/frappe/frappe/utils/scheduler.py:
Site: reaganerp.com
Queued events for site reaganerp.com
[DEBUG] 2021-09-17 13:26:57,787 | /home/ubuntu/reagan-bench2/apps/frappe/frappe/utils/scheduler.py:
Site: reaganerp.com
Queued events for site reaganerp.com
[DEBUG] 2021-09-17 13:27:57,970 | /home/ubuntu/reagan-bench2/apps/frappe/frappe/utils/scheduler.py:
Site: reaganerp.com
Queued events for site reaganerp.com
[DEBUG] 2021-09-17 13:28:58,164 | /home/ubuntu/reagan-bench2/apps/frappe/frappe/utils/scheduler.py:
Site: reaganerp.com
Queued events for site reaganerp.com
[DEBUG] 2021-09-17 13:29:58,356 | /home/ubuntu/reagan-bench2/apps/frappe/frappe/utils/scheduler.py:
Site: reaganerp.com
Queued events for site reaganerp.com
[DEBUG] 2021-09-17 13:30:58,618 | /home/ubuntu/reagan-bench2/apps/frappe/frappe/utils/scheduler.py:
Site: reaganerp.com
Queued events for site reaganerp.com
[DEBUG] 2021-09-17 13:31:58,794 | /home/ubuntu/reagan-bench2/apps/frappe/frappe/utils/scheduler.py:
Site: reaganerp.com
Queued events for site reaganerp.com
[DEBUG] 2021-09-17 13:32:58,976 | /home/ubuntu/reagan-bench2/apps/frappe/frappe/utils/scheduler.py:
Site: reaganerp.com
Queued events for site reaganerp.com
[DEBUG] 2021-09-17 13:33:59,168 | /home/ubuntu/reagan-bench2/apps/frappe/frappe/utils/scheduler.py:
Site: reaganerp.com
Queued events for site reaganerp.com
[DEBUG] 2021-09-17 13:34:59,453 | /home/ubuntu/reagan-bench2/apps/frappe/frappe/utils/scheduler.py:
Site: reaganerp.com
Queued events for site reaganerp.com
[DEBUG] 2021-09-17 13:35:59,651 | /home/ubuntu/reagan-bench2/apps/frappe/frappe/utils/scheduler.py:
Site: reaganerp.com
Queued events for site reaganerp.com
[DEBUG] 2021-09-17 13:36:59,855 | /home/ubuntu/reagan-bench2/apps/frappe/frappe/utils/scheduler.py:
Site: reaganerp.com
Queued events for site reaganerp.com
[DEBUG] 2021-09-17 13:38:00,068 | /home/ubuntu/reagan-bench2/apps/frappe/frappe/utils/scheduler.py:
Site: reaganerp.com
Queued events for site reaganerp.com
[DEBUG] 2021-09-17 13:39:00,305 | /home/ubuntu/reagan-bench2/apps/frappe/frappe/utils/scheduler.py:
Site: reaganerp.com
Queued events for site reaganerp.com
[DEBUG] 2021-09-17 13:40:00,534 | /home/ubuntu/reagan-bench2/apps/frappe/frappe/utils/scheduler.py:
Site: reaganerp.com
Queued events for site reaganerp.com
[DEBUG] 2021-09-17 13:41:00,713 | /home/ubuntu/reagan-bench2/apps/frappe/frappe/utils/scheduler.py:
Site: reaganerp.com
Queued events for site reaganerp.com
[DEBUG] 2021-09-17 13:42:00,935 | /home/ubuntu/reagan-bench2/apps/frappe/frappe/utils/scheduler.py:
Site: reaganerp.com
Queued events for site reaganerp.com
[DEBUG] 2021-09-17 13:43:01,101 | /home/ubuntu/reagan-bench2/apps/frappe/frappe/utils/scheduler.py:
Site: reaganerp.com
Queued events for site reaganerp.com
[DEBUG] 2021-09-17 13:44:01,285 | /home/ubuntu/reagan-bench2/apps/frappe/frappe/utils/scheduler.py:
Site: reaganerp.com
Queued events for site reaganerp.com
[DEBUG] 2021-09-17 13:45:01,526 | /home/ubuntu/reagan-bench2/apps/frappe/frappe/utils/scheduler.py:
Site: reaganerp.com
Queued events for site reaganerp.com
[DEBUG] 2021-09-17 13:46:01,728 | /home/ubuntu/reagan-bench2/apps/frappe/frappe/utils/scheduler.py:
Site: reaganerp.com
Queued events for site reaganerp.com
[DEBUG] 2021-09-17 13:47:01,907 | /home/ubuntu/reagan-bench2/apps/frappe/frappe/utils/scheduler.py:
Site: reaganerp.com
Queued events for site reaganerp.com
[DEBUG] 2021-09-17 13:48:02,164 | /home/ubuntu/reagan-bench2/apps/frappe/frappe/utils/scheduler.py:
Site: reaganerp.com
Queued events for site reaganerp.com
[DEBUG] 2021-09-17 13:49:02,347 | /home/ubuntu/reagan-bench2/apps/frappe/frappe/utils/scheduler.py:
Site: reaganerp.com
Queued events for site reaganerp.com
[DEBUG] 2021-09-17 13:50:02,550 | /home/ubuntu/reagan-bench2/apps/frappe/frappe/utils/scheduler.py:
Site: reaganerp.com
Queued events for site reaganerp.com
[DEBUG] 2021-09-17 13:51:02,747 | /home/ubuntu/reagan-bench2/apps/frappe/frappe/utils/scheduler.py:
Site: reaganerp.com
Queued events for site reaganerp.com
[DEBUG] 2021-09-17 13:52:02,939 | /home/ubuntu/reagan-bench2/apps/frappe/frappe/utils/scheduler.py:
Site: reaganerp.com
Queued events for site reaganerp.com
[DEBUG] 2021-09-17 13:53:03,133 | /home/ubuntu/reagan-bench2/apps/frappe/frappe/utils/scheduler.py:
Site: reaganerp.com
Queued events for site reaganerp.com
[DEBUG] 2021-09-17 13:54:03,354 | /home/ubuntu/reagan-bench2/apps/frappe/frappe/utils/scheduler.py:
Site: reaganerp.com
Queued events for site reaganerp.com
[DEBUG] 2021-09-17 13:55:03,548 | /home/ubuntu/reagan-bench2/apps/frappe/frappe/utils/scheduler.py:
Site: reaganerp.com
Queued events for site reaganerp.com
[DEBUG] 2021-09-17 13:56:03,740 | /home/ubuntu/reagan-bench2/apps/frappe/frappe/utils/scheduler.py:
Site: reaganerp.com
Queued events for site reaganerp.com
[DEBUG] 2021-09-17 13:57:03,942 | /home/ubuntu/reagan-bench2/apps/frappe/frappe/utils/scheduler.py:
Site: reaganerp.com
Queued events for site reaganerp.com
[DEBUG] 2021-09-17 13:58:04,173 | /home/ubuntu/reagan-bench2/apps/frappe/frappe/utils/scheduler.py:
Site: reaganerp.com
Queued events for site reaganerp.com
[DEBUG] 2021-09-17 13:59:04,353 | /home/ubuntu/reagan-bench2/apps/frappe/frappe/utils/scheduler.py:
Site: reaganerp.com
Queued events for site reaganerp.com
[DEBUG] 2021-09-17 14:00:04,552 | /home/ubuntu/reagan-bench2/apps/frappe/frappe/utils/scheduler.py:
Site: reaganerp.com
Queued events for site reaganerp.com
[DEBUG] 2021-09-17 14:01:04,757 | /home/ubuntu/reagan-bench2/apps/frappe/frappe/utils/scheduler.py:
Site: reaganerp.com
Queued events for site reaganerp.com
[DEBUG] 2021-09-17 14:02:04,966 | /home/ubuntu/reagan-bench2/apps/frappe/frappe/utils/scheduler.py:
Site: reaganerp.com
Queued events for site reaganerp.com
[DEBUG] 2021-09-17 14:03:05,158 | /home/ubuntu/reagan-bench2/apps/frappe/frappe/utils/scheduler.py:
Site: reaganerp.com
Queued events for site reaganerp.com
[DEBUG] 2021-09-17 14:04:05,359 | /home/ubuntu/reagan-bench2/apps/frappe/frappe/utils/scheduler.py:
Site: reaganerp.com
Queued events for site reaganerp.com
[DEBUG] 2021-09-17 14:05:05,530 | /home/ubuntu/reagan-bench2/apps/frappe/frappe/utils/scheduler.py:
Site: reaganerp.com
Queued events for site reaganerp.com
[DEBUG] 2021-09-17 14:06:05,758 | /home/ubuntu/reagan-bench2/apps/frappe/frappe/utils/scheduler.py:
Site: reaganerp.com
Queued events for site reaganerp.com
[DEBUG] 2021-09-17 14:07:05,919 | /home/ubuntu/reagan-bench2/apps/frappe/frappe/utils/scheduler.py:
Site: reaganerp.com
Queued events for site reaganerp.com
[DEBUG] 2021-09-17 14:08:06,103 | /home/ubuntu/reagan-bench2/apps/frappe/frappe/utils/scheduler.py:
Site: reaganerp.com
Queued events for site reaganerp.com
[DEBUG] 2021-09-17 14:13:07,565 | /home/ubuntu/reagan-bench2/apps/frappe/frappe/utils/scheduler.py:
Site: reaganerp.com
Queued events for site reaganerp.com
[DEBUG] 2021-09-17 14:14:07,743 | /home/ubuntu/reagan-bench2/apps/frappe/frappe/utils/scheduler.py:
Site: reaganerp.com
Queued events for site reaganerp.com
[DEBUG] 2021-09-17 14:15:07,969 | /home/ubuntu/reagan-bench2/apps/frappe/frappe/utils/scheduler.py:
Site: reaganerp.com
Queued events for site reaganerp.com
[DEBUG] 2021-09-17 14:16:08,157 | /home/ubuntu/reagan-bench2/apps/frappe/frappe/utils/scheduler.py:
Site: reaganerp.com
Queued events for site reaganerp.com
[DEBUG] 2021-09-17 14:17:08,332 | /home/ubuntu/reagan-bench2/apps/frappe/frappe/utils/scheduler.py:
Site: reaganerp.com
Queued events for site reaganerp.com
[DEBUG] 2021-09-17 14:37:02,351 | /home/ubuntu/reagan-bench2/apps/frappe/frappe/utils/scheduler.py:
Site: reaganerp.com
Queued events for site reaganerp.com
[DEBUG] 2021-09-17 14:38:02,562 | /home/ubuntu/reagan-bench2/apps/frappe/frappe/utils/scheduler.py:
Site: reaganerp.com
Queued events for site reaganerp.com
[DEBUG] 2021-09-17 14:39:02,935 | /home/ubuntu/reagan-bench2/apps/frappe/frappe/utils/scheduler.py:
Site: reaganerp.com
Queued events for site reaganerp.com
[DEBUG] 2021-09-17 14:40:03,103 | /home/ubuntu/reagan-bench2/apps/frappe/frappe/utils/scheduler.py:
Site: reaganerp.com
Queued events for site reaganerp.com
[DEBUG] 2021-09-17 14:41:03,295 | /home/ubuntu/reagan-bench2/apps/frappe/frappe/utils/scheduler.py:
Site: reaganerp.com
Queued events for site reaganerp.com
[DEBUG] 2021-09-17 14:42:03,499 | /home/ubuntu/reagan-bench2/apps/frappe/frappe/utils/scheduler.py:
Site: reaganerp.com
Queued events for site reaganerp.com
[DEBUG] 2021-09-17 14:43:03,687 | /home/ubuntu/reagan-bench2/apps/frappe/frappe/utils/scheduler.py:
Site: reaganerp.com
Queued events for site reaganerp.com
[DEBUG] 2021-09-17 14:44:03,912 | /home/ubuntu/reagan-bench2/apps/frappe/frappe/utils/scheduler.py:
Site: reaganerp.com
Queued events for site reaganerp.com
[DEBUG] 2021-09-17 14:45:04,263 | /home/ubuntu/reagan-bench2/apps/frappe/frappe/utils/scheduler.py:
Site: reaganerp.com
Queued events for site reaganerp.com
[DEBUG] 2021-09-17 14:46:04,427 | /home/ubuntu/reagan-bench2/apps/frappe/frappe/utils/scheduler.py:
Site: reaganerp.com
Queued events for site reaganerp.com
[DEBUG] 2021-09-17 14:47:04,607 | /home/ubuntu/reagan-bench2/apps/frappe/frappe/utils/scheduler.py:
Site: reaganerp.com
Queued events for site reaganerp.com
[DEBUG] 2021-09-17 14:48:05,253 | /home/ubuntu/reagan-bench2/apps/frappe/frappe/utils/scheduler.py:
Site: reaganerp.com
Queued events for site reaganerp.com
[DEBUG] 2021-09-17 14:49:05,451 | /home/ubuntu/reagan-bench2/apps/frappe/frappe/utils/scheduler.py:
Site: reaganerp.com
Queued events for site reaganerp.com
[DEBUG] 2021-09-17 14:50:05,766 | /home/ubuntu/reagan-bench2/apps/frappe/frappe/utils/scheduler.py:
Site: reaganerp.com
Queued events for site reaganerp.com
[DEBUG] 2021-09-17 14:51:05,980 | /home/ubuntu/reagan-bench2/apps/frappe/frappe/utils/scheduler.py:
Site: reaganerp.com
Queued events for site reaganerp.com
[DEBUG] 2021-09-17 14:52:06,203 | /home/ubuntu/reagan-bench2/apps/frappe/frappe/utils/scheduler.py:
Site: reaganerp.com
Queued events for site reaganerp.com
[DEBUG] 2021-09-17 14:53:06,406 | /home/ubuntu/reagan-bench2/apps/frappe/frappe/utils/scheduler.py:
Site: reaganerp.com
Queued events for site reaganerp.com
[DEBUG] 2021-09-17 14:54:06,615 | /home/ubuntu/reagan-bench2/apps/frappe/frappe/utils/scheduler.py:
Site: reaganerp.com
Queued events for site reaganerp.com
[DEBUG] 2021-09-17 14:55:06,852 | /home/ubuntu/reagan-bench2/apps/frappe/frappe/utils/scheduler.py:
Site: reaganerp.com
Queued events for site reaganerp.com
[DEBUG] 2021-09-17 14:56:07,037 | /home/ubuntu/reagan-bench2/apps/frappe/frappe/utils/scheduler.py:
Site: reaganerp.com
Queued events for site reaganerp.com
[DEBUG] 2021-09-17 14:57:07,253 | /home/ubuntu/reagan-bench2/apps/frappe/frappe/utils/scheduler.py:
Site: reaganerp.com
Queued events for site reaganerp.com
[DEBUG] 2021-09-17 14:58:07,490 | /home/ubuntu/reagan-bench2/apps/frappe/frappe/utils/scheduler.py:
Site: reaganerp.com
Queued events for site reaganerp.com
[DEBUG] 2021-09-17 14:59:07,698 | /home/ubuntu/reagan-bench2/apps/frappe/frappe/utils/scheduler.py:
Site: reaganerp.com
Queued events for site reaganerp.com
[DEBUG] 2021-09-17 15:00:07,885 | /home/ubuntu/reagan-bench2/apps/frappe/frappe/utils/scheduler.py:
Site: reaganerp.com
Queued events for site reaganerp.com
[DEBUG] 2021-09-17 15:01:08,084 | /home/ubuntu/reagan-bench2/apps/frappe/frappe/utils/scheduler.py:
Site: reaganerp.com
Queued events for site reaganerp.com
[DEBUG] 2021-09-17 15:02:08,306 | /home/ubuntu/reagan-bench2/apps/frappe/frappe/utils/scheduler.py:
Site: reaganerp.com
Queued events for site reaganerp.com
[DEBUG] 2021-09-17 15:03:08,510 | /home/ubuntu/reagan-bench2/apps/frappe/frappe/utils/scheduler.py:
Site: reaganerp.com
Queued events for site reaganerp.com
[DEBUG] 2021-09-17 15:04:08,780 | /home/ubuntu/reagan-bench2/apps/frappe/frappe/utils/scheduler.py:
Site: reaganerp.com
Queued events for site reaganerp.com
[DEBUG] 2021-09-17 15:05:08,965 | /home/ubuntu/reagan-bench2/apps/frappe/frappe/utils/scheduler.py:
Site: reaganerp.com
Queued events for site reaganerp.com
[DEBUG] 2021-09-17 15:06:09,201 | /home/ubuntu/reagan-bench2/apps/frappe/frappe/utils/scheduler.py:
Site: reaganerp.com
Queued events for site reaganerp.com
[DEBUG] 2021-09-17 15:07:09,358 | /home/ubuntu/reagan-bench2/apps/frappe/frappe/utils/scheduler.py:
Site: reaganerp.com
Queued events for site reaganerp.com
[DEBUG] 2021-09-17 15:08:09,541 | /home/ubuntu/reagan-bench2/apps/frappe/frappe/utils/scheduler.py:
Site: reaganerp.com
Queued events for site reaganerp.com
[DEBUG] 2021-09-17 15:09:09,732 | /home/ubuntu/reagan-bench2/apps/frappe/frappe/utils/scheduler.py:
Site: reaganerp.com
Queued events for site reaganerp.com
[DEBUG] 2021-09-17 15:10:09,966 | /home/ubuntu/reagan-bench2/apps/frappe/frappe/utils/scheduler.py:
Site: reaganerp.com
Queued events for site reaganerp.com
[DEBUG] 2021-09-17 15:11:10,165 | /home/ubuntu/reagan-bench2/apps/frappe/frappe/utils/scheduler.py:
Site: reaganerp.com
Queued events for site reaganerp.com
[DEBUG] 2021-09-17 15:12:10,367 | /home/ubuntu/reagan-bench2/apps/frappe/frappe/utils/scheduler.py:
Site: reaganerp.com
Queued events for site reaganerp.com
[DEBUG] 2021-09-17 15:13:10,568 | /home/ubuntu/reagan-bench2/apps/frappe/frappe/utils/scheduler.py:
Site: reaganerp.com
Queued events for site reaganerp.com
[DEBUG] 2021-09-17 15:14:10,783 | /home/ubuntu/reagan-bench2/apps/frappe/frappe/utils/scheduler.py:
Site: reaganerp.com
Queued events for site reaganerp.com
[DEBUG] 2021-09-17 15:15:10,995 | /home/ubuntu/reagan-bench2/apps/frappe/frappe/utils/scheduler.py:
Site: reaganerp.com
Queued events for site reaganerp.com
[DEBUG] 2021-09-17 15:16:11,192 | /home/ubuntu/reagan-bench2/apps/frappe/frappe/utils/scheduler.py:
Site: reaganerp.com
Queued events for site reaganerp.com
[DEBUG] 2021-09-17 15:17:11,377 | /home/ubuntu/reagan-bench2/apps/frappe/frappe/utils/scheduler.py:
Site: reaganerp.com
Queued events for site reaganerp.com
[DEBUG] 2021-09-17 15:18:11,601 | /home/ubuntu/reagan-bench2/apps/frappe/frappe/utils/scheduler.py:
Site: reaganerp.com
Queued events for site reaganerp.com
[DEBUG] 2021-09-17 15:19:11,864 | /home/ubuntu/reagan-bench2/apps/frappe/frappe/utils/scheduler.py:
Site: reaganerp.com
Queued events for site reaganerp.com
[DEBUG] 2021-09-17 15:20:12,044 | /home/ubuntu/reagan-bench2/apps/frappe/frappe/utils/scheduler.py:
Site: reaganerp.com
Queued events for site reaganerp.com
[DEBUG] 2021-09-17 15:21:12,251 | /home/ubuntu/reagan-bench2/apps/frappe/frappe/utils/scheduler.py:
Site: reaganerp.com
Queued events for site reaganerp.com
[DEBUG] 2021-09-17 15:22:12,474 | /home/ubuntu/reagan-bench2/apps/frappe/frappe/utils/scheduler.py:
Site: reaganerp.com
Queued events for site reaganerp.com
[DEBUG] 2021-09-17 15:23:12,653 | /home/ubuntu/reagan-bench2/apps/frappe/frappe/utils/scheduler.py:
Site: reaganerp.com
Queued events for site reaganerp.com
[DEBUG] 2021-09-17 15:24:12,824 | /home/ubuntu/reagan-bench2/apps/frappe/frappe/utils/scheduler.py:
Site: reaganerp.com
Queued events for site reaganerp.com
[DEBUG] 2021-09-17 15:25:12,988 | /home/ubuntu/reagan-bench2/apps/frappe/frappe/utils/scheduler.py:
Site: reaganerp.com
Queued events for site reaganerp.com
[DEBUG] 2021-09-17 15:26:13,242 | /home/ubuntu/reagan-bench2/apps/frappe/frappe/utils/scheduler.py:
Site: reaganerp.com
Queued events for site reaganerp.com
[DEBUG] 2021-09-17 15:27:13,461 | /home/ubuntu/reagan-bench2/apps/frappe/frappe/utils/scheduler.py:
Site: reaganerp.com
Queued events for site reaganerp.com
[DEBUG] 2021-09-17 15:28:13,644 | /home/ubuntu/reagan-bench2/apps/frappe/frappe/utils/scheduler.py:
Site: reaganerp.com
Queued events for site reaganerp.com
[DEBUG] 2021-09-17 15:29:13,843 | /home/ubuntu/reagan-bench2/apps/frappe/frappe/utils/scheduler.py:
Site: reaganerp.com
Queued events for site reaganerp.com
[DEBUG] 2021-09-17 15:30:14,079 | /home/ubuntu/reagan-bench2/apps/frappe/frappe/utils/scheduler.py:
Site: reaganerp.com
Queued events for site reaganerp.com
[DEBUG] 2021-09-17 15:31:14,272 | /home/ubuntu/reagan-bench2/apps/frappe/frappe/utils/scheduler.py:
Site: reaganerp.com
Queued events for site reaganerp.com
[DEBUG] 2021-09-17 15:32:14,446 | /home/ubuntu/reagan-bench2/apps/frappe/frappe/utils/scheduler.py:
Site: reaganerp.com
Queued events for site reaganerp.com
[DEBUG] 2021-09-17 15:33:14,627 | /home/ubuntu/reagan-bench2/apps/frappe/frappe/utils/scheduler.py:
Site: reaganerp.com
Queued events for site reaganerp.com
[DEBUG] 2021-09-17 15:34:14,872 | /home/ubuntu/reagan-bench2/apps/frappe/frappe/utils/scheduler.py:
Site: reaganerp.com
Queued events for site reaganerp.com
[DEBUG] 2021-09-17 15:35:15,110 | /home/ubuntu/reagan-bench2/apps/frappe/frappe/utils/scheduler.py:
Site: reaganerp.com
Queued events for site reaganerp.com
[DEBUG] 2021-09-17 15:36:15,291 | /home/ubuntu/reagan-bench2/apps/frappe/frappe/utils/scheduler.py:
Site: reaganerp.com
Queued events for site reaganerp.com
[DEBUG] 2021-09-17 15:37:15,470 | /home/ubuntu/reagan-bench2/apps/frappe/frappe/utils/scheduler.py:
Site: reaganerp.com
Queued events for site reaganerp.com
[DEBUG] 2021-09-17 15:38:15,735 | /home/ubuntu/reagan-bench2/apps/frappe/frappe/utils/scheduler.py:
Site: reaganerp.com
Queued events for site reaganerp.com
[DEBUG] 2021-09-17 15:39:15,930 | /home/ubuntu/reagan-bench2/apps/frappe/frappe/utils/scheduler.py:
Site: reaganerp.com
Queued events for site reaganerp.com
[DEBUG] 2021-09-17 15:40:16,113 | /home/ubuntu/reagan-bench2/apps/frappe/frappe/utils/scheduler.py:
Site: reaganerp.com
Queued events for site reaganerp.com
[DEBUG] 2021-09-17 15:41:16,293 | /home/ubuntu/reagan-bench2/apps/frappe/frappe/utils/scheduler.py:
Site: reaganerp.com
Queued events for site reaganerp.com
[DEBUG] 2021-09-17 15:42:16,551 | /home/ubuntu/reagan-bench2/apps/frappe/frappe/utils/scheduler.py:
Site: reaganerp.com
Queued events for site reaganerp.com
[DEBUG] 2021-09-17 15:43:16,737 | /home/ubuntu/reagan-bench2/apps/frappe/frappe/utils/scheduler.py:
Site: reaganerp.com
Queued events for site reaganerp.com
[DEBUG] 2021-09-17 15:44:16,979 | /home/ubuntu/reagan-bench2/apps/frappe/frappe/utils/scheduler.py:
Site: reaganerp.com
Queued events for site reaganerp.com
[DEBUG] 2021-09-17 15:45:17,164 | /home/ubuntu/reagan-bench2/apps/frappe/frappe/utils/scheduler.py:
Site: reaganerp.com
Queued events for site reaganerp.com
[DEBUG] 2021-09-17 15:46:17,382 | /home/ubuntu/reagan-bench2/apps/frappe/frappe/utils/scheduler.py:
Site: reaganerp.com
Queued events for site reaganerp.com
[DEBUG] 2021-09-17 15:47:17,587 | /home/ubuntu/reagan-bench2/apps/frappe/frappe/utils/scheduler.py:
Site: reaganerp.com
Queued events for site reaganerp.com
[DEBUG] 2021-09-17 15:48:17,847 | /home/ubuntu/reagan-bench2/apps/frappe/frappe/utils/scheduler.py:
Site: reaganerp.com
Queued events for site reaganerp.com
[DEBUG] 2021-09-17 15:49:18,048 | /home/ubuntu/reagan-bench2/apps/frappe/frappe/utils/scheduler.py:
Site: reaganerp.com
Queued events for site reaganerp.com
[DEBUG] 2021-09-17 15:50:18,267 | /home/ubuntu/reagan-bench2/apps/frappe/frappe/utils/scheduler.py:
Site: reaganerp.com
Queued events for site reaganerp.com
[DEBUG] 2021-09-17 15:51:18,455 | /home/ubuntu/reagan-bench2/apps/frappe/frappe/utils/scheduler.py:
Site: reaganerp.com
Queued events for site reaganerp.com
[DEBUG] 2021-09-17 15:52:18,633 | /home/ubuntu/reagan-bench2/apps/frappe/frappe/utils/scheduler.py:
Site: reaganerp.com
Queued events for site reaganerp.com
[DEBUG] 2021-09-17 15:53:18,815 | /home/ubuntu/reagan-bench2/apps/frappe/frappe/utils/scheduler.py:
Site: reaganerp.com
Queued events for site reaganerp.com
[DEBUG] 2021-09-17 15:54:19,083 | /home/ubuntu/reagan-bench2/apps/frappe/frappe/utils/scheduler.py:
Site: reaganerp.com
Queued events for site reaganerp.com
[DEBUG] 2021-09-17 15:55:19,286 | /home/ubuntu/reagan-bench2/apps/frappe/frappe/utils/scheduler.py:
Site: reaganerp.com
Queued events for site reaganerp.com
[DEBUG] 2021-09-17 15:56:19,511 | /home/ubuntu/reagan-bench2/apps/frappe/frappe/utils/scheduler.py:
Site: reaganerp.com
Queued events for site reaganerp.com
[DEBUG] 2021-09-17 15:57:19,698 | /home/ubuntu/reagan-bench2/apps/frappe/frappe/utils/scheduler.py:
Site: reaganerp.com
Queued events for site reaganerp.com
[DEBUG] 2021-09-17 15:58:19,925 | /home/ubuntu/reagan-bench2/apps/frappe/frappe/utils/scheduler.py:
Site: reaganerp.com
Queued events for site reaganerp.com
[DEBUG] 2021-09-17 15:59:20,115 | /home/ubuntu/reagan-bench2/apps/frappe/frappe/utils/scheduler.py:
Site: reaganerp.com
Queued events for site reaganerp.com
[DEBUG] 2021-09-17 16:00:20,320 | /home/ubuntu/reagan-bench2/apps/frappe/frappe/utils/scheduler.py:
Site: reaganerp.com
Queued events for site reaganerp.com
[DEBUG] 2021-09-17 16:01:20,510 | /home/ubuntu/reagan-bench2/apps/frappe/frappe/utils/scheduler.py:
Site: reaganerp.com
Queued events for site reaganerp.com
[DEBUG] 2021-09-17 16:02:20,732 | /home/ubuntu/reagan-bench2/apps/frappe/frappe/utils/scheduler.py:
Site: reaganerp.com
Queued events for site reaganerp.com
[DEBUG] 2021-09-17 16:03:20,922 | /home/ubuntu/reagan-bench2/apps/frappe/frappe/utils/scheduler.py:
Site: reaganerp.com
Queued events for site reaganerp.com
[DEBUG] 2021-09-17 16:04:21,118 | /home/ubuntu/reagan-bench2/apps/frappe/frappe/utils/scheduler.py:
Site: reaganerp.com
Queued events for site reaganerp.com
[DEBUG] 2021-09-17 16:05:21,295 | /home/ubuntu/reagan-bench2/apps/frappe/frappe/utils/scheduler.py:
Site: reaganerp.com
Queued events for site reaganerp.com
[DEBUG] 2021-09-17 16:06:21,499 | /home/ubuntu/reagan-bench2/apps/frappe/frappe/utils/scheduler.py:
Site: reaganerp.com
Queued events for site reaganerp.com
[DEBUG] 2021-09-17 16:07:21,694 | /home/ubuntu/reagan-bench2/apps/frappe/frappe/utils/scheduler.py:
Site: reaganerp.com
Queued events for site reaganerp.com
[DEBUG] 2021-09-17 16:08:21,874 | /home/ubuntu/reagan-bench2/apps/frappe/frappe/utils/scheduler.py:
Site: reaganerp.com
Queued events for site reaganerp.com
[DEBUG] 2021-09-17 16:09:22,082 | /home/ubuntu/reagan-bench2/apps/frappe/frappe/utils/scheduler.py:
Site: reaganerp.com
Queued events for site reaganerp.com
[DEBUG] 2021-09-17 16:10:22,324 | /home/ubuntu/reagan-bench2/apps/frappe/frappe/utils/scheduler.py:
Site: reaganerp.com
Queued events for site reaganerp.com
[DEBUG] 2021-09-17 16:11:22,516 | /home/ubuntu/reagan-bench2/apps/frappe/frappe/utils/scheduler.py:
Site: reaganerp.com
Queued events for site reaganerp.com
[DEBUG] 2021-09-17 16:12:22,679 | /home/ubuntu/reagan-bench2/apps/frappe/frappe/utils/scheduler.py:
Site: reaganerp.com
Queued events for site reaganerp.com
[DEBUG] 2021-09-17 16:13:22,876 | /home/ubuntu/reagan-bench2/apps/frappe/frappe/utils/scheduler.py:
Site: reaganerp.com
Queued events for site reaganerp.com
[DEBUG] 2021-09-17 16:14:23,123 | /home/ubuntu/reagan-bench2/apps/frappe/frappe/utils/scheduler.py:
Site: reaganerp.com
Queued events for site reaganerp.com
[DEBUG] 2021-09-17 16:15:23,316 | /home/ubuntu/reagan-bench2/apps/frappe/frappe/utils/scheduler.py:
Site: reaganerp.com
Queued events for site reaganerp.com
[DEBUG] 2021-09-17 16:16:23,492 | /home/ubuntu/reagan-bench2/apps/frappe/frappe/utils/scheduler.py:
Site: reaganerp.com
Queued events for site reaganerp.com
[DEBUG] 2021-09-17 16:17:23,701 | /home/ubuntu/reagan-bench2/apps/frappe/frappe/utils/scheduler.py:
Site: reaganerp.com
Queued events for site reaganerp.com
[DEBUG] 2021-09-17 16:18:23,927 | /home/ubuntu/reagan-bench2/apps/frappe/frappe/utils/scheduler.py:
Site: reaganerp.com
Queued events for site reaganerp.com
[DEBUG] 2021-09-17 16:19:24,117 | /home/ubuntu/reagan-bench2/apps/frappe/frappe/utils/scheduler.py:
Site: reaganerp.com
Queued events for site reaganerp.com
[DEBUG] 2021-09-17 16:20:24,310 | /home/ubuntu/reagan-bench2/apps/frappe/frappe/utils/scheduler.py:
Site: reaganerp.com
Queued events for site reaganerp.com
[DEBUG] 2021-09-17 16:21:24,485 | /home/ubuntu/reagan-bench2/apps/frappe/frappe/utils/scheduler.py:
Site: reaganerp.com
Queued events for site reaganerp.com
[DEBUG] 2021-09-17 16:22:24,734 | /home/ubuntu/reagan-bench2/apps/frappe/frappe/utils/scheduler.py:
Site: reaganerp.com
Queued events for site reaganerp.com
[DEBUG] 2021-09-17 16:23:24,897 | /home/ubuntu/reagan-bench2/apps/frappe/frappe/utils/scheduler.py:
Site: reaganerp.com
Queued events for site reaganerp.com
[DEBUG] 2021-09-17 16:24:25,069 | /home/ubuntu/reagan-bench2/apps/frappe/frappe/utils/scheduler.py:
Site: reaganerp.com
Queued events for site reaganerp.com
[DEBUG] 2021-09-17 16:25:25,266 | /home/ubuntu/reagan-bench2/apps/frappe/frappe/utils/scheduler.py:
Site: reaganerp.com
Queued events for site reaganerp.com
[DEBUG] 2021-09-17 16:26:25,500 | /home/ubuntu/reagan-bench2/apps/frappe/frappe/utils/scheduler.py:
Site: reaganerp.com
Queued events for site reaganerp.com
[DEBUG] 2021-09-17 16:27:25,678 | /home/ubuntu/reagan-bench2/apps/frappe/frappe/utils/scheduler.py:
Site: reaganerp.com
Queued events for site reaganerp.com
[DEBUG] 2021-09-17 16:28:25,859 | /home/ubuntu/reagan-bench2/apps/frappe/frappe/utils/scheduler.py:
Site: reaganerp.com
Queued events for site reaganerp.com
[DEBUG] 2021-09-17 16:29:26,086 | /home/ubuntu/reagan-bench2/apps/frappe/frappe/utils/scheduler.py:
Site: reaganerp.com
Queued events for site reaganerp.com
[DEBUG] 2021-09-17 16:30:26,338 | /home/ubuntu/reagan-bench2/apps/frappe/frappe/utils/scheduler.py:
Site: reaganerp.com
Queued events for site reaganerp.com
[DEBUG] 2021-09-17 16:31:26,552 | /home/ubuntu/reagan-bench2/apps/frappe/frappe/utils/scheduler.py:
Site: reaganerp.com
Queued events for site reaganerp.com
[DEBUG] 2021-09-17 16:32:26,766 | /home/ubuntu/reagan-bench2/apps/frappe/frappe/utils/scheduler.py:
Site: reaganerp.com
Queued events for site reaganerp.com
[DEBUG] 2021-09-17 16:33:26,985 | /home/ubuntu/reagan-bench2/apps/frappe/frappe/utils/scheduler.py:
Site: reaganerp.com
Queued events for site reaganerp.com
[DEBUG] 2021-09-17 16:34:27,245 | /home/ubuntu/reagan-bench2/apps/frappe/frappe/utils/scheduler.py:
Site: reaganerp.com
Queued events for site reaganerp.com
[DEBUG] 2021-09-17 16:35:27,449 | /home/ubuntu/reagan-bench2/apps/frappe/frappe/utils/scheduler.py:
Site: reaganerp.com
Queued events for site reaganerp.com
[DEBUG] 2021-09-17 16:36:27,609 | /home/ubuntu/reagan-bench2/apps/frappe/frappe/utils/scheduler.py:
Site: reaganerp.com
Queued events for site reaganerp.com
[DEBUG] 2021-09-17 16:37:27,793 | /home/ubuntu/reagan-bench2/apps/frappe/frappe/utils/scheduler.py:
Site: reaganerp.com
Queued events for site reaganerp.com
[DEBUG] 2021-09-17 16:38:28,016 | /home/ubuntu/reagan-bench2/apps/frappe/frappe/utils/scheduler.py:
Site: reaganerp.com
Queued events for site reaganerp.com
[DEBUG] 2021-09-17 16:39:28,184 | /home/ubuntu/reagan-bench2/apps/frappe/frappe/utils/scheduler.py:
Site: reaganerp.com
Queued events for site reaganerp.com
[DEBUG] 2021-09-17 16:40:28,389 | /home/ubuntu/reagan-bench2/apps/frappe/frappe/utils/scheduler.py:
Site: reaganerp.com
Queued events for site reaganerp.com
[DEBUG] 2021-09-17 16:41:28,663 | /home/ubuntu/reagan-bench2/apps/frappe/frappe/utils/scheduler.py:
Site: reaganerp.com
Queued events for site reaganerp.com
[DEBUG] 2021-09-17 16:42:28,941 | /home/ubuntu/reagan-bench2/apps/frappe/frappe/utils/scheduler.py:
Site: reaganerp.com
Queued events for site reaganerp.com
[DEBUG] 2021-09-17 16:43:29,159 | /home/ubuntu/reagan-bench2/apps/frappe/frappe/utils/scheduler.py:
Site: reaganerp.com
Queued events for site reaganerp.com
[DEBUG] 2021-09-17 16:44:29,442 | /home/ubuntu/reagan-bench2/apps/frappe/frappe/utils/scheduler.py:
Site: reaganerp.com
Queued events for site reaganerp.com
[DEBUG] 2021-09-17 16:45:29,615 | /home/ubuntu/reagan-bench2/apps/frappe/frappe/utils/scheduler.py:
Site: reaganerp.com
Queued events for site reaganerp.com
[DEBUG] 2021-09-17 16:46:29,816 | /home/ubuntu/reagan-bench2/apps/frappe/frappe/utils/scheduler.py:
Site: reaganerp.com
Queued events for site reaganerp.com
[DEBUG] 2021-09-17 16:47:30,092 | /home/ubuntu/reagan-bench2/apps/frappe/frappe/utils/scheduler.py:
Site: reaganerp.com
Queued events for site reaganerp.com
[DEBUG] 2021-09-17 16:48:30,262 | /home/ubuntu/reagan-bench2/apps/frappe/frappe/utils/scheduler.py:
Site: reaganerp.com
Queued events for site reaganerp.com
[DEBUG] 2021-09-17 16:49:30,450 | /home/ubuntu/reagan-bench2/apps/frappe/frappe/utils/scheduler.py:
Site: reaganerp.com
Queued events for site reaganerp.com
[DEBUG] 2021-09-17 16:50:30,671 | /home/ubuntu/reagan-bench2/apps/frappe/frappe/utils/scheduler.py:
Site: reaganerp.com
Queued events for site reaganerp.com
[DEBUG] 2021-09-17 16:51:30,873 | /home/ubuntu/reagan-bench2/apps/frappe/frappe/utils/scheduler.py:
Site: reaganerp.com
Queued events for site reaganerp.com
[DEBUG] 2021-09-17 16:52:31,096 | /home/ubuntu/reagan-bench2/apps/frappe/frappe/utils/scheduler.py:
Site: reaganerp.com
Queued events for site reaganerp.com
[DEBUG] 2021-09-17 16:53:31,264 | /home/ubuntu/reagan-bench2/apps/frappe/frappe/utils/scheduler.py:
Site: reaganerp.com
Queued events for site reaganerp.com
[DEBUG] 2021-09-17 16:54:31,488 | /home/ubuntu/reagan-bench2/apps/frappe/frappe/utils/scheduler.py:
Site: reaganerp.com
Queued events for site reaganerp.com
[DEBUG] 2021-09-17 16:55:31,697 | /home/ubuntu/reagan-bench2/apps/frappe/frappe/utils/scheduler.py:
Site: reaganerp.com
Queued events for site reaganerp.com
[DEBUG] 2021-09-17 16:56:31,884 | /home/ubuntu/reagan-bench2/apps/frappe/frappe/utils/scheduler.py:
Site: reaganerp.com
Queued events for site reaganerp.com
[DEBUG] 2021-09-17 16:57:32,078 | /home/ubuntu/reagan-bench2/apps/frappe/frappe/utils/scheduler.py:
Site: reaganerp.com
Queued events for site reaganerp.com
[DEBUG] 2021-09-17 16:58:32,309 | /home/ubuntu/reagan-bench2/apps/frappe/frappe/utils/scheduler.py:
Site: reaganerp.com
Queued events for site reaganerp.com
[DEBUG] 2021-09-17 16:59:32,561 | /home/ubuntu/reagan-bench2/apps/frappe/frappe/utils/scheduler.py:
Site: reaganerp.com
Queued events for site reaganerp.com
[DEBUG] 2021-09-17 17:00:32,749 | /home/ubuntu/reagan-bench2/apps/frappe/frappe/utils/scheduler.py:
Site: reaganerp.com
Queued events for site reaganerp.com
[DEBUG] 2021-09-17 17:01:32,944 | /home/ubuntu/reagan-bench2/apps/frappe/frappe/utils/scheduler.py:
Site: reaganerp.com
Queued events for site reaganerp.com
[DEBUG] 2021-09-17 17:02:33,146 | /home/ubuntu/reagan-bench2/apps/frappe/frappe/utils/scheduler.py:
Site: reaganerp.com
Queued events for site reaganerp.com
[DEBUG] 2021-09-17 17:03:33,351 | /home/ubuntu/reagan-bench2/apps/frappe/frappe/utils/scheduler.py:
Site: reaganerp.com
Queued events for site reaganerp.com
[DEBUG] 2021-09-17 17:04:33,562 | /home/ubuntu/reagan-bench2/apps/frappe/frappe/utils/scheduler.py:
Site: reaganerp.com
Queued events for site reaganerp.com
[DEBUG] 2021-09-17 17:05:33,769 | /home/ubuntu/reagan-bench2/apps/frappe/frappe/utils/scheduler.py:
Site: reaganerp.com
Queued events for site reaganerp.com
[DEBUG] 2021-09-17 17:06:34,008 | /home/ubuntu/reagan-bench2/apps/frappe/frappe/utils/scheduler.py:
Site: reaganerp.com
Queued events for site reaganerp.com
[DEBUG] 2021-09-17 17:07:34,268 | /home/ubuntu/reagan-bench2/apps/frappe/frappe/utils/scheduler.py:
Site: reaganerp.com
Queued events for site reaganerp.com
[DEBUG] 2021-09-17 17:08:34,513 | /home/ubuntu/reagan-bench2/apps/frappe/frappe/utils/scheduler.py:
Site: reaganerp.com
Queued events for site reaganerp.com
[DEBUG] 2021-09-17 17:09:34,717 | /home/ubuntu/reagan-bench2/apps/frappe/frappe/utils/scheduler.py:
Site: reaganerp.com
Queued events for site reaganerp.com
[DEBUG] 2021-09-17 17:10:34,946 | /home/ubuntu/reagan-bench2/apps/frappe/frappe/utils/scheduler.py:
Site: reaganerp.com
Queued events for site reaganerp.com
[DEBUG] 2021-09-17 17:11:35,129 | /home/ubuntu/reagan-bench2/apps/frappe/frappe/utils/scheduler.py:
Site: reaganerp.com
Queued events for site reaganerp.com
[DEBUG] 2021-09-17 17:12:35,294 | /home/ubuntu/reagan-bench2/apps/frappe/frappe/utils/scheduler.py:
Site: reaganerp.com
Queued events for site reaganerp.com
[DEBUG] 2021-09-17 17:13:35,481 | /home/ubuntu/reagan-bench2/apps/frappe/frappe/utils/scheduler.py:
Site: reaganerp.com
Queued events for site reaganerp.com
[DEBUG] 2021-09-17 17:14:35,678 | /home/ubuntu/reagan-bench2/apps/frappe/frappe/utils/scheduler.py:
Site: reaganerp.com
Queued events for site reaganerp.com
[DEBUG] 2021-09-17 17:15:35,859 | /home/ubuntu/reagan-bench2/apps/frappe/frappe/utils/scheduler.py:
Site: reaganerp.com
Queued events for site reaganerp.com
[DEBUG] 2021-09-17 17:16:36,064 | /home/ubuntu/reagan-bench2/apps/frappe/frappe/utils/scheduler.py:
Site: reaganerp.com
Queued events for site reaganerp.com
[DEBUG] 2021-09-17 17:17:36,254 | /home/ubuntu/reagan-bench2/apps/frappe/frappe/utils/scheduler.py:
Site: reaganerp.com
Queued events for site reaganerp.com
[DEBUG] 2021-09-17 17:18:36,470 | /home/ubuntu/reagan-bench2/apps/frappe/frappe/utils/scheduler.py:
Site: reaganerp.com
Queued events for site reaganerp.com
[DEBUG] 2021-09-17 17:19:36,662 | /home/ubuntu/reagan-bench2/apps/frappe/frappe/utils/scheduler.py:
Site: reaganerp.com
Queued events for site reaganerp.com
[DEBUG] 2021-09-17 17:20:36,874 | /home/ubuntu/reagan-bench2/apps/frappe/frappe/utils/scheduler.py:
Site: reaganerp.com
Queued events for site reaganerp.com
[DEBUG] 2021-09-17 17:21:37,080 | /home/ubuntu/reagan-bench2/apps/frappe/frappe/utils/scheduler.py:
Site: reaganerp.com
Queued events for site reaganerp.com
[DEBUG] 2021-09-17 17:22:37,299 | /home/ubuntu/reagan-bench2/apps/frappe/frappe/utils/scheduler.py:
Site: reaganerp.com
Queued events for site reaganerp.com
[DEBUG] 2021-09-17 17:23:37,572 | /home/ubuntu/reagan-bench2/apps/frappe/frappe/utils/scheduler.py:
Site: reaganerp.com
Queued events for site reaganerp.com
[DEBUG] 2021-09-17 17:24:37,742 | /home/ubuntu/reagan-bench2/apps/frappe/frappe/utils/scheduler.py:
Site: reaganerp.com
Queued events for site reaganerp.com
[DEBUG] 2021-09-17 17:25:37,932 | /home/ubuntu/reagan-bench2/apps/frappe/frappe/utils/scheduler.py:
Site: reaganerp.com
Queued events for site reaganerp.com
[DEBUG] 2021-09-17 17:26:38,118 | /home/ubuntu/reagan-bench2/apps/frappe/frappe/utils/scheduler.py:
Site: reaganerp.com
Queued events for site reaganerp.com
[DEBUG] 2021-09-17 17:27:38,304 | /home/ubuntu/reagan-bench2/apps/frappe/frappe/utils/scheduler.py:
Site: reaganerp.com
Queued events for site reaganerp.com
[DEBUG] 2021-09-17 17:28:38,560 | /home/ubuntu/reagan-bench2/apps/frappe/frappe/utils/scheduler.py:
Site: reaganerp.com
Queued events for site reaganerp.com
[DEBUG] 2021-09-17 17:29:38,775 | /home/ubuntu/reagan-bench2/apps/frappe/frappe/utils/scheduler.py:
Site: reaganerp.com
Queued events for site reaganerp.com
[DEBUG] 2021-09-17 17:30:38,997 | /home/ubuntu/reagan-bench2/apps/frappe/frappe/utils/scheduler.py:
Site: reaganerp.com
Queued events for site reaganerp.com
[DEBUG] 2021-09-17 17:31:39,285 | /home/ubuntu/reagan-bench2/apps/frappe/frappe/utils/scheduler.py:
Site: reaganerp.com
Queued events for site reaganerp.com
[DEBUG] 2021-09-17 17:32:39,456 | /home/ubuntu/reagan-bench2/apps/frappe/frappe/utils/scheduler.py:
Site: reaganerp.com
Queued events for site reaganerp.com
[DEBUG] 2021-09-17 17:33:39,682 | /home/ubuntu/reagan-bench2/apps/frappe/frappe/utils/scheduler.py:
Site: reaganerp.com
Queued events for site reaganerp.com
[DEBUG] 2021-09-17 17:34:39,960 | /home/ubuntu/reagan-bench2/apps/frappe/frappe/utils/scheduler.py:
Site: reaganerp.com
Queued events for site reaganerp.com
[DEBUG] 2021-09-17 17:35:40,180 | /home/ubuntu/reagan-bench2/apps/frappe/frappe/utils/scheduler.py:
Site: reaganerp.com
Queued events for site reaganerp.com
[DEBUG] 2021-09-17 17:36:40,582 | /home/ubuntu/reagan-bench2/apps/frappe/frappe/utils/scheduler.py:
Site: reaganerp.com
Queued events for site reaganerp.com
[DEBUG] 2021-09-17 17:37:40,771 | /home/ubuntu/reagan-bench2/apps/frappe/frappe/utils/scheduler.py:
Site: reaganerp.com
Queued events for site reaganerp.com
[DEBUG] 2021-09-17 17:38:40,985 | /home/ubuntu/reagan-bench2/apps/frappe/frappe/utils/scheduler.py:
Site: reaganerp.com
Queued events for site reaganerp.com
[DEBUG] 2021-09-17 17:39:41,173 | /home/ubuntu/reagan-bench2/apps/frappe/frappe/utils/scheduler.py:
Site: reaganerp.com
Queued events for site reaganerp.com
[DEBUG] 2021-09-17 17:40:41,392 | /home/ubuntu/reagan-bench2/apps/frappe/frappe/utils/scheduler.py:
Site: reaganerp.com
Queued events for site reaganerp.com
[DEBUG] 2021-09-17 17:41:41,562 | /home/ubuntu/reagan-bench2/apps/frappe/frappe/utils/scheduler.py:
Site: reaganerp.com
Queued events for site reaganerp.com
[DEBUG] 2021-09-17 17:42:41,814 | /home/ubuntu/reagan-bench2/apps/frappe/frappe/utils/scheduler.py:
Site: reaganerp.com
Queued events for site reaganerp.com
[DEBUG] 2021-09-17 17:43:41,995 | /home/ubuntu/reagan-bench2/apps/frappe/frappe/utils/scheduler.py:
Site: reaganerp.com
Queued events for site reaganerp.com
[DEBUG] 2021-09-17 17:44:42,183 | /home/ubuntu/reagan-bench2/apps/frappe/frappe/utils/scheduler.py:
Site: reaganerp.com
Queued events for site reaganerp.com
[DEBUG] 2021-09-17 17:45:42,369 | /home/ubuntu/reagan-bench2/apps/frappe/frappe/utils/scheduler.py:
Site: reaganerp.com
Queued events for site reaganerp.com
[DEBUG] 2021-09-17 17:46:42,583 | /home/ubuntu/reagan-bench2/apps/frappe/frappe/utils/scheduler.py:
Site: reaganerp.com
Queued events for site reaganerp.com
[DEBUG] 2021-09-17 17:47:42,760 | /home/ubuntu/reagan-bench2/apps/frappe/frappe/utils/scheduler.py:
Site: reaganerp.com
Queued events for site reaganerp.com
[DEBUG] 2021-09-17 17:48:42,942 | /home/ubuntu/reagan-bench2/apps/frappe/frappe/utils/scheduler.py:
Site: reaganerp.com
Queued events for site reaganerp.com
[DEBUG] 2021-09-17 17:49:43,125 | /home/ubuntu/reagan-bench2/apps/frappe/frappe/utils/scheduler.py:
Site: reaganerp.com
Queued events for site reaganerp.com
[DEBUG] 2021-09-17 17:50:43,363 | /home/ubuntu/reagan-bench2/apps/frappe/frappe/utils/scheduler.py:
Site: reaganerp.com
Queued events for site reaganerp.com
[DEBUG] 2021-09-17 17:51:43,551 | /home/ubuntu/reagan-bench2/apps/frappe/frappe/utils/scheduler.py:
Site: reaganerp.com
Queued events for site reaganerp.com
[DEBUG] 2021-09-17 17:52:43,747 | /home/ubuntu/reagan-bench2/apps/frappe/frappe/utils/scheduler.py:
Site: reaganerp.com
Queued events for site reaganerp.com
[DEBUG] 2021-09-17 17:53:43,922 | /home/ubuntu/reagan-bench2/apps/frappe/frappe/utils/scheduler.py:
Site: reaganerp.com
Queued events for site reaganerp.com
[DEBUG] 2021-09-17 17:54:44,165 | /home/ubuntu/reagan-bench2/apps/frappe/frappe/utils/scheduler.py:
Site: reaganerp.com
Queued events for site reaganerp.com
[DEBUG] 2021-09-17 17:55:44,419 | /home/ubuntu/reagan-bench2/apps/frappe/frappe/utils/scheduler.py:
Site: reaganerp.com
Queued events for site reaganerp.com
[DEBUG] 2021-09-17 17:56:44,740 | /home/ubuntu/reagan-bench2/apps/frappe/frappe/utils/scheduler.py:
Site: reaganerp.com
Queued events for site reaganerp.com
[DEBUG] 2021-09-17 17:57:44,938 | /home/ubuntu/reagan-bench2/apps/frappe/frappe/utils/scheduler.py:
Site: reaganerp.com
Queued events for site reaganerp.com
[DEBUG] 2021-09-17 17:58:45,149 | /home/ubuntu/reagan-bench2/apps/frappe/frappe/utils/scheduler.py:
Site: reaganerp.com
Queued events for site reaganerp.com
[DEBUG] 2021-09-17 17:59:45,329 | /home/ubuntu/reagan-bench2/apps/frappe/frappe/utils/scheduler.py:
Site: reaganerp.com
Queued events for site reaganerp.com
[DEBUG] 2021-09-17 18:00:45,815 | /home/ubuntu/reagan-bench2/apps/frappe/frappe/utils/scheduler.py:
Site: reaganerp.com
Queued events for site reaganerp.com
[DEBUG] 2021-09-17 18:01:46,931 | /home/ubuntu/reagan-bench2/apps/frappe/frappe/utils/scheduler.py:
Site: reaganerp.com
Queued events for site reaganerp.com
[DEBUG] 2021-09-17 18:02:47,382 | /home/ubuntu/reagan-bench2/apps/frappe/frappe/utils/scheduler.py:
Site: reaganerp.com
Queued events for site reaganerp.com
[DEBUG] 2021-09-17 18:03:47,613 | /home/ubuntu/reagan-bench2/apps/frappe/frappe/utils/scheduler.py:
Site: reaganerp.com
Queued events for site reaganerp.com
[DEBUG] 2021-09-17 18:04:47,782 | /home/ubuntu/reagan-bench2/apps/frappe/frappe/utils/scheduler.py:
Site: reaganerp.com
Queued events for site reaganerp.com
[DEBUG] 2021-09-17 18:05:48,046 | /home/ubuntu/reagan-bench2/apps/frappe/frappe/utils/scheduler.py:
Site: reaganerp.com
Queued events for site reaganerp.com
[DEBUG] 2021-09-17 18:06:48,319 | /home/ubuntu/reagan-bench2/apps/frappe/frappe/utils/scheduler.py:
Site: reaganerp.com
Queued events for site reaganerp.com
[DEBUG] 2021-09-17 18:07:48,548 | /home/ubuntu/reagan-bench2/apps/frappe/frappe/utils/scheduler.py:
Site: reaganerp.com
Queued events for site reaganerp.com
[DEBUG] 2021-09-17 18:08:48,756 | /home/ubuntu/reagan-bench2/apps/frappe/frappe/utils/scheduler.py:
Site: reaganerp.com
Queued events for site reaganerp.com
[DEBUG] 2021-09-17 18:09:48,940 | /home/ubuntu/reagan-bench2/apps/frappe/frappe/utils/scheduler.py:
Site: reaganerp.com
Queued events for site reaganerp.com
[DEBUG] 2021-09-17 18:10:49,159 | /home/ubuntu/reagan-bench2/apps/frappe/frappe/utils/scheduler.py:
Site: reaganerp.com
Queued events for site reaganerp.com
[DEBUG] 2021-09-17 18:11:49,335 | /home/ubuntu/reagan-bench2/apps/frappe/frappe/utils/scheduler.py:
Site: reaganerp.com
Queued events for site reaganerp.com
[DEBUG] 2021-09-17 18:12:49,517 | /home/ubuntu/reagan-bench2/apps/frappe/frappe/utils/scheduler.py:
Site: reaganerp.com
Queued events for site reaganerp.com
[DEBUG] 2021-09-17 18:13:49,786 | /home/ubuntu/reagan-bench2/apps/frappe/frappe/utils/scheduler.py:
Site: reaganerp.com
Queued events for site reaganerp.com
[DEBUG] 2021-09-17 18:14:50,066 | /home/ubuntu/reagan-bench2/apps/frappe/frappe/utils/scheduler.py:
Site: reaganerp.com
Queued events for site reaganerp.com
[DEBUG] 2021-09-17 18:15:50,261 | /home/ubuntu/reagan-bench2/apps/frappe/frappe/utils/scheduler.py:
Site: reaganerp.com
Queued events for site reaganerp.com
[DEBUG] 2021-09-17 18:16:50,441 | /home/ubuntu/reagan-bench2/apps/frappe/frappe/utils/scheduler.py:
Site: reaganerp.com
Queued events for site reaganerp.com
[DEBUG] 2021-09-17 18:17:50,625 | /home/ubuntu/reagan-bench2/apps/frappe/frappe/utils/scheduler.py:
Site: reaganerp.com
Queued events for site reaganerp.com
[DEBUG] 2021-09-17 18:18:50,856 | /home/ubuntu/reagan-bench2/apps/frappe/frappe/utils/scheduler.py:
Site: reaganerp.com
Queued events for site reaganerp.com
[DEBUG] 2021-09-17 18:19:51,040 | /home/ubuntu/reagan-bench2/apps/frappe/frappe/utils/scheduler.py:
Site: reaganerp.com
Queued events for site reaganerp.com
[DEBUG] 2021-09-17 18:20:51,261 | /home/ubuntu/reagan-bench2/apps/frappe/frappe/utils/scheduler.py:
Site: reaganerp.com
Queued events for site reaganerp.com
[DEBUG] 2021-09-17 18:21:51,453 | /home/ubuntu/reagan-bench2/apps/frappe/frappe/utils/scheduler.py:
Site: reaganerp.com
Queued events for site reaganerp.com
[DEBUG] 2021-09-17 18:22:51,694 | /home/ubuntu/reagan-bench2/apps/frappe/frappe/utils/scheduler.py:
Site: reaganerp.com
Queued events for site reaganerp.com
[DEBUG] 2021-09-17 18:23:51,870 | /home/ubuntu/reagan-bench2/apps/frappe/frappe/utils/scheduler.py:
Site: reaganerp.com
Queued events for site reaganerp.com
[DEBUG] 2021-09-17 18:24:52,044 | /home/ubuntu/reagan-bench2/apps/frappe/frappe/utils/scheduler.py:
Site: reaganerp.com
Queued events for site reaganerp.com
[DEBUG] 2021-09-17 18:25:52,248 | /home/ubuntu/reagan-bench2/apps/frappe/frappe/utils/scheduler.py:
Site: reaganerp.com
Queued events for site reaganerp.com
[DEBUG] 2021-09-17 18:26:52,450 | /home/ubuntu/reagan-bench2/apps/frappe/frappe/utils/scheduler.py:
Site: reaganerp.com
Queued events for site reaganerp.com
[DEBUG] 2021-09-17 18:27:52,642 | /home/ubuntu/reagan-bench2/apps/frappe/frappe/utils/scheduler.py:
Site: reaganerp.com
Queued events for site reaganerp.com
[DEBUG] 2021-09-17 18:28:52,834 | /home/ubuntu/reagan-bench2/apps/frappe/frappe/utils/scheduler.py:
Site: reaganerp.com
Queued events for site reaganerp.com
[DEBUG] 2021-09-17 18:29:53,022 | /home/ubuntu/reagan-bench2/apps/frappe/frappe/utils/scheduler.py:
Site: reaganerp.com
Queued events for site reaganerp.com
[DEBUG] 2021-09-17 18:30:53,261 | /home/ubuntu/reagan-bench2/apps/frappe/frappe/utils/scheduler.py:
Site: reaganerp.com
Queued events for site reaganerp.com
[DEBUG] 2021-09-17 18:31:53,435 | /home/ubuntu/reagan-bench2/apps/frappe/frappe/utils/scheduler.py:
Site: reaganerp.com
Queued events for site reaganerp.com
[DEBUG] 2021-09-17 18:32:53,668 | /home/ubuntu/reagan-bench2/apps/frappe/frappe/utils/scheduler.py:
Site: reaganerp.com
Queued events for site reaganerp.com
[DEBUG] 2021-09-17 18:33:53,875 | /home/ubuntu/reagan-bench2/apps/frappe/frappe/utils/scheduler.py:
Site: reaganerp.com
Queued events for site reaganerp.com
[DEBUG] 2021-09-17 18:34:54,092 | /home/ubuntu/reagan-bench2/apps/frappe/frappe/utils/scheduler.py:
Site: reaganerp.com
Queued events for site reaganerp.com
[DEBUG] 2021-09-17 18:35:54,275 | /home/ubuntu/reagan-bench2/apps/frappe/frappe/utils/scheduler.py:
Site: reaganerp.com
Queued events for site reaganerp.com
[DEBUG] 2021-09-17 18:36:54,469 | /home/ubuntu/reagan-bench2/apps/frappe/frappe/utils/scheduler.py:
Site: reaganerp.com
Queued events for site reaganerp.com
[DEBUG] 2021-09-17 18:37:54,633 | /home/ubuntu/reagan-bench2/apps/frappe/frappe/utils/scheduler.py:
Site: reaganerp.com
Queued events for site reaganerp.com
[DEBUG] 2021-09-17 18:38:55,080 | /home/ubuntu/reagan-bench2/apps/frappe/frappe/utils/scheduler.py:
Site: reaganerp.com
Queued events for site reaganerp.com
[DEBUG] 2021-09-17 19:02:57,375 | /home/ubuntu/reagan-bench2/apps/frappe/frappe/utils/scheduler.py:
Site: reaganerp.com
Queued events for site reaganerp.com
[DEBUG] 2021-09-17 19:03:57,605 | /home/ubuntu/reagan-bench2/apps/frappe/frappe/utils/scheduler.py:
Site: reaganerp.com
Queued events for site reaganerp.com
[DEBUG] 2021-09-17 19:04:57,808 | /home/ubuntu/reagan-bench2/apps/frappe/frappe/utils/scheduler.py:
Site: reaganerp.com
Queued events for site reaganerp.com
[DEBUG] 2021-09-17 19:05:58,040 | /home/ubuntu/reagan-bench2/apps/frappe/frappe/utils/scheduler.py:
Site: reaganerp.com
Queued events for site reaganerp.com
[DEBUG] 2021-09-17 19:06:58,550 | /home/ubuntu/reagan-bench2/apps/frappe/frappe/utils/scheduler.py:
Site: reaganerp.com
Queued events for site reaganerp.com
[DEBUG] 2021-09-17 19:07:58,928 | /home/ubuntu/reagan-bench2/apps/frappe/frappe/utils/scheduler.py:
Site: reaganerp.com
Queued events for site reaganerp.com
[DEBUG] 2021-09-17 19:08:59,148 | /home/ubuntu/reagan-bench2/apps/frappe/frappe/utils/scheduler.py:
Site: reaganerp.com
Queued events for site reaganerp.com
[DEBUG] 2021-09-17 19:09:59,321 | /home/ubuntu/reagan-bench2/apps/frappe/frappe/utils/scheduler.py:
Site: reaganerp.com
Queued events for site reaganerp.com
[DEBUG] 2021-09-17 19:10:59,592 | /home/ubuntu/reagan-bench2/apps/frappe/frappe/utils/scheduler.py:
Site: reaganerp.com
Queued events for site reaganerp.com
[DEBUG] 2021-09-17 19:11:59,750 | /home/ubuntu/reagan-bench2/apps/frappe/frappe/utils/scheduler.py:
Site: reaganerp.com
Queued events for site reaganerp.com
[DEBUG] 2021-09-17 19:12:59,926 | /home/ubuntu/reagan-bench2/apps/frappe/frappe/utils/scheduler.py:
Site: reaganerp.com
Queued events for site reaganerp.com
[DEBUG] 2021-09-17 19:14:00,197 | /home/ubuntu/reagan-bench2/apps/frappe/frappe/utils/scheduler.py:
Site: reaganerp.com
Queued events for site reaganerp.com
[DEBUG] 2021-09-17 19:15:00,502 | /home/ubuntu/reagan-bench2/apps/frappe/frappe/utils/scheduler.py:
Site: reaganerp.com
Queued events for site reaganerp.com
[DEBUG] 2021-09-17 19:16:00,689 | /home/ubuntu/reagan-bench2/apps/frappe/frappe/utils/scheduler.py:
Site: reaganerp.com
Queued events for site reaganerp.com
[DEBUG] 2021-09-17 19:17:00,885 | /home/ubuntu/reagan-bench2/apps/frappe/frappe/utils/scheduler.py:
Site: reaganerp.com
Queued events for site reaganerp.com
[DEBUG] 2021-09-17 19:18:01,185 | /home/ubuntu/reagan-bench2/apps/frappe/frappe/utils/scheduler.py:
Site: reaganerp.com
Queued events for site reaganerp.com
[DEBUG] 2021-09-17 19:19:02,586 | /home/ubuntu/reagan-bench2/apps/frappe/frappe/utils/scheduler.py:
Site: reaganerp.com
Queued events for site reaganerp.com
[DEBUG] 2021-09-17 19:20:02,897 | /home/ubuntu/reagan-bench2/apps/frappe/frappe/utils/scheduler.py:
Site: reaganerp.com
Queued events for site reaganerp.com
[DEBUG] 2021-09-17 19:21:03,098 | /home/ubuntu/reagan-bench2/apps/frappe/frappe/utils/scheduler.py:
Site: reaganerp.com
Queued events for site reaganerp.com
[DEBUG] 2021-09-17 19:22:03,459 | /home/ubuntu/reagan-bench2/apps/frappe/frappe/utils/scheduler.py:
Site: reaganerp.com
Queued events for site reaganerp.com
[DEBUG] 2021-09-17 19:23:03,951 | /home/ubuntu/reagan-bench2/apps/frappe/frappe/utils/scheduler.py:
Site: reaganerp.com
Queued events for site reaganerp.com
[DEBUG] 2021-09-17 19:24:04,934 | /home/ubuntu/reagan-bench2/apps/frappe/frappe/utils/scheduler.py:
Site: reaganerp.com
Queued events for site reaganerp.com
[DEBUG] 2021-09-17 19:25:05,142 | /home/ubuntu/reagan-bench2/apps/frappe/frappe/utils/scheduler.py:
Site: reaganerp.com
Queued events for site reaganerp.com
[DEBUG] 2021-09-17 19:26:05,419 | /home/ubuntu/reagan-bench2/apps/frappe/frappe/utils/scheduler.py:
Site: reaganerp.com
Queued events for site reaganerp.com
[DEBUG] 2021-09-17 19:27:05,623 | /home/ubuntu/reagan-bench2/apps/frappe/frappe/utils/scheduler.py:
Site: reaganerp.com
Queued events for site reaganerp.com
[DEBUG] 2021-09-17 19:28:05,878 | /home/ubuntu/reagan-bench2/apps/frappe/frappe/utils/scheduler.py:
Site: reaganerp.com
Queued events for site reaganerp.com
[DEBUG] 2021-09-17 19:29:06,157 | /home/ubuntu/reagan-bench2/apps/frappe/frappe/utils/scheduler.py:
Site: reaganerp.com
Queued events for site reaganerp.com
[DEBUG] 2021-09-17 19:30:06,525 | /home/ubuntu/reagan-bench2/apps/frappe/frappe/utils/scheduler.py:
Site: reaganerp.com
Queued events for site reaganerp.com
[DEBUG] 2021-09-17 19:31:09,696 | /home/ubuntu/reagan-bench2/apps/frappe/frappe/utils/scheduler.py:
Site: reaganerp.com
Queued events for site reaganerp.com
[DEBUG] 2021-09-17 19:32:10,788 | /home/ubuntu/reagan-bench2/apps/frappe/frappe/utils/scheduler.py:
Site: reaganerp.com
Queued events for site reaganerp.com
[DEBUG] 2021-09-17 19:33:12,071 | /home/ubuntu/reagan-bench2/apps/frappe/frappe/utils/scheduler.py:
Site: reaganerp.com
Queued events for site reaganerp.com
[DEBUG] 2021-09-17 19:34:13,196 | /home/ubuntu/reagan-bench2/apps/frappe/frappe/utils/scheduler.py:
Site: reaganerp.com
Queued events for site reaganerp.com
[DEBUG] 2021-09-17 19:35:14,510 | /home/ubuntu/reagan-bench2/apps/frappe/frappe/utils/scheduler.py:
Site: reaganerp.com
Queued events for site reaganerp.com
[DEBUG] 2021-09-17 19:36:17,098 | /home/ubuntu/reagan-bench2/apps/frappe/frappe/utils/scheduler.py:
Site: reaganerp.com
Queued events for site reaganerp.com
[DEBUG] 2021-09-17 19:37:18,118 | /home/ubuntu/reagan-bench2/apps/frappe/frappe/utils/scheduler.py:
Site: reaganerp.com
Queued events for site reaganerp.com
[DEBUG] 2021-09-17 19:38:18,697 | /home/ubuntu/reagan-bench2/apps/frappe/frappe/utils/scheduler.py:
Site: reaganerp.com
Queued events for site reaganerp.com
[DEBUG] 2021-09-17 19:39:18,964 | /home/ubuntu/reagan-bench2/apps/frappe/frappe/utils/scheduler.py:
Site: reaganerp.com
Queued events for site reaganerp.com
[DEBUG] 2021-09-17 19:40:19,714 | /home/ubuntu/reagan-bench2/apps/frappe/frappe/utils/scheduler.py:
Site: reaganerp.com
Queued events for site reaganerp.com
[DEBUG] 2021-09-17 19:41:20,039 | /home/ubuntu/reagan-bench2/apps/frappe/frappe/utils/scheduler.py:
Site: reaganerp.com
Queued events for site reaganerp.com
[DEBUG] 2021-09-17 19:42:20,702 | /home/ubuntu/reagan-bench2/apps/frappe/frappe/utils/scheduler.py:
Site: reaganerp.com
Queued events for site reaganerp.com
[DEBUG] 2021-09-17 19:43:21,111 | /home/ubuntu/reagan-bench2/apps/frappe/frappe/utils/scheduler.py:
Site: reaganerp.com
Queued events for site reaganerp.com
[DEBUG] 2021-09-17 19:44:21,331 | /home/ubuntu/reagan-bench2/apps/frappe/frappe/utils/scheduler.py:
Site: reaganerp.com
Queued events for site reaganerp.com
[DEBUG] 2021-09-17 19:45:21,589 | /home/ubuntu/reagan-bench2/apps/frappe/frappe/utils/scheduler.py:
Site: reaganerp.com
Queued events for site reaganerp.com
[DEBUG] 2021-09-17 19:46:22,163 | /home/ubuntu/reagan-bench2/apps/frappe/frappe/utils/scheduler.py:
Site: reaganerp.com
Queued events for site reaganerp.com
[DEBUG] 2021-09-17 19:47:23,510 | /home/ubuntu/reagan-bench2/apps/frappe/frappe/utils/scheduler.py:
Site: reaganerp.com
Queued events for site reaganerp.com
[DEBUG] 2021-09-17 19:48:40,955 | /home/ubuntu/reagan-bench2/apps/frappe/frappe/utils/scheduler.py:
Site: reaganerp.com
Queued events for site reaganerp.com
[DEBUG] 2021-09-17 19:49:51,131 | /home/ubuntu/reagan-bench2/apps/frappe/frappe/utils/scheduler.py:
Site: reaganerp.com
Queued events for site reaganerp.com
