[DEBUG] 2021-09-22 22:48:42,411 | /home/ubuntu/reagan-bench2/apps/frappe/frappe/utils/scheduler.py:
Site: reaganerp.com
Queued events for site reaganerp.com
[DEBUG] 2021-09-22 22:49:42,874 | /home/ubuntu/reagan-bench2/apps/frappe/frappe/utils/scheduler.py:
Site: reaganerp.com
Queued events for site reaganerp.com
[DEBUG] 2021-09-22 22:50:43,115 | /home/ubuntu/reagan-bench2/apps/frappe/frappe/utils/scheduler.py:
Site: reaganerp.com
Queued events for site reaganerp.com
[DEBUG] 2021-09-22 22:51:43,305 | /home/ubuntu/reagan-bench2/apps/frappe/frappe/utils/scheduler.py:
Site: reaganerp.com
Queued events for site reaganerp.com
[DEBUG] 2021-09-22 22:52:43,512 | /home/ubuntu/reagan-bench2/apps/frappe/frappe/utils/scheduler.py:
Site: reaganerp.com
Queued events for site reaganerp.com
[DEBUG] 2021-09-22 22:53:43,725 | /home/ubuntu/reagan-bench2/apps/frappe/frappe/utils/scheduler.py:
Site: reaganerp.com
Queued events for site reaganerp.com
[DEBUG] 2021-09-22 22:54:43,979 | /home/ubuntu/reagan-bench2/apps/frappe/frappe/utils/scheduler.py:
Site: reaganerp.com
Queued events for site reaganerp.com
[DEBUG] 2021-09-22 22:55:44,237 | /home/ubuntu/reagan-bench2/apps/frappe/frappe/utils/scheduler.py:
Site: reaganerp.com
Queued events for site reaganerp.com
[DEBUG] 2021-09-22 22:56:44,434 | /home/ubuntu/reagan-bench2/apps/frappe/frappe/utils/scheduler.py:
Site: reaganerp.com
Queued events for site reaganerp.com
[DEBUG] 2021-09-22 22:57:44,638 | /home/ubuntu/reagan-bench2/apps/frappe/frappe/utils/scheduler.py:
Site: reaganerp.com
Queued events for site reaganerp.com
[DEBUG] 2021-09-22 22:58:44,866 | /home/ubuntu/reagan-bench2/apps/frappe/frappe/utils/scheduler.py:
Site: reaganerp.com
Queued events for site reaganerp.com
[DEBUG] 2021-09-22 22:59:45,087 | /home/ubuntu/reagan-bench2/apps/frappe/frappe/utils/scheduler.py:
Site: reaganerp.com
Queued events for site reaganerp.com
[DEBUG] 2021-09-22 23:00:45,294 | /home/ubuntu/reagan-bench2/apps/frappe/frappe/utils/scheduler.py:
Site: reaganerp.com
Queued events for site reaganerp.com
[DEBUG] 2021-09-22 23:01:45,477 | /home/ubuntu/reagan-bench2/apps/frappe/frappe/utils/scheduler.py:
Site: reaganerp.com
Queued events for site reaganerp.com
[DEBUG] 2021-09-22 23:02:45,693 | /home/ubuntu/reagan-bench2/apps/frappe/frappe/utils/scheduler.py:
Site: reaganerp.com
Queued events for site reaganerp.com
[DEBUG] 2021-09-22 23:03:45,878 | /home/ubuntu/reagan-bench2/apps/frappe/frappe/utils/scheduler.py:
Site: reaganerp.com
Queued events for site reaganerp.com
[DEBUG] 2021-09-22 23:04:46,105 | /home/ubuntu/reagan-bench2/apps/frappe/frappe/utils/scheduler.py:
Site: reaganerp.com
Queued events for site reaganerp.com
[DEBUG] 2021-09-22 23:05:46,315 | /home/ubuntu/reagan-bench2/apps/frappe/frappe/utils/scheduler.py:
Site: reaganerp.com
Queued events for site reaganerp.com
[DEBUG] 2021-09-22 23:06:46,526 | /home/ubuntu/reagan-bench2/apps/frappe/frappe/utils/scheduler.py:
Site: reaganerp.com
Queued events for site reaganerp.com
[DEBUG] 2021-09-22 23:07:46,725 | /home/ubuntu/reagan-bench2/apps/frappe/frappe/utils/scheduler.py:
Site: reaganerp.com
Queued events for site reaganerp.com
[DEBUG] 2021-09-22 23:08:46,932 | /home/ubuntu/reagan-bench2/apps/frappe/frappe/utils/scheduler.py:
Site: reaganerp.com
Queued events for site reaganerp.com
[DEBUG] 2021-09-22 23:09:47,134 | /home/ubuntu/reagan-bench2/apps/frappe/frappe/utils/scheduler.py:
Site: reaganerp.com
Queued events for site reaganerp.com
[DEBUG] 2021-09-22 23:10:47,362 | /home/ubuntu/reagan-bench2/apps/frappe/frappe/utils/scheduler.py:
Site: reaganerp.com
Queued events for site reaganerp.com
[DEBUG] 2021-09-22 23:11:47,569 | /home/ubuntu/reagan-bench2/apps/frappe/frappe/utils/scheduler.py:
Site: reaganerp.com
Queued events for site reaganerp.com
[DEBUG] 2021-09-22 23:12:47,851 | /home/ubuntu/reagan-bench2/apps/frappe/frappe/utils/scheduler.py:
Site: reaganerp.com
Queued events for site reaganerp.com
[DEBUG] 2021-09-22 23:13:48,060 | /home/ubuntu/reagan-bench2/apps/frappe/frappe/utils/scheduler.py:
Site: reaganerp.com
Queued events for site reaganerp.com
[DEBUG] 2021-09-22 23:14:48,272 | /home/ubuntu/reagan-bench2/apps/frappe/frappe/utils/scheduler.py:
Site: reaganerp.com
Queued events for site reaganerp.com
[DEBUG] 2021-09-22 23:15:48,508 | /home/ubuntu/reagan-bench2/apps/frappe/frappe/utils/scheduler.py:
Site: reaganerp.com
Queued events for site reaganerp.com
[DEBUG] 2021-09-22 23:16:48,701 | /home/ubuntu/reagan-bench2/apps/frappe/frappe/utils/scheduler.py:
Site: reaganerp.com
Queued events for site reaganerp.com
[DEBUG] 2021-09-22 23:17:50,202 | /home/ubuntu/reagan-bench2/apps/frappe/frappe/utils/scheduler.py:
Site: reaganerp.com
Queued events for site reaganerp.com
[DEBUG] 2021-09-22 23:18:50,425 | /home/ubuntu/reagan-bench2/apps/frappe/frappe/utils/scheduler.py:
Site: reaganerp.com
Queued events for site reaganerp.com
[DEBUG] 2021-09-22 23:19:50,623 | /home/ubuntu/reagan-bench2/apps/frappe/frappe/utils/scheduler.py:
Site: reaganerp.com
Queued events for site reaganerp.com
[DEBUG] 2021-09-22 23:20:50,823 | /home/ubuntu/reagan-bench2/apps/frappe/frappe/utils/scheduler.py:
Site: reaganerp.com
Queued events for site reaganerp.com
[DEBUG] 2021-09-22 23:21:51,016 | /home/ubuntu/reagan-bench2/apps/frappe/frappe/utils/scheduler.py:
Site: reaganerp.com
Queued events for site reaganerp.com
[DEBUG] 2021-09-22 23:22:51,238 | /home/ubuntu/reagan-bench2/apps/frappe/frappe/utils/scheduler.py:
Site: reaganerp.com
Queued events for site reaganerp.com
[DEBUG] 2021-09-22 23:23:51,448 | /home/ubuntu/reagan-bench2/apps/frappe/frappe/utils/scheduler.py:
Site: reaganerp.com
Queued events for site reaganerp.com
[DEBUG] 2021-09-22 23:24:51,691 | /home/ubuntu/reagan-bench2/apps/frappe/frappe/utils/scheduler.py:
Site: reaganerp.com
Queued events for site reaganerp.com
[DEBUG] 2021-09-22 23:25:51,897 | /home/ubuntu/reagan-bench2/apps/frappe/frappe/utils/scheduler.py:
Site: reaganerp.com
Queued events for site reaganerp.com
[DEBUG] 2021-09-22 23:26:52,131 | /home/ubuntu/reagan-bench2/apps/frappe/frappe/utils/scheduler.py:
Site: reaganerp.com
Queued events for site reaganerp.com
[DEBUG] 2021-09-22 23:27:52,324 | /home/ubuntu/reagan-bench2/apps/frappe/frappe/utils/scheduler.py:
Site: reaganerp.com
Queued events for site reaganerp.com
[DEBUG] 2021-09-22 23:28:52,563 | /home/ubuntu/reagan-bench2/apps/frappe/frappe/utils/scheduler.py:
Site: reaganerp.com
Queued events for site reaganerp.com
[DEBUG] 2021-09-22 23:29:52,769 | /home/ubuntu/reagan-bench2/apps/frappe/frappe/utils/scheduler.py:
Site: reaganerp.com
Queued events for site reaganerp.com
[DEBUG] 2021-09-22 23:30:52,981 | /home/ubuntu/reagan-bench2/apps/frappe/frappe/utils/scheduler.py:
Site: reaganerp.com
Queued events for site reaganerp.com
[DEBUG] 2021-09-22 23:31:53,196 | /home/ubuntu/reagan-bench2/apps/frappe/frappe/utils/scheduler.py:
Site: reaganerp.com
Queued events for site reaganerp.com
[DEBUG] 2021-09-22 23:32:53,390 | /home/ubuntu/reagan-bench2/apps/frappe/frappe/utils/scheduler.py:
Site: reaganerp.com
Queued events for site reaganerp.com
[DEBUG] 2021-09-22 23:33:53,592 | /home/ubuntu/reagan-bench2/apps/frappe/frappe/utils/scheduler.py:
Site: reaganerp.com
Queued events for site reaganerp.com
[DEBUG] 2021-09-22 23:34:53,818 | /home/ubuntu/reagan-bench2/apps/frappe/frappe/utils/scheduler.py:
Site: reaganerp.com
Queued events for site reaganerp.com
[DEBUG] 2021-09-22 23:35:53,998 | /home/ubuntu/reagan-bench2/apps/frappe/frappe/utils/scheduler.py:
Site: reaganerp.com
Queued events for site reaganerp.com
[DEBUG] 2021-09-22 23:36:54,263 | /home/ubuntu/reagan-bench2/apps/frappe/frappe/utils/scheduler.py:
Site: reaganerp.com
Queued events for site reaganerp.com
[DEBUG] 2021-09-22 23:37:54,461 | /home/ubuntu/reagan-bench2/apps/frappe/frappe/utils/scheduler.py:
Site: reaganerp.com
Queued events for site reaganerp.com
[DEBUG] 2021-09-22 23:38:54,700 | /home/ubuntu/reagan-bench2/apps/frappe/frappe/utils/scheduler.py:
Site: reaganerp.com
Queued events for site reaganerp.com
[DEBUG] 2021-09-22 23:39:54,905 | /home/ubuntu/reagan-bench2/apps/frappe/frappe/utils/scheduler.py:
Site: reaganerp.com
Queued events for site reaganerp.com
[DEBUG] 2021-09-22 23:40:55,084 | /home/ubuntu/reagan-bench2/apps/frappe/frappe/utils/scheduler.py:
Site: reaganerp.com
Queued events for site reaganerp.com
[DEBUG] 2021-09-22 23:41:55,315 | /home/ubuntu/reagan-bench2/apps/frappe/frappe/utils/scheduler.py:
Site: reaganerp.com
Queued events for site reaganerp.com
[DEBUG] 2021-09-22 23:42:55,535 | /home/ubuntu/reagan-bench2/apps/frappe/frappe/utils/scheduler.py:
Site: reaganerp.com
Queued events for site reaganerp.com
[DEBUG] 2021-09-22 23:43:55,699 | /home/ubuntu/reagan-bench2/apps/frappe/frappe/utils/scheduler.py:
Site: reaganerp.com
Queued events for site reaganerp.com
[DEBUG] 2021-09-22 23:44:55,914 | /home/ubuntu/reagan-bench2/apps/frappe/frappe/utils/scheduler.py:
Site: reaganerp.com
Queued events for site reaganerp.com
[DEBUG] 2021-09-22 23:45:56,173 | /home/ubuntu/reagan-bench2/apps/frappe/frappe/utils/scheduler.py:
Site: reaganerp.com
Queued events for site reaganerp.com
[DEBUG] 2021-09-22 23:46:56,409 | /home/ubuntu/reagan-bench2/apps/frappe/frappe/utils/scheduler.py:
Site: reaganerp.com
Queued events for site reaganerp.com
[DEBUG] 2021-09-22 23:47:56,610 | /home/ubuntu/reagan-bench2/apps/frappe/frappe/utils/scheduler.py:
Site: reaganerp.com
Queued events for site reaganerp.com
[DEBUG] 2021-09-22 23:48:56,811 | /home/ubuntu/reagan-bench2/apps/frappe/frappe/utils/scheduler.py:
Site: reaganerp.com
Queued events for site reaganerp.com
[DEBUG] 2021-09-22 23:49:57,017 | /home/ubuntu/reagan-bench2/apps/frappe/frappe/utils/scheduler.py:
Site: reaganerp.com
Queued events for site reaganerp.com
[DEBUG] 2021-09-22 23:50:57,212 | /home/ubuntu/reagan-bench2/apps/frappe/frappe/utils/scheduler.py:
Site: reaganerp.com
Queued events for site reaganerp.com
[DEBUG] 2021-09-22 23:51:57,416 | /home/ubuntu/reagan-bench2/apps/frappe/frappe/utils/scheduler.py:
Site: reaganerp.com
Queued events for site reaganerp.com
[DEBUG] 2021-09-22 23:52:57,635 | /home/ubuntu/reagan-bench2/apps/frappe/frappe/utils/scheduler.py:
Site: reaganerp.com
Queued events for site reaganerp.com
[DEBUG] 2021-09-22 23:53:57,822 | /home/ubuntu/reagan-bench2/apps/frappe/frappe/utils/scheduler.py:
Site: reaganerp.com
Queued events for site reaganerp.com
[DEBUG] 2021-09-23 10:05:54,086 | /home/ubuntu/reagan-bench2/apps/frappe/frappe/utils/scheduler.py:
Site: reaganerp.com
Queued events for site reaganerp.com
[DEBUG] 2021-09-23 10:06:54,781 | /home/ubuntu/reagan-bench2/apps/frappe/frappe/utils/scheduler.py:
Site: reaganerp.com
Queued events for site reaganerp.com
[DEBUG] 2021-09-23 10:07:55,615 | /home/ubuntu/reagan-bench2/apps/frappe/frappe/utils/scheduler.py:
Site: reaganerp.com
Queued events for site reaganerp.com
[DEBUG] 2021-09-23 10:08:55,958 | /home/ubuntu/reagan-bench2/apps/frappe/frappe/utils/scheduler.py:
Site: reaganerp.com
Queued events for site reaganerp.com
[DEBUG] 2021-09-23 10:09:56,187 | /home/ubuntu/reagan-bench2/apps/frappe/frappe/utils/scheduler.py:
Site: reaganerp.com
Queued events for site reaganerp.com
[DEBUG] 2021-09-23 10:10:56,425 | /home/ubuntu/reagan-bench2/apps/frappe/frappe/utils/scheduler.py:
Site: reaganerp.com
Queued events for site reaganerp.com
[DEBUG] 2021-09-23 10:11:56,695 | /home/ubuntu/reagan-bench2/apps/frappe/frappe/utils/scheduler.py:
Site: reaganerp.com
Queued events for site reaganerp.com
[DEBUG] 2021-09-23 10:12:56,948 | /home/ubuntu/reagan-bench2/apps/frappe/frappe/utils/scheduler.py:
Site: reaganerp.com
Queued events for site reaganerp.com
[DEBUG] 2021-09-23 10:13:57,148 | /home/ubuntu/reagan-bench2/apps/frappe/frappe/utils/scheduler.py:
Site: reaganerp.com
Queued events for site reaganerp.com
[DEBUG] 2021-09-23 10:14:57,352 | /home/ubuntu/reagan-bench2/apps/frappe/frappe/utils/scheduler.py:
Site: reaganerp.com
Queued events for site reaganerp.com
[DEBUG] 2021-09-23 10:15:57,573 | /home/ubuntu/reagan-bench2/apps/frappe/frappe/utils/scheduler.py:
Site: reaganerp.com
Queued events for site reaganerp.com
[DEBUG] 2021-09-23 10:16:57,782 | /home/ubuntu/reagan-bench2/apps/frappe/frappe/utils/scheduler.py:
Site: reaganerp.com
Queued events for site reaganerp.com
[DEBUG] 2021-09-23 10:17:57,984 | /home/ubuntu/reagan-bench2/apps/frappe/frappe/utils/scheduler.py:
Site: reaganerp.com
Queued events for site reaganerp.com
[DEBUG] 2021-09-23 10:18:58,196 | /home/ubuntu/reagan-bench2/apps/frappe/frappe/utils/scheduler.py:
Site: reaganerp.com
Queued events for site reaganerp.com
[DEBUG] 2021-09-23 10:19:58,433 | /home/ubuntu/reagan-bench2/apps/frappe/frappe/utils/scheduler.py:
Site: reaganerp.com
Queued events for site reaganerp.com
[DEBUG] 2021-09-23 10:20:58,617 | /home/ubuntu/reagan-bench2/apps/frappe/frappe/utils/scheduler.py:
Site: reaganerp.com
Queued events for site reaganerp.com
[DEBUG] 2021-09-23 10:21:58,825 | /home/ubuntu/reagan-bench2/apps/frappe/frappe/utils/scheduler.py:
Site: reaganerp.com
Queued events for site reaganerp.com
[DEBUG] 2021-09-23 10:22:59,051 | /home/ubuntu/reagan-bench2/apps/frappe/frappe/utils/scheduler.py:
Site: reaganerp.com
Queued events for site reaganerp.com
[DEBUG] 2021-09-23 10:23:59,231 | /home/ubuntu/reagan-bench2/apps/frappe/frappe/utils/scheduler.py:
Site: reaganerp.com
Queued events for site reaganerp.com
[DEBUG] 2021-09-23 10:24:59,445 | /home/ubuntu/reagan-bench2/apps/frappe/frappe/utils/scheduler.py:
Site: reaganerp.com
Queued events for site reaganerp.com
[DEBUG] 2021-09-23 10:25:59,674 | /home/ubuntu/reagan-bench2/apps/frappe/frappe/utils/scheduler.py:
Site: reaganerp.com
Queued events for site reaganerp.com
[DEBUG] 2021-09-23 10:26:59,876 | /home/ubuntu/reagan-bench2/apps/frappe/frappe/utils/scheduler.py:
Site: reaganerp.com
Queued events for site reaganerp.com
[DEBUG] 2021-09-23 10:28:00,090 | /home/ubuntu/reagan-bench2/apps/frappe/frappe/utils/scheduler.py:
Site: reaganerp.com
Queued events for site reaganerp.com
[DEBUG] 2021-09-23 10:29:00,284 | /home/ubuntu/reagan-bench2/apps/frappe/frappe/utils/scheduler.py:
Site: reaganerp.com
Queued events for site reaganerp.com
[DEBUG] 2021-09-23 10:30:00,586 | /home/ubuntu/reagan-bench2/apps/frappe/frappe/utils/scheduler.py:
Site: reaganerp.com
Queued events for site reaganerp.com
[DEBUG] 2021-09-23 10:31:00,806 | /home/ubuntu/reagan-bench2/apps/frappe/frappe/utils/scheduler.py:
Site: reaganerp.com
Queued events for site reaganerp.com
[DEBUG] 2021-09-23 10:32:01,365 | /home/ubuntu/reagan-bench2/apps/frappe/frappe/utils/scheduler.py:
Site: reaganerp.com
Queued events for site reaganerp.com
[DEBUG] 2021-09-23 10:33:01,578 | /home/ubuntu/reagan-bench2/apps/frappe/frappe/utils/scheduler.py:
Site: reaganerp.com
Queued events for site reaganerp.com
[DEBUG] 2021-09-23 10:34:01,828 | /home/ubuntu/reagan-bench2/apps/frappe/frappe/utils/scheduler.py:
Site: reaganerp.com
Queued events for site reaganerp.com
[DEBUG] 2021-09-23 10:35:02,028 | /home/ubuntu/reagan-bench2/apps/frappe/frappe/utils/scheduler.py:
Site: reaganerp.com
Queued events for site reaganerp.com
[DEBUG] 2021-09-23 10:36:02,289 | /home/ubuntu/reagan-bench2/apps/frappe/frappe/utils/scheduler.py:
Site: reaganerp.com
Queued events for site reaganerp.com
[DEBUG] 2021-09-23 10:37:02,608 | /home/ubuntu/reagan-bench2/apps/frappe/frappe/utils/scheduler.py:
Site: reaganerp.com
Queued events for site reaganerp.com
[DEBUG] 2021-09-23 10:38:02,939 | /home/ubuntu/reagan-bench2/apps/frappe/frappe/utils/scheduler.py:
Site: reaganerp.com
Queued events for site reaganerp.com
[DEBUG] 2021-09-23 10:39:03,485 | /home/ubuntu/reagan-bench2/apps/frappe/frappe/utils/scheduler.py:
Site: reaganerp.com
Queued events for site reaganerp.com
[DEBUG] 2021-09-23 10:40:03,747 | /home/ubuntu/reagan-bench2/apps/frappe/frappe/utils/scheduler.py:
Site: reaganerp.com
Queued events for site reaganerp.com
[DEBUG] 2021-09-23 10:41:03,992 | /home/ubuntu/reagan-bench2/apps/frappe/frappe/utils/scheduler.py:
Site: reaganerp.com
Queued events for site reaganerp.com
[DEBUG] 2021-09-23 10:42:04,322 | /home/ubuntu/reagan-bench2/apps/frappe/frappe/utils/scheduler.py:
Site: reaganerp.com
Queued events for site reaganerp.com
[DEBUG] 2021-09-23 10:43:04,585 | /home/ubuntu/reagan-bench2/apps/frappe/frappe/utils/scheduler.py:
Site: reaganerp.com
Queued events for site reaganerp.com
[DEBUG] 2021-09-23 10:44:04,747 | /home/ubuntu/reagan-bench2/apps/frappe/frappe/utils/scheduler.py:
Site: reaganerp.com
Queued events for site reaganerp.com
[DEBUG] 2021-09-23 10:45:04,973 | /home/ubuntu/reagan-bench2/apps/frappe/frappe/utils/scheduler.py:
Site: reaganerp.com
Queued events for site reaganerp.com
[DEBUG] 2021-09-23 10:46:05,249 | /home/ubuntu/reagan-bench2/apps/frappe/frappe/utils/scheduler.py:
Site: reaganerp.com
Queued events for site reaganerp.com
[DEBUG] 2021-09-23 10:47:05,443 | /home/ubuntu/reagan-bench2/apps/frappe/frappe/utils/scheduler.py:
Site: reaganerp.com
Queued events for site reaganerp.com
[DEBUG] 2021-09-23 10:48:05,692 | /home/ubuntu/reagan-bench2/apps/frappe/frappe/utils/scheduler.py:
Site: reaganerp.com
Queued events for site reaganerp.com
[DEBUG] 2021-09-23 10:49:05,892 | /home/ubuntu/reagan-bench2/apps/frappe/frappe/utils/scheduler.py:
Site: reaganerp.com
Queued events for site reaganerp.com
[DEBUG] 2021-09-23 10:50:06,123 | /home/ubuntu/reagan-bench2/apps/frappe/frappe/utils/scheduler.py:
Site: reaganerp.com
Queued events for site reaganerp.com
[DEBUG] 2021-09-23 10:51:06,321 | /home/ubuntu/reagan-bench2/apps/frappe/frappe/utils/scheduler.py:
Site: reaganerp.com
Queued events for site reaganerp.com
[DEBUG] 2021-09-23 10:52:06,525 | /home/ubuntu/reagan-bench2/apps/frappe/frappe/utils/scheduler.py:
Site: reaganerp.com
Queued events for site reaganerp.com
[DEBUG] 2021-09-23 10:53:06,719 | /home/ubuntu/reagan-bench2/apps/frappe/frappe/utils/scheduler.py:
Site: reaganerp.com
Queued events for site reaganerp.com
[DEBUG] 2021-09-23 10:54:06,946 | /home/ubuntu/reagan-bench2/apps/frappe/frappe/utils/scheduler.py:
Site: reaganerp.com
Queued events for site reaganerp.com
[DEBUG] 2021-09-23 10:55:07,143 | /home/ubuntu/reagan-bench2/apps/frappe/frappe/utils/scheduler.py:
Site: reaganerp.com
Queued events for site reaganerp.com
[DEBUG] 2021-09-23 10:56:07,359 | /home/ubuntu/reagan-bench2/apps/frappe/frappe/utils/scheduler.py:
Site: reaganerp.com
Queued events for site reaganerp.com
[DEBUG] 2021-09-23 10:57:07,680 | /home/ubuntu/reagan-bench2/apps/frappe/frappe/utils/scheduler.py:
Site: reaganerp.com
Queued events for site reaganerp.com
[DEBUG] 2021-09-23 10:58:07,874 | /home/ubuntu/reagan-bench2/apps/frappe/frappe/utils/scheduler.py:
Site: reaganerp.com
Queued events for site reaganerp.com
[DEBUG] 2021-09-23 10:59:08,086 | /home/ubuntu/reagan-bench2/apps/frappe/frappe/utils/scheduler.py:
Site: reaganerp.com
Queued events for site reaganerp.com
[DEBUG] 2021-09-23 11:00:08,288 | /home/ubuntu/reagan-bench2/apps/frappe/frappe/utils/scheduler.py:
Site: reaganerp.com
Queued events for site reaganerp.com
[DEBUG] 2021-09-23 11:01:08,556 | /home/ubuntu/reagan-bench2/apps/frappe/frappe/utils/scheduler.py:
Site: reaganerp.com
Queued events for site reaganerp.com
[DEBUG] 2021-09-23 11:02:08,748 | /home/ubuntu/reagan-bench2/apps/frappe/frappe/utils/scheduler.py:
Site: reaganerp.com
Queued events for site reaganerp.com
[DEBUG] 2021-09-23 11:03:08,949 | /home/ubuntu/reagan-bench2/apps/frappe/frappe/utils/scheduler.py:
Site: reaganerp.com
Queued events for site reaganerp.com
[DEBUG] 2021-09-23 11:04:09,132 | /home/ubuntu/reagan-bench2/apps/frappe/frappe/utils/scheduler.py:
Site: reaganerp.com
Queued events for site reaganerp.com
[DEBUG] 2021-09-23 11:05:09,332 | /home/ubuntu/reagan-bench2/apps/frappe/frappe/utils/scheduler.py:
Site: reaganerp.com
Queued events for site reaganerp.com
[DEBUG] 2021-09-23 11:06:09,547 | /home/ubuntu/reagan-bench2/apps/frappe/frappe/utils/scheduler.py:
Site: reaganerp.com
Queued events for site reaganerp.com
[DEBUG] 2021-09-23 11:07:09,757 | /home/ubuntu/reagan-bench2/apps/frappe/frappe/utils/scheduler.py:
Site: reaganerp.com
Queued events for site reaganerp.com
[DEBUG] 2021-09-23 11:08:09,959 | /home/ubuntu/reagan-bench2/apps/frappe/frappe/utils/scheduler.py:
Site: reaganerp.com
Queued events for site reaganerp.com
[DEBUG] 2021-09-23 11:09:10,159 | /home/ubuntu/reagan-bench2/apps/frappe/frappe/utils/scheduler.py:
Site: reaganerp.com
Queued events for site reaganerp.com
[DEBUG] 2021-09-23 11:10:10,377 | /home/ubuntu/reagan-bench2/apps/frappe/frappe/utils/scheduler.py:
Site: reaganerp.com
Queued events for site reaganerp.com
[DEBUG] 2021-09-23 11:11:10,580 | /home/ubuntu/reagan-bench2/apps/frappe/frappe/utils/scheduler.py:
Site: reaganerp.com
Queued events for site reaganerp.com
[DEBUG] 2021-09-23 11:12:10,772 | /home/ubuntu/reagan-bench2/apps/frappe/frappe/utils/scheduler.py:
Site: reaganerp.com
Queued events for site reaganerp.com
[DEBUG] 2021-09-23 11:13:10,971 | /home/ubuntu/reagan-bench2/apps/frappe/frappe/utils/scheduler.py:
Site: reaganerp.com
Queued events for site reaganerp.com
[DEBUG] 2021-09-23 11:14:11,192 | /home/ubuntu/reagan-bench2/apps/frappe/frappe/utils/scheduler.py:
Site: reaganerp.com
Queued events for site reaganerp.com
[DEBUG] 2021-09-23 11:15:11,411 | /home/ubuntu/reagan-bench2/apps/frappe/frappe/utils/scheduler.py:
Site: reaganerp.com
Queued events for site reaganerp.com
[DEBUG] 2021-09-23 11:16:11,618 | /home/ubuntu/reagan-bench2/apps/frappe/frappe/utils/scheduler.py:
Site: reaganerp.com
Queued events for site reaganerp.com
[DEBUG] 2021-09-23 11:17:11,919 | /home/ubuntu/reagan-bench2/apps/frappe/frappe/utils/scheduler.py:
Site: reaganerp.com
Queued events for site reaganerp.com
[DEBUG] 2021-09-23 11:18:12,109 | /home/ubuntu/reagan-bench2/apps/frappe/frappe/utils/scheduler.py:
Site: reaganerp.com
Queued events for site reaganerp.com
[DEBUG] 2021-09-23 11:19:12,310 | /home/ubuntu/reagan-bench2/apps/frappe/frappe/utils/scheduler.py:
Site: reaganerp.com
Queued events for site reaganerp.com
[DEBUG] 2021-09-23 11:20:12,523 | /home/ubuntu/reagan-bench2/apps/frappe/frappe/utils/scheduler.py:
Site: reaganerp.com
Queued events for site reaganerp.com
[DEBUG] 2021-09-23 11:21:12,781 | /home/ubuntu/reagan-bench2/apps/frappe/frappe/utils/scheduler.py:
Site: reaganerp.com
Queued events for site reaganerp.com
[DEBUG] 2021-09-23 11:22:13,006 | /home/ubuntu/reagan-bench2/apps/frappe/frappe/utils/scheduler.py:
Site: reaganerp.com
Queued events for site reaganerp.com
[DEBUG] 2021-09-23 11:23:13,677 | /home/ubuntu/reagan-bench2/apps/frappe/frappe/utils/scheduler.py:
Site: reaganerp.com
Queued events for site reaganerp.com
[DEBUG] 2021-09-23 11:24:14,044 | /home/ubuntu/reagan-bench2/apps/frappe/frappe/utils/scheduler.py:
Site: reaganerp.com
Queued events for site reaganerp.com
[DEBUG] 2021-09-23 11:25:14,309 | /home/ubuntu/reagan-bench2/apps/frappe/frappe/utils/scheduler.py:
Site: reaganerp.com
Queued events for site reaganerp.com
[DEBUG] 2021-09-23 11:26:14,531 | /home/ubuntu/reagan-bench2/apps/frappe/frappe/utils/scheduler.py:
Site: reaganerp.com
Queued events for site reaganerp.com
[DEBUG] 2021-09-23 11:27:14,806 | /home/ubuntu/reagan-bench2/apps/frappe/frappe/utils/scheduler.py:
Site: reaganerp.com
Queued events for site reaganerp.com
[DEBUG] 2021-09-23 11:28:15,023 | /home/ubuntu/reagan-bench2/apps/frappe/frappe/utils/scheduler.py:
Site: reaganerp.com
Queued events for site reaganerp.com
[DEBUG] 2021-09-23 11:29:15,283 | /home/ubuntu/reagan-bench2/apps/frappe/frappe/utils/scheduler.py:
Site: reaganerp.com
Queued events for site reaganerp.com
[DEBUG] 2021-09-23 11:30:15,600 | /home/ubuntu/reagan-bench2/apps/frappe/frappe/utils/scheduler.py:
Site: reaganerp.com
Queued events for site reaganerp.com
[DEBUG] 2021-09-23 11:31:15,782 | /home/ubuntu/reagan-bench2/apps/frappe/frappe/utils/scheduler.py:
Site: reaganerp.com
Queued events for site reaganerp.com
[DEBUG] 2021-09-23 11:32:15,978 | /home/ubuntu/reagan-bench2/apps/frappe/frappe/utils/scheduler.py:
Site: reaganerp.com
Queued events for site reaganerp.com
[DEBUG] 2021-09-23 11:33:16,363 | /home/ubuntu/reagan-bench2/apps/frappe/frappe/utils/scheduler.py:
Site: reaganerp.com
Queued events for site reaganerp.com
[DEBUG] 2021-09-23 11:34:16,803 | /home/ubuntu/reagan-bench2/apps/frappe/frappe/utils/scheduler.py:
Site: reaganerp.com
Queued events for site reaganerp.com
[DEBUG] 2021-09-23 11:35:17,007 | /home/ubuntu/reagan-bench2/apps/frappe/frappe/utils/scheduler.py:
Site: reaganerp.com
Queued events for site reaganerp.com
[DEBUG] 2021-09-23 11:36:17,234 | /home/ubuntu/reagan-bench2/apps/frappe/frappe/utils/scheduler.py:
Site: reaganerp.com
Queued events for site reaganerp.com
[DEBUG] 2021-09-23 11:37:17,490 | /home/ubuntu/reagan-bench2/apps/frappe/frappe/utils/scheduler.py:
Site: reaganerp.com
Queued events for site reaganerp.com
[DEBUG] 2021-09-23 11:38:17,713 | /home/ubuntu/reagan-bench2/apps/frappe/frappe/utils/scheduler.py:
Site: reaganerp.com
Queued events for site reaganerp.com
[DEBUG] 2021-09-23 11:39:17,934 | /home/ubuntu/reagan-bench2/apps/frappe/frappe/utils/scheduler.py:
Site: reaganerp.com
Queued events for site reaganerp.com
[DEBUG] 2021-09-23 11:40:18,116 | /home/ubuntu/reagan-bench2/apps/frappe/frappe/utils/scheduler.py:
Site: reaganerp.com
Queued events for site reaganerp.com
[DEBUG] 2021-09-23 11:41:18,324 | /home/ubuntu/reagan-bench2/apps/frappe/frappe/utils/scheduler.py:
Site: reaganerp.com
Queued events for site reaganerp.com
[DEBUG] 2021-09-23 11:42:18,535 | /home/ubuntu/reagan-bench2/apps/frappe/frappe/utils/scheduler.py:
Site: reaganerp.com
Queued events for site reaganerp.com
[DEBUG] 2021-09-23 11:43:18,763 | /home/ubuntu/reagan-bench2/apps/frappe/frappe/utils/scheduler.py:
Site: reaganerp.com
Queued events for site reaganerp.com
[DEBUG] 2021-09-23 11:44:18,967 | /home/ubuntu/reagan-bench2/apps/frappe/frappe/utils/scheduler.py:
Site: reaganerp.com
Queued events for site reaganerp.com
[DEBUG] 2021-09-23 11:45:19,258 | /home/ubuntu/reagan-bench2/apps/frappe/frappe/utils/scheduler.py:
Site: reaganerp.com
Queued events for site reaganerp.com
[DEBUG] 2021-09-23 11:46:19,472 | /home/ubuntu/reagan-bench2/apps/frappe/frappe/utils/scheduler.py:
Site: reaganerp.com
Queued events for site reaganerp.com
[DEBUG] 2021-09-23 11:47:19,715 | /home/ubuntu/reagan-bench2/apps/frappe/frappe/utils/scheduler.py:
Site: reaganerp.com
Queued events for site reaganerp.com
[DEBUG] 2021-09-23 11:48:19,919 | /home/ubuntu/reagan-bench2/apps/frappe/frappe/utils/scheduler.py:
Site: reaganerp.com
Queued events for site reaganerp.com
[DEBUG] 2021-09-23 11:49:20,121 | /home/ubuntu/reagan-bench2/apps/frappe/frappe/utils/scheduler.py:
Site: reaganerp.com
Queued events for site reaganerp.com
[DEBUG] 2021-09-23 11:50:20,318 | /home/ubuntu/reagan-bench2/apps/frappe/frappe/utils/scheduler.py:
Site: reaganerp.com
Queued events for site reaganerp.com
[DEBUG] 2021-09-23 11:51:20,501 | /home/ubuntu/reagan-bench2/apps/frappe/frappe/utils/scheduler.py:
Site: reaganerp.com
Queued events for site reaganerp.com
[DEBUG] 2021-09-23 11:52:20,698 | /home/ubuntu/reagan-bench2/apps/frappe/frappe/utils/scheduler.py:
Site: reaganerp.com
Queued events for site reaganerp.com
[DEBUG] 2021-09-23 11:53:20,900 | /home/ubuntu/reagan-bench2/apps/frappe/frappe/utils/scheduler.py:
Site: reaganerp.com
Queued events for site reaganerp.com
[DEBUG] 2021-09-23 11:54:21,094 | /home/ubuntu/reagan-bench2/apps/frappe/frappe/utils/scheduler.py:
Site: reaganerp.com
Queued events for site reaganerp.com
[DEBUG] 2021-09-23 11:55:21,283 | /home/ubuntu/reagan-bench2/apps/frappe/frappe/utils/scheduler.py:
Site: reaganerp.com
Queued events for site reaganerp.com
[DEBUG] 2021-09-23 11:56:21,492 | /home/ubuntu/reagan-bench2/apps/frappe/frappe/utils/scheduler.py:
Site: reaganerp.com
Queued events for site reaganerp.com
[DEBUG] 2021-09-23 11:57:21,702 | /home/ubuntu/reagan-bench2/apps/frappe/frappe/utils/scheduler.py:
Site: reaganerp.com
Queued events for site reaganerp.com
[DEBUG] 2021-09-23 11:58:21,926 | /home/ubuntu/reagan-bench2/apps/frappe/frappe/utils/scheduler.py:
Site: reaganerp.com
Queued events for site reaganerp.com
[DEBUG] 2021-09-23 11:59:22,121 | /home/ubuntu/reagan-bench2/apps/frappe/frappe/utils/scheduler.py:
Site: reaganerp.com
Queued events for site reaganerp.com
[DEBUG] 2021-09-23 12:00:22,464 | /home/ubuntu/reagan-bench2/apps/frappe/frappe/utils/scheduler.py:
Site: reaganerp.com
Queued events for site reaganerp.com
[DEBUG] 2021-09-23 12:01:22,680 | /home/ubuntu/reagan-bench2/apps/frappe/frappe/utils/scheduler.py:
Site: reaganerp.com
Queued events for site reaganerp.com
[DEBUG] 2021-09-23 12:02:22,976 | /home/ubuntu/reagan-bench2/apps/frappe/frappe/utils/scheduler.py:
Site: reaganerp.com
Queued events for site reaganerp.com
[DEBUG] 2021-09-23 12:03:23,184 | /home/ubuntu/reagan-bench2/apps/frappe/frappe/utils/scheduler.py:
Site: reaganerp.com
Queued events for site reaganerp.com
[DEBUG] 2021-09-23 12:04:23,402 | /home/ubuntu/reagan-bench2/apps/frappe/frappe/utils/scheduler.py:
Site: reaganerp.com
Queued events for site reaganerp.com
[DEBUG] 2021-09-23 12:05:23,613 | /home/ubuntu/reagan-bench2/apps/frappe/frappe/utils/scheduler.py:
Site: reaganerp.com
Queued events for site reaganerp.com
[DEBUG] 2021-09-23 12:06:23,840 | /home/ubuntu/reagan-bench2/apps/frappe/frappe/utils/scheduler.py:
Site: reaganerp.com
Queued events for site reaganerp.com
[DEBUG] 2021-09-23 12:07:24,087 | /home/ubuntu/reagan-bench2/apps/frappe/frappe/utils/scheduler.py:
Site: reaganerp.com
Queued events for site reaganerp.com
[DEBUG] 2021-09-23 12:08:24,279 | /home/ubuntu/reagan-bench2/apps/frappe/frappe/utils/scheduler.py:
Site: reaganerp.com
Queued events for site reaganerp.com
[DEBUG] 2021-09-23 12:09:24,474 | /home/ubuntu/reagan-bench2/apps/frappe/frappe/utils/scheduler.py:
Site: reaganerp.com
Queued events for site reaganerp.com
[DEBUG] 2021-09-23 12:10:24,683 | /home/ubuntu/reagan-bench2/apps/frappe/frappe/utils/scheduler.py:
Site: reaganerp.com
Queued events for site reaganerp.com
[DEBUG] 2021-09-23 12:11:24,886 | /home/ubuntu/reagan-bench2/apps/frappe/frappe/utils/scheduler.py:
Site: reaganerp.com
Queued events for site reaganerp.com
[DEBUG] 2021-09-23 12:12:25,076 | /home/ubuntu/reagan-bench2/apps/frappe/frappe/utils/scheduler.py:
Site: reaganerp.com
Queued events for site reaganerp.com
[DEBUG] 2021-09-23 12:13:25,286 | /home/ubuntu/reagan-bench2/apps/frappe/frappe/utils/scheduler.py:
Site: reaganerp.com
Queued events for site reaganerp.com
[DEBUG] 2021-09-23 12:14:25,501 | /home/ubuntu/reagan-bench2/apps/frappe/frappe/utils/scheduler.py:
Site: reaganerp.com
Queued events for site reaganerp.com
[DEBUG] 2021-09-23 12:15:25,711 | /home/ubuntu/reagan-bench2/apps/frappe/frappe/utils/scheduler.py:
Site: reaganerp.com
Queued events for site reaganerp.com
[DEBUG] 2021-09-23 12:16:25,897 | /home/ubuntu/reagan-bench2/apps/frappe/frappe/utils/scheduler.py:
Site: reaganerp.com
Queued events for site reaganerp.com
[DEBUG] 2021-09-23 12:17:26,116 | /home/ubuntu/reagan-bench2/apps/frappe/frappe/utils/scheduler.py:
Site: reaganerp.com
Queued events for site reaganerp.com
[DEBUG] 2021-09-23 12:18:26,333 | /home/ubuntu/reagan-bench2/apps/frappe/frappe/utils/scheduler.py:
Site: reaganerp.com
Queued events for site reaganerp.com
[DEBUG] 2021-09-23 12:19:26,593 | /home/ubuntu/reagan-bench2/apps/frappe/frappe/utils/scheduler.py:
Site: reaganerp.com
Queued events for site reaganerp.com
[DEBUG] 2021-09-23 12:20:26,818 | /home/ubuntu/reagan-bench2/apps/frappe/frappe/utils/scheduler.py:
Site: reaganerp.com
Queued events for site reaganerp.com
[DEBUG] 2021-09-23 12:21:26,985 | /home/ubuntu/reagan-bench2/apps/frappe/frappe/utils/scheduler.py:
Site: reaganerp.com
Queued events for site reaganerp.com
[DEBUG] 2021-09-23 12:22:27,189 | /home/ubuntu/reagan-bench2/apps/frappe/frappe/utils/scheduler.py:
Site: reaganerp.com
Queued events for site reaganerp.com
[DEBUG] 2021-09-23 12:23:27,361 | /home/ubuntu/reagan-bench2/apps/frappe/frappe/utils/scheduler.py:
Site: reaganerp.com
Queued events for site reaganerp.com
[DEBUG] 2021-09-23 12:24:27,557 | /home/ubuntu/reagan-bench2/apps/frappe/frappe/utils/scheduler.py:
Site: reaganerp.com
Queued events for site reaganerp.com
[DEBUG] 2021-09-23 12:25:27,785 | /home/ubuntu/reagan-bench2/apps/frappe/frappe/utils/scheduler.py:
Site: reaganerp.com
Queued events for site reaganerp.com
[DEBUG] 2021-09-23 12:26:28,009 | /home/ubuntu/reagan-bench2/apps/frappe/frappe/utils/scheduler.py:
Site: reaganerp.com
Queued events for site reaganerp.com
[DEBUG] 2021-09-23 12:27:28,344 | /home/ubuntu/reagan-bench2/apps/frappe/frappe/utils/scheduler.py:
Site: reaganerp.com
Queued events for site reaganerp.com
[DEBUG] 2021-09-23 12:28:28,550 | /home/ubuntu/reagan-bench2/apps/frappe/frappe/utils/scheduler.py:
Site: reaganerp.com
Queued events for site reaganerp.com
[DEBUG] 2021-09-23 12:29:28,740 | /home/ubuntu/reagan-bench2/apps/frappe/frappe/utils/scheduler.py:
Site: reaganerp.com
Queued events for site reaganerp.com
[DEBUG] 2021-09-23 12:30:28,989 | /home/ubuntu/reagan-bench2/apps/frappe/frappe/utils/scheduler.py:
Site: reaganerp.com
Queued events for site reaganerp.com
[DEBUG] 2021-09-23 12:31:29,201 | /home/ubuntu/reagan-bench2/apps/frappe/frappe/utils/scheduler.py:
Site: reaganerp.com
Queued events for site reaganerp.com
[DEBUG] 2021-09-23 12:32:29,401 | /home/ubuntu/reagan-bench2/apps/frappe/frappe/utils/scheduler.py:
Site: reaganerp.com
Queued events for site reaganerp.com
[DEBUG] 2021-09-23 12:33:29,613 | /home/ubuntu/reagan-bench2/apps/frappe/frappe/utils/scheduler.py:
Site: reaganerp.com
Queued events for site reaganerp.com
[DEBUG] 2021-09-23 12:34:29,830 | /home/ubuntu/reagan-bench2/apps/frappe/frappe/utils/scheduler.py:
Site: reaganerp.com
Queued events for site reaganerp.com
[DEBUG] 2021-09-23 12:35:30,047 | /home/ubuntu/reagan-bench2/apps/frappe/frappe/utils/scheduler.py:
Site: reaganerp.com
Queued events for site reaganerp.com
[DEBUG] 2021-09-23 12:36:30,349 | /home/ubuntu/reagan-bench2/apps/frappe/frappe/utils/scheduler.py:
Site: reaganerp.com
Queued events for site reaganerp.com
[DEBUG] 2021-09-23 12:37:30,552 | /home/ubuntu/reagan-bench2/apps/frappe/frappe/utils/scheduler.py:
Site: reaganerp.com
Queued events for site reaganerp.com
[DEBUG] 2021-09-23 12:38:30,777 | /home/ubuntu/reagan-bench2/apps/frappe/frappe/utils/scheduler.py:
Site: reaganerp.com
Queued events for site reaganerp.com
[DEBUG] 2021-09-23 12:39:30,971 | /home/ubuntu/reagan-bench2/apps/frappe/frappe/utils/scheduler.py:
Site: reaganerp.com
Queued events for site reaganerp.com
[DEBUG] 2021-09-23 12:40:31,162 | /home/ubuntu/reagan-bench2/apps/frappe/frappe/utils/scheduler.py:
Site: reaganerp.com
Queued events for site reaganerp.com
[DEBUG] 2021-09-23 12:41:31,357 | /home/ubuntu/reagan-bench2/apps/frappe/frappe/utils/scheduler.py:
Site: reaganerp.com
Queued events for site reaganerp.com
[DEBUG] 2021-09-23 12:42:31,670 | /home/ubuntu/reagan-bench2/apps/frappe/frappe/utils/scheduler.py:
Site: reaganerp.com
Queued events for site reaganerp.com
[DEBUG] 2021-09-23 12:43:31,885 | /home/ubuntu/reagan-bench2/apps/frappe/frappe/utils/scheduler.py:
Site: reaganerp.com
Queued events for site reaganerp.com
[DEBUG] 2021-09-23 12:44:32,071 | /home/ubuntu/reagan-bench2/apps/frappe/frappe/utils/scheduler.py:
Site: reaganerp.com
Queued events for site reaganerp.com
[DEBUG] 2021-09-23 12:45:32,278 | /home/ubuntu/reagan-bench2/apps/frappe/frappe/utils/scheduler.py:
Site: reaganerp.com
Queued events for site reaganerp.com
[DEBUG] 2021-09-23 12:46:32,464 | /home/ubuntu/reagan-bench2/apps/frappe/frappe/utils/scheduler.py:
Site: reaganerp.com
Queued events for site reaganerp.com
[DEBUG] 2021-09-23 12:47:32,667 | /home/ubuntu/reagan-bench2/apps/frappe/frappe/utils/scheduler.py:
Site: reaganerp.com
Queued events for site reaganerp.com
[DEBUG] 2021-09-23 12:48:32,865 | /home/ubuntu/reagan-bench2/apps/frappe/frappe/utils/scheduler.py:
Site: reaganerp.com
Queued events for site reaganerp.com
[DEBUG] 2021-09-23 12:49:33,055 | /home/ubuntu/reagan-bench2/apps/frappe/frappe/utils/scheduler.py:
Site: reaganerp.com
Queued events for site reaganerp.com
[DEBUG] 2021-09-23 12:50:33,288 | /home/ubuntu/reagan-bench2/apps/frappe/frappe/utils/scheduler.py:
Site: reaganerp.com
Queued events for site reaganerp.com
[DEBUG] 2021-09-23 12:51:33,504 | /home/ubuntu/reagan-bench2/apps/frappe/frappe/utils/scheduler.py:
Site: reaganerp.com
Queued events for site reaganerp.com
[DEBUG] 2021-09-23 12:52:33,701 | /home/ubuntu/reagan-bench2/apps/frappe/frappe/utils/scheduler.py:
Site: reaganerp.com
Queued events for site reaganerp.com
[DEBUG] 2021-09-23 12:53:33,920 | /home/ubuntu/reagan-bench2/apps/frappe/frappe/utils/scheduler.py:
Site: reaganerp.com
Queued events for site reaganerp.com
[DEBUG] 2021-09-23 12:54:34,142 | /home/ubuntu/reagan-bench2/apps/frappe/frappe/utils/scheduler.py:
Site: reaganerp.com
Queued events for site reaganerp.com
[DEBUG] 2021-09-23 12:55:34,345 | /home/ubuntu/reagan-bench2/apps/frappe/frappe/utils/scheduler.py:
Site: reaganerp.com
Queued events for site reaganerp.com
[DEBUG] 2021-09-23 12:56:34,540 | /home/ubuntu/reagan-bench2/apps/frappe/frappe/utils/scheduler.py:
Site: reaganerp.com
Queued events for site reaganerp.com
[DEBUG] 2021-09-23 12:57:34,878 | /home/ubuntu/reagan-bench2/apps/frappe/frappe/utils/scheduler.py:
Site: reaganerp.com
Queued events for site reaganerp.com
[DEBUG] 2021-09-23 12:58:35,147 | /home/ubuntu/reagan-bench2/apps/frappe/frappe/utils/scheduler.py:
Site: reaganerp.com
Queued events for site reaganerp.com
[DEBUG] 2021-09-23 12:59:35,397 | /home/ubuntu/reagan-bench2/apps/frappe/frappe/utils/scheduler.py:
Site: reaganerp.com
Queued events for site reaganerp.com
[DEBUG] 2021-09-23 13:00:35,708 | /home/ubuntu/reagan-bench2/apps/frappe/frappe/utils/scheduler.py:
Site: reaganerp.com
Queued events for site reaganerp.com
[DEBUG] 2021-09-23 13:01:35,971 | /home/ubuntu/reagan-bench2/apps/frappe/frappe/utils/scheduler.py:
Site: reaganerp.com
Queued events for site reaganerp.com
[DEBUG] 2021-09-23 13:02:36,257 | /home/ubuntu/reagan-bench2/apps/frappe/frappe/utils/scheduler.py:
Site: reaganerp.com
Queued events for site reaganerp.com
[DEBUG] 2021-09-23 13:03:36,499 | /home/ubuntu/reagan-bench2/apps/frappe/frappe/utils/scheduler.py:
Site: reaganerp.com
Queued events for site reaganerp.com
[DEBUG] 2021-09-23 13:04:36,720 | /home/ubuntu/reagan-bench2/apps/frappe/frappe/utils/scheduler.py:
Site: reaganerp.com
Queued events for site reaganerp.com
[DEBUG] 2021-09-23 13:05:36,914 | /home/ubuntu/reagan-bench2/apps/frappe/frappe/utils/scheduler.py:
Site: reaganerp.com
Queued events for site reaganerp.com
[DEBUG] 2021-09-23 13:06:37,140 | /home/ubuntu/reagan-bench2/apps/frappe/frappe/utils/scheduler.py:
Site: reaganerp.com
Queued events for site reaganerp.com
[DEBUG] 2021-09-23 13:07:37,349 | /home/ubuntu/reagan-bench2/apps/frappe/frappe/utils/scheduler.py:
Site: reaganerp.com
Queued events for site reaganerp.com
[DEBUG] 2021-09-23 13:08:37,549 | /home/ubuntu/reagan-bench2/apps/frappe/frappe/utils/scheduler.py:
Site: reaganerp.com
Queued events for site reaganerp.com
[DEBUG] 2021-09-23 13:09:37,824 | /home/ubuntu/reagan-bench2/apps/frappe/frappe/utils/scheduler.py:
Site: reaganerp.com
Queued events for site reaganerp.com
[DEBUG] 2021-09-23 13:10:38,041 | /home/ubuntu/reagan-bench2/apps/frappe/frappe/utils/scheduler.py:
Site: reaganerp.com
Queued events for site reaganerp.com
[DEBUG] 2021-09-23 13:11:38,252 | /home/ubuntu/reagan-bench2/apps/frappe/frappe/utils/scheduler.py:
Site: reaganerp.com
Queued events for site reaganerp.com
[DEBUG] 2021-09-23 13:12:38,446 | /home/ubuntu/reagan-bench2/apps/frappe/frappe/utils/scheduler.py:
Site: reaganerp.com
Queued events for site reaganerp.com
[DEBUG] 2021-09-23 13:13:38,653 | /home/ubuntu/reagan-bench2/apps/frappe/frappe/utils/scheduler.py:
Site: reaganerp.com
Queued events for site reaganerp.com
[DEBUG] 2021-09-23 13:14:38,869 | /home/ubuntu/reagan-bench2/apps/frappe/frappe/utils/scheduler.py:
Site: reaganerp.com
Queued events for site reaganerp.com
[DEBUG] 2021-09-23 13:15:39,084 | /home/ubuntu/reagan-bench2/apps/frappe/frappe/utils/scheduler.py:
Site: reaganerp.com
Queued events for site reaganerp.com
[DEBUG] 2021-09-23 13:16:39,352 | /home/ubuntu/reagan-bench2/apps/frappe/frappe/utils/scheduler.py:
Site: reaganerp.com
Queued events for site reaganerp.com
[DEBUG] 2021-09-23 13:17:39,642 | /home/ubuntu/reagan-bench2/apps/frappe/frappe/utils/scheduler.py:
Site: reaganerp.com
Queued events for site reaganerp.com
[DEBUG] 2021-09-23 13:18:39,837 | /home/ubuntu/reagan-bench2/apps/frappe/frappe/utils/scheduler.py:
Site: reaganerp.com
Queued events for site reaganerp.com
[DEBUG] 2021-09-23 13:19:40,035 | /home/ubuntu/reagan-bench2/apps/frappe/frappe/utils/scheduler.py:
Site: reaganerp.com
Queued events for site reaganerp.com
[DEBUG] 2021-09-23 13:20:40,277 | /home/ubuntu/reagan-bench2/apps/frappe/frappe/utils/scheduler.py:
Site: reaganerp.com
Queued events for site reaganerp.com
[DEBUG] 2021-09-23 13:21:40,479 | /home/ubuntu/reagan-bench2/apps/frappe/frappe/utils/scheduler.py:
Site: reaganerp.com
Queued events for site reaganerp.com
[DEBUG] 2021-09-23 13:22:40,685 | /home/ubuntu/reagan-bench2/apps/frappe/frappe/utils/scheduler.py:
Site: reaganerp.com
Queued events for site reaganerp.com
[DEBUG] 2021-09-23 13:23:40,889 | /home/ubuntu/reagan-bench2/apps/frappe/frappe/utils/scheduler.py:
Site: reaganerp.com
Queued events for site reaganerp.com
[DEBUG] 2021-09-23 13:24:41,091 | /home/ubuntu/reagan-bench2/apps/frappe/frappe/utils/scheduler.py:
Site: reaganerp.com
Queued events for site reaganerp.com
[DEBUG] 2021-09-23 13:25:41,268 | /home/ubuntu/reagan-bench2/apps/frappe/frappe/utils/scheduler.py:
Site: reaganerp.com
Queued events for site reaganerp.com
[DEBUG] 2021-09-23 13:26:41,513 | /home/ubuntu/reagan-bench2/apps/frappe/frappe/utils/scheduler.py:
Site: reaganerp.com
Queued events for site reaganerp.com
[DEBUG] 2021-09-23 13:27:41,721 | /home/ubuntu/reagan-bench2/apps/frappe/frappe/utils/scheduler.py:
Site: reaganerp.com
Queued events for site reaganerp.com
[DEBUG] 2021-09-23 13:28:41,910 | /home/ubuntu/reagan-bench2/apps/frappe/frappe/utils/scheduler.py:
Site: reaganerp.com
Queued events for site reaganerp.com
[DEBUG] 2021-09-23 13:29:42,107 | /home/ubuntu/reagan-bench2/apps/frappe/frappe/utils/scheduler.py:
Site: reaganerp.com
Queued events for site reaganerp.com
[DEBUG] 2021-09-23 13:30:42,364 | /home/ubuntu/reagan-bench2/apps/frappe/frappe/utils/scheduler.py:
Site: reaganerp.com
Queued events for site reaganerp.com
[DEBUG] 2021-09-23 13:31:42,567 | /home/ubuntu/reagan-bench2/apps/frappe/frappe/utils/scheduler.py:
Site: reaganerp.com
Queued events for site reaganerp.com
[DEBUG] 2021-09-23 13:32:42,780 | /home/ubuntu/reagan-bench2/apps/frappe/frappe/utils/scheduler.py:
Site: reaganerp.com
Queued events for site reaganerp.com
[DEBUG] 2021-09-23 13:33:42,983 | /home/ubuntu/reagan-bench2/apps/frappe/frappe/utils/scheduler.py:
Site: reaganerp.com
Queued events for site reaganerp.com
[DEBUG] 2021-09-23 13:34:43,235 | /home/ubuntu/reagan-bench2/apps/frappe/frappe/utils/scheduler.py:
Site: reaganerp.com
Queued events for site reaganerp.com
[DEBUG] 2021-09-23 13:35:43,518 | /home/ubuntu/reagan-bench2/apps/frappe/frappe/utils/scheduler.py:
Site: reaganerp.com
Queued events for site reaganerp.com
[DEBUG] 2021-09-23 13:36:43,728 | /home/ubuntu/reagan-bench2/apps/frappe/frappe/utils/scheduler.py:
Site: reaganerp.com
Queued events for site reaganerp.com
[DEBUG] 2021-09-23 13:37:44,134 | /home/ubuntu/reagan-bench2/apps/frappe/frappe/utils/scheduler.py:
Site: reaganerp.com
Queued events for site reaganerp.com
[DEBUG] 2021-09-23 13:38:44,403 | /home/ubuntu/reagan-bench2/apps/frappe/frappe/utils/scheduler.py:
Site: reaganerp.com
Queued events for site reaganerp.com
[DEBUG] 2021-09-23 13:39:44,601 | /home/ubuntu/reagan-bench2/apps/frappe/frappe/utils/scheduler.py:
Site: reaganerp.com
Queued events for site reaganerp.com
[DEBUG] 2021-09-23 13:40:44,797 | /home/ubuntu/reagan-bench2/apps/frappe/frappe/utils/scheduler.py:
Site: reaganerp.com
Queued events for site reaganerp.com
[DEBUG] 2021-09-23 13:41:44,979 | /home/ubuntu/reagan-bench2/apps/frappe/frappe/utils/scheduler.py:
Site: reaganerp.com
Queued events for site reaganerp.com
[DEBUG] 2021-09-23 13:42:45,183 | /home/ubuntu/reagan-bench2/apps/frappe/frappe/utils/scheduler.py:
Site: reaganerp.com
Queued events for site reaganerp.com
[DEBUG] 2021-09-23 13:43:45,412 | /home/ubuntu/reagan-bench2/apps/frappe/frappe/utils/scheduler.py:
Site: reaganerp.com
Queued events for site reaganerp.com
[DEBUG] 2021-09-23 13:44:45,657 | /home/ubuntu/reagan-bench2/apps/frappe/frappe/utils/scheduler.py:
Site: reaganerp.com
Queued events for site reaganerp.com
[DEBUG] 2021-09-23 13:45:45,878 | /home/ubuntu/reagan-bench2/apps/frappe/frappe/utils/scheduler.py:
Site: reaganerp.com
Queued events for site reaganerp.com
[DEBUG] 2021-09-23 13:46:46,107 | /home/ubuntu/reagan-bench2/apps/frappe/frappe/utils/scheduler.py:
Site: reaganerp.com
Queued events for site reaganerp.com
[DEBUG] 2021-09-23 13:47:46,320 | /home/ubuntu/reagan-bench2/apps/frappe/frappe/utils/scheduler.py:
Site: reaganerp.com
Queued events for site reaganerp.com
[DEBUG] 2021-09-23 13:48:46,499 | /home/ubuntu/reagan-bench2/apps/frappe/frappe/utils/scheduler.py:
Site: reaganerp.com
Queued events for site reaganerp.com
[DEBUG] 2021-09-23 13:49:46,707 | /home/ubuntu/reagan-bench2/apps/frappe/frappe/utils/scheduler.py:
Site: reaganerp.com
Queued events for site reaganerp.com
[DEBUG] 2021-09-23 13:50:46,950 | /home/ubuntu/reagan-bench2/apps/frappe/frappe/utils/scheduler.py:
Site: reaganerp.com
Queued events for site reaganerp.com
[DEBUG] 2021-09-23 13:51:47,149 | /home/ubuntu/reagan-bench2/apps/frappe/frappe/utils/scheduler.py:
Site: reaganerp.com
Queued events for site reaganerp.com
[DEBUG] 2021-09-23 13:52:47,357 | /home/ubuntu/reagan-bench2/apps/frappe/frappe/utils/scheduler.py:
Site: reaganerp.com
Queued events for site reaganerp.com
[DEBUG] 2021-09-23 13:53:47,640 | /home/ubuntu/reagan-bench2/apps/frappe/frappe/utils/scheduler.py:
Site: reaganerp.com
Queued events for site reaganerp.com
[DEBUG] 2021-09-23 13:54:47,853 | /home/ubuntu/reagan-bench2/apps/frappe/frappe/utils/scheduler.py:
Site: reaganerp.com
Queued events for site reaganerp.com
[DEBUG] 2021-09-23 13:55:48,097 | /home/ubuntu/reagan-bench2/apps/frappe/frappe/utils/scheduler.py:
Site: reaganerp.com
Queued events for site reaganerp.com
[DEBUG] 2021-09-23 13:56:48,302 | /home/ubuntu/reagan-bench2/apps/frappe/frappe/utils/scheduler.py:
Site: reaganerp.com
Queued events for site reaganerp.com
[DEBUG] 2021-09-23 13:57:48,520 | /home/ubuntu/reagan-bench2/apps/frappe/frappe/utils/scheduler.py:
Site: reaganerp.com
Queued events for site reaganerp.com
[DEBUG] 2021-09-23 13:58:48,730 | /home/ubuntu/reagan-bench2/apps/frappe/frappe/utils/scheduler.py:
Site: reaganerp.com
Queued events for site reaganerp.com
[DEBUG] 2021-09-23 13:59:48,921 | /home/ubuntu/reagan-bench2/apps/frappe/frappe/utils/scheduler.py:
Site: reaganerp.com
Queued events for site reaganerp.com
[DEBUG] 2021-09-23 14:00:49,125 | /home/ubuntu/reagan-bench2/apps/frappe/frappe/utils/scheduler.py:
Site: reaganerp.com
Queued events for site reaganerp.com
[DEBUG] 2021-09-23 14:01:49,335 | /home/ubuntu/reagan-bench2/apps/frappe/frappe/utils/scheduler.py:
Site: reaganerp.com
Queued events for site reaganerp.com
[DEBUG] 2021-09-23 14:02:49,554 | /home/ubuntu/reagan-bench2/apps/frappe/frappe/utils/scheduler.py:
Site: reaganerp.com
Queued events for site reaganerp.com
[DEBUG] 2021-09-23 14:03:49,752 | /home/ubuntu/reagan-bench2/apps/frappe/frappe/utils/scheduler.py:
Site: reaganerp.com
Queued events for site reaganerp.com
[DEBUG] 2021-09-23 14:04:49,934 | /home/ubuntu/reagan-bench2/apps/frappe/frappe/utils/scheduler.py:
Site: reaganerp.com
Queued events for site reaganerp.com
[DEBUG] 2021-09-23 14:05:50,142 | /home/ubuntu/reagan-bench2/apps/frappe/frappe/utils/scheduler.py:
Site: reaganerp.com
Queued events for site reaganerp.com
[DEBUG] 2021-09-23 14:06:50,358 | /home/ubuntu/reagan-bench2/apps/frappe/frappe/utils/scheduler.py:
Site: reaganerp.com
Queued events for site reaganerp.com
[DEBUG] 2021-09-23 14:07:50,560 | /home/ubuntu/reagan-bench2/apps/frappe/frappe/utils/scheduler.py:
Site: reaganerp.com
Queued events for site reaganerp.com
[DEBUG] 2021-09-23 14:08:50,764 | /home/ubuntu/reagan-bench2/apps/frappe/frappe/utils/scheduler.py:
Site: reaganerp.com
Queued events for site reaganerp.com
[DEBUG] 2021-09-23 14:09:50,961 | /home/ubuntu/reagan-bench2/apps/frappe/frappe/utils/scheduler.py:
Site: reaganerp.com
Queued events for site reaganerp.com
[DEBUG] 2021-09-23 14:10:51,170 | /home/ubuntu/reagan-bench2/apps/frappe/frappe/utils/scheduler.py:
Site: reaganerp.com
Queued events for site reaganerp.com
[DEBUG] 2021-09-23 14:11:51,356 | /home/ubuntu/reagan-bench2/apps/frappe/frappe/utils/scheduler.py:
Site: reaganerp.com
Queued events for site reaganerp.com
[DEBUG] 2021-09-23 14:12:51,573 | /home/ubuntu/reagan-bench2/apps/frappe/frappe/utils/scheduler.py:
Site: reaganerp.com
Queued events for site reaganerp.com
[DEBUG] 2021-09-23 14:13:51,797 | /home/ubuntu/reagan-bench2/apps/frappe/frappe/utils/scheduler.py:
Site: reaganerp.com
Queued events for site reaganerp.com
[DEBUG] 2021-09-23 14:14:52,003 | /home/ubuntu/reagan-bench2/apps/frappe/frappe/utils/scheduler.py:
Site: reaganerp.com
Queued events for site reaganerp.com
[DEBUG] 2021-09-23 14:15:52,193 | /home/ubuntu/reagan-bench2/apps/frappe/frappe/utils/scheduler.py:
Site: reaganerp.com
Queued events for site reaganerp.com
[DEBUG] 2021-09-23 14:16:52,414 | /home/ubuntu/reagan-bench2/apps/frappe/frappe/utils/scheduler.py:
Site: reaganerp.com
Queued events for site reaganerp.com
[DEBUG] 2021-09-23 14:17:52,613 | /home/ubuntu/reagan-bench2/apps/frappe/frappe/utils/scheduler.py:
Site: reaganerp.com
Queued events for site reaganerp.com
[DEBUG] 2021-09-23 14:18:52,832 | /home/ubuntu/reagan-bench2/apps/frappe/frappe/utils/scheduler.py:
Site: reaganerp.com
Queued events for site reaganerp.com
[DEBUG] 2021-09-23 14:19:53,088 | /home/ubuntu/reagan-bench2/apps/frappe/frappe/utils/scheduler.py:
Site: reaganerp.com
Queued events for site reaganerp.com
[DEBUG] 2021-09-23 14:20:53,284 | /home/ubuntu/reagan-bench2/apps/frappe/frappe/utils/scheduler.py:
Site: reaganerp.com
Queued events for site reaganerp.com
[DEBUG] 2021-09-23 14:21:53,503 | /home/ubuntu/reagan-bench2/apps/frappe/frappe/utils/scheduler.py:
Site: reaganerp.com
Queued events for site reaganerp.com
[DEBUG] 2021-09-23 14:22:53,745 | /home/ubuntu/reagan-bench2/apps/frappe/frappe/utils/scheduler.py:
Site: reaganerp.com
Queued events for site reaganerp.com
[DEBUG] 2021-09-23 14:23:53,942 | /home/ubuntu/reagan-bench2/apps/frappe/frappe/utils/scheduler.py:
Site: reaganerp.com
Queued events for site reaganerp.com
[DEBUG] 2021-09-23 14:24:54,145 | /home/ubuntu/reagan-bench2/apps/frappe/frappe/utils/scheduler.py:
Site: reaganerp.com
Queued events for site reaganerp.com
[DEBUG] 2021-09-23 14:25:54,380 | /home/ubuntu/reagan-bench2/apps/frappe/frappe/utils/scheduler.py:
Site: reaganerp.com
Queued events for site reaganerp.com
[DEBUG] 2021-09-23 14:26:54,713 | /home/ubuntu/reagan-bench2/apps/frappe/frappe/utils/scheduler.py:
Site: reaganerp.com
Queued events for site reaganerp.com
[DEBUG] 2021-09-23 14:27:56,312 | /home/ubuntu/reagan-bench2/apps/frappe/frappe/utils/scheduler.py:
Site: reaganerp.com
Queued events for site reaganerp.com
[DEBUG] 2021-09-23 14:28:57,099 | /home/ubuntu/reagan-bench2/apps/frappe/frappe/utils/scheduler.py:
Site: reaganerp.com
Queued events for site reaganerp.com
[DEBUG] 2021-09-23 14:29:57,344 | /home/ubuntu/reagan-bench2/apps/frappe/frappe/utils/scheduler.py:
Site: reaganerp.com
Queued events for site reaganerp.com
[DEBUG] 2021-09-23 14:30:57,630 | /home/ubuntu/reagan-bench2/apps/frappe/frappe/utils/scheduler.py:
Site: reaganerp.com
Queued events for site reaganerp.com
[DEBUG] 2021-09-23 14:31:57,811 | /home/ubuntu/reagan-bench2/apps/frappe/frappe/utils/scheduler.py:
Site: reaganerp.com
Queued events for site reaganerp.com
[DEBUG] 2021-09-23 14:32:58,024 | /home/ubuntu/reagan-bench2/apps/frappe/frappe/utils/scheduler.py:
Site: reaganerp.com
Queued events for site reaganerp.com
[DEBUG] 2021-09-23 14:33:58,230 | /home/ubuntu/reagan-bench2/apps/frappe/frappe/utils/scheduler.py:
Site: reaganerp.com
Queued events for site reaganerp.com
[DEBUG] 2021-09-23 14:34:58,446 | /home/ubuntu/reagan-bench2/apps/frappe/frappe/utils/scheduler.py:
Site: reaganerp.com
Queued events for site reaganerp.com
[DEBUG] 2021-09-23 14:35:58,648 | /home/ubuntu/reagan-bench2/apps/frappe/frappe/utils/scheduler.py:
Site: reaganerp.com
Queued events for site reaganerp.com
[DEBUG] 2021-09-23 14:36:58,814 | /home/ubuntu/reagan-bench2/apps/frappe/frappe/utils/scheduler.py:
Site: reaganerp.com
Queued events for site reaganerp.com
[DEBUG] 2021-09-23 14:37:58,992 | /home/ubuntu/reagan-bench2/apps/frappe/frappe/utils/scheduler.py:
Site: reaganerp.com
Queued events for site reaganerp.com
[DEBUG] 2021-09-23 14:38:59,216 | /home/ubuntu/reagan-bench2/apps/frappe/frappe/utils/scheduler.py:
Site: reaganerp.com
Queued events for site reaganerp.com
[DEBUG] 2021-09-23 14:39:59,401 | /home/ubuntu/reagan-bench2/apps/frappe/frappe/utils/scheduler.py:
Site: reaganerp.com
Queued events for site reaganerp.com
[DEBUG] 2021-09-23 14:40:59,617 | /home/ubuntu/reagan-bench2/apps/frappe/frappe/utils/scheduler.py:
Site: reaganerp.com
Queued events for site reaganerp.com
[DEBUG] 2021-09-23 14:41:59,823 | /home/ubuntu/reagan-bench2/apps/frappe/frappe/utils/scheduler.py:
Site: reaganerp.com
Queued events for site reaganerp.com
[DEBUG] 2021-09-23 14:43:00,036 | /home/ubuntu/reagan-bench2/apps/frappe/frappe/utils/scheduler.py:
Site: reaganerp.com
Queued events for site reaganerp.com
[DEBUG] 2021-09-23 14:44:00,246 | /home/ubuntu/reagan-bench2/apps/frappe/frappe/utils/scheduler.py:
Site: reaganerp.com
Queued events for site reaganerp.com
[DEBUG] 2021-09-23 14:45:00,440 | /home/ubuntu/reagan-bench2/apps/frappe/frappe/utils/scheduler.py:
Site: reaganerp.com
Queued events for site reaganerp.com
[DEBUG] 2021-09-23 14:46:00,632 | /home/ubuntu/reagan-bench2/apps/frappe/frappe/utils/scheduler.py:
Site: reaganerp.com
Queued events for site reaganerp.com
[DEBUG] 2021-09-23 14:47:00,842 | /home/ubuntu/reagan-bench2/apps/frappe/frappe/utils/scheduler.py:
Site: reaganerp.com
Queued events for site reaganerp.com
[DEBUG] 2021-09-23 14:48:01,054 | /home/ubuntu/reagan-bench2/apps/frappe/frappe/utils/scheduler.py:
Site: reaganerp.com
Queued events for site reaganerp.com
[DEBUG] 2021-09-23 14:49:01,260 | /home/ubuntu/reagan-bench2/apps/frappe/frappe/utils/scheduler.py:
Site: reaganerp.com
Queued events for site reaganerp.com
[DEBUG] 2021-09-23 14:50:01,473 | /home/ubuntu/reagan-bench2/apps/frappe/frappe/utils/scheduler.py:
Site: reaganerp.com
Queued events for site reaganerp.com
[DEBUG] 2021-09-23 14:51:01,657 | /home/ubuntu/reagan-bench2/apps/frappe/frappe/utils/scheduler.py:
Site: reaganerp.com
Queued events for site reaganerp.com
[DEBUG] 2021-09-23 14:52:01,868 | /home/ubuntu/reagan-bench2/apps/frappe/frappe/utils/scheduler.py:
Site: reaganerp.com
Queued events for site reaganerp.com
[DEBUG] 2021-09-23 14:53:02,072 | /home/ubuntu/reagan-bench2/apps/frappe/frappe/utils/scheduler.py:
Site: reaganerp.com
Queued events for site reaganerp.com
[DEBUG] 2021-09-23 14:54:02,286 | /home/ubuntu/reagan-bench2/apps/frappe/frappe/utils/scheduler.py:
Site: reaganerp.com
Queued events for site reaganerp.com
[DEBUG] 2021-09-23 14:55:02,506 | /home/ubuntu/reagan-bench2/apps/frappe/frappe/utils/scheduler.py:
Site: reaganerp.com
Queued events for site reaganerp.com
[DEBUG] 2021-09-23 14:56:02,720 | /home/ubuntu/reagan-bench2/apps/frappe/frappe/utils/scheduler.py:
Site: reaganerp.com
Queued events for site reaganerp.com
[DEBUG] 2021-09-23 14:57:02,940 | /home/ubuntu/reagan-bench2/apps/frappe/frappe/utils/scheduler.py:
Site: reaganerp.com
Queued events for site reaganerp.com
[DEBUG] 2021-09-23 14:58:03,162 | /home/ubuntu/reagan-bench2/apps/frappe/frappe/utils/scheduler.py:
Site: reaganerp.com
Queued events for site reaganerp.com
[DEBUG] 2021-09-23 14:59:03,356 | /home/ubuntu/reagan-bench2/apps/frappe/frappe/utils/scheduler.py:
Site: reaganerp.com
Queued events for site reaganerp.com
[DEBUG] 2021-09-23 15:00:03,545 | /home/ubuntu/reagan-bench2/apps/frappe/frappe/utils/scheduler.py:
Site: reaganerp.com
Queued events for site reaganerp.com
[DEBUG] 2021-09-23 15:04:42,294 | /home/ubuntu/reagan-bench2/apps/frappe/frappe/utils/scheduler.py:
Site: reaganerp.com
Queued events for site reaganerp.com
[DEBUG] 2021-09-23 15:05:42,510 | /home/ubuntu/reagan-bench2/apps/frappe/frappe/utils/scheduler.py:
Site: reaganerp.com
Queued events for site reaganerp.com
[DEBUG] 2021-09-23 15:06:42,729 | /home/ubuntu/reagan-bench2/apps/frappe/frappe/utils/scheduler.py:
Site: reaganerp.com
Queued events for site reaganerp.com
[DEBUG] 2021-09-23 15:07:42,914 | /home/ubuntu/reagan-bench2/apps/frappe/frappe/utils/scheduler.py:
Site: reaganerp.com
Queued events for site reaganerp.com
[DEBUG] 2021-09-23 15:08:43,121 | /home/ubuntu/reagan-bench2/apps/frappe/frappe/utils/scheduler.py:
Site: reaganerp.com
Queued events for site reaganerp.com
[DEBUG] 2021-09-23 15:09:43,334 | /home/ubuntu/reagan-bench2/apps/frappe/frappe/utils/scheduler.py:
Site: reaganerp.com
Queued events for site reaganerp.com
[DEBUG] 2021-09-23 15:10:43,550 | /home/ubuntu/reagan-bench2/apps/frappe/frappe/utils/scheduler.py:
Site: reaganerp.com
Queued events for site reaganerp.com
[DEBUG] 2021-09-23 15:11:43,768 | /home/ubuntu/reagan-bench2/apps/frappe/frappe/utils/scheduler.py:
Site: reaganerp.com
Queued events for site reaganerp.com
[DEBUG] 2021-09-23 15:12:43,989 | /home/ubuntu/reagan-bench2/apps/frappe/frappe/utils/scheduler.py:
Site: reaganerp.com
Queued events for site reaganerp.com
[DEBUG] 2021-09-23 15:13:44,205 | /home/ubuntu/reagan-bench2/apps/frappe/frappe/utils/scheduler.py:
Site: reaganerp.com
Queued events for site reaganerp.com
[DEBUG] 2021-09-23 15:14:44,410 | /home/ubuntu/reagan-bench2/apps/frappe/frappe/utils/scheduler.py:
Site: reaganerp.com
Queued events for site reaganerp.com
[DEBUG] 2021-09-23 15:15:44,601 | /home/ubuntu/reagan-bench2/apps/frappe/frappe/utils/scheduler.py:
Site: reaganerp.com
Queued events for site reaganerp.com
[DEBUG] 2021-09-23 15:16:44,796 | /home/ubuntu/reagan-bench2/apps/frappe/frappe/utils/scheduler.py:
Site: reaganerp.com
Queued events for site reaganerp.com
[DEBUG] 2021-09-23 15:17:44,999 | /home/ubuntu/reagan-bench2/apps/frappe/frappe/utils/scheduler.py:
Site: reaganerp.com
Queued events for site reaganerp.com
[DEBUG] 2021-09-23 15:18:45,207 | /home/ubuntu/reagan-bench2/apps/frappe/frappe/utils/scheduler.py:
Site: reaganerp.com
Queued events for site reaganerp.com
[DEBUG] 2021-09-23 15:19:45,419 | /home/ubuntu/reagan-bench2/apps/frappe/frappe/utils/scheduler.py:
Site: reaganerp.com
Queued events for site reaganerp.com
[DEBUG] 2021-09-23 15:20:45,616 | /home/ubuntu/reagan-bench2/apps/frappe/frappe/utils/scheduler.py:
Site: reaganerp.com
Queued events for site reaganerp.com
[DEBUG] 2021-09-23 15:21:45,810 | /home/ubuntu/reagan-bench2/apps/frappe/frappe/utils/scheduler.py:
Site: reaganerp.com
Queued events for site reaganerp.com
[DEBUG] 2021-09-23 15:22:46,022 | /home/ubuntu/reagan-bench2/apps/frappe/frappe/utils/scheduler.py:
Site: reaganerp.com
Queued events for site reaganerp.com
[DEBUG] 2021-09-23 15:23:46,207 | /home/ubuntu/reagan-bench2/apps/frappe/frappe/utils/scheduler.py:
Site: reaganerp.com
Queued events for site reaganerp.com
[DEBUG] 2021-09-23 15:24:46,381 | /home/ubuntu/reagan-bench2/apps/frappe/frappe/utils/scheduler.py:
Site: reaganerp.com
Queued events for site reaganerp.com
[DEBUG] 2021-09-23 15:25:46,600 | /home/ubuntu/reagan-bench2/apps/frappe/frappe/utils/scheduler.py:
Site: reaganerp.com
Queued events for site reaganerp.com
[DEBUG] 2021-09-23 15:26:46,795 | /home/ubuntu/reagan-bench2/apps/frappe/frappe/utils/scheduler.py:
Site: reaganerp.com
Queued events for site reaganerp.com
[DEBUG] 2021-09-23 15:27:47,140 | /home/ubuntu/reagan-bench2/apps/frappe/frappe/utils/scheduler.py:
Site: reaganerp.com
Queued events for site reaganerp.com
[DEBUG] 2021-09-23 15:28:47,325 | /home/ubuntu/reagan-bench2/apps/frappe/frappe/utils/scheduler.py:
Site: reaganerp.com
Queued events for site reaganerp.com
[DEBUG] 2021-09-23 15:29:47,630 | /home/ubuntu/reagan-bench2/apps/frappe/frappe/utils/scheduler.py:
Site: reaganerp.com
Queued events for site reaganerp.com
[DEBUG] 2021-09-23 15:30:47,907 | /home/ubuntu/reagan-bench2/apps/frappe/frappe/utils/scheduler.py:
Site: reaganerp.com
Queued events for site reaganerp.com
[DEBUG] 2021-09-23 15:31:48,115 | /home/ubuntu/reagan-bench2/apps/frappe/frappe/utils/scheduler.py:
Site: reaganerp.com
Queued events for site reaganerp.com
[DEBUG] 2021-09-23 15:32:48,327 | /home/ubuntu/reagan-bench2/apps/frappe/frappe/utils/scheduler.py:
Site: reaganerp.com
Queued events for site reaganerp.com
[DEBUG] 2021-09-23 15:33:48,563 | /home/ubuntu/reagan-bench2/apps/frappe/frappe/utils/scheduler.py:
Site: reaganerp.com
Queued events for site reaganerp.com
[DEBUG] 2021-09-23 15:34:48,889 | /home/ubuntu/reagan-bench2/apps/frappe/frappe/utils/scheduler.py:
Site: reaganerp.com
Queued events for site reaganerp.com
[DEBUG] 2021-09-23 15:35:49,085 | /home/ubuntu/reagan-bench2/apps/frappe/frappe/utils/scheduler.py:
Site: reaganerp.com
Queued events for site reaganerp.com
[DEBUG] 2021-09-23 15:36:49,277 | /home/ubuntu/reagan-bench2/apps/frappe/frappe/utils/scheduler.py:
Site: reaganerp.com
Queued events for site reaganerp.com
[DEBUG] 2021-09-23 15:37:49,523 | /home/ubuntu/reagan-bench2/apps/frappe/frappe/utils/scheduler.py:
Site: reaganerp.com
Queued events for site reaganerp.com
[DEBUG] 2021-09-23 15:38:49,695 | /home/ubuntu/reagan-bench2/apps/frappe/frappe/utils/scheduler.py:
Site: reaganerp.com
Queued events for site reaganerp.com
[DEBUG] 2021-09-23 15:39:50,681 | /home/ubuntu/reagan-bench2/apps/frappe/frappe/utils/scheduler.py:
Site: reaganerp.com
Queued events for site reaganerp.com
[DEBUG] 2021-09-23 15:40:50,873 | /home/ubuntu/reagan-bench2/apps/frappe/frappe/utils/scheduler.py:
Site: reaganerp.com
Queued events for site reaganerp.com
[DEBUG] 2021-09-23 15:41:51,147 | /home/ubuntu/reagan-bench2/apps/frappe/frappe/utils/scheduler.py:
Site: reaganerp.com
Queued events for site reaganerp.com
[DEBUG] 2021-09-23 15:42:51,435 | /home/ubuntu/reagan-bench2/apps/frappe/frappe/utils/scheduler.py:
Site: reaganerp.com
Queued events for site reaganerp.com
[DEBUG] 2021-09-23 15:43:51,748 | /home/ubuntu/reagan-bench2/apps/frappe/frappe/utils/scheduler.py:
Site: reaganerp.com
Queued events for site reaganerp.com
[DEBUG] 2021-09-23 15:44:51,988 | /home/ubuntu/reagan-bench2/apps/frappe/frappe/utils/scheduler.py:
Site: reaganerp.com
Queued events for site reaganerp.com
[DEBUG] 2021-09-23 15:45:52,159 | /home/ubuntu/reagan-bench2/apps/frappe/frappe/utils/scheduler.py:
Site: reaganerp.com
Queued events for site reaganerp.com
[DEBUG] 2021-09-23 15:46:52,446 | /home/ubuntu/reagan-bench2/apps/frappe/frappe/utils/scheduler.py:
Site: reaganerp.com
Queued events for site reaganerp.com
[DEBUG] 2021-09-23 15:47:52,681 | /home/ubuntu/reagan-bench2/apps/frappe/frappe/utils/scheduler.py:
Site: reaganerp.com
Queued events for site reaganerp.com
[DEBUG] 2021-09-23 15:48:52,891 | /home/ubuntu/reagan-bench2/apps/frappe/frappe/utils/scheduler.py:
Site: reaganerp.com
Queued events for site reaganerp.com
[DEBUG] 2021-09-23 15:49:53,102 | /home/ubuntu/reagan-bench2/apps/frappe/frappe/utils/scheduler.py:
Site: reaganerp.com
Queued events for site reaganerp.com
[DEBUG] 2021-09-23 15:50:53,321 | /home/ubuntu/reagan-bench2/apps/frappe/frappe/utils/scheduler.py:
Site: reaganerp.com
Queued events for site reaganerp.com
[DEBUG] 2021-09-23 15:51:53,528 | /home/ubuntu/reagan-bench2/apps/frappe/frappe/utils/scheduler.py:
Site: reaganerp.com
Queued events for site reaganerp.com
[DEBUG] 2021-09-23 15:52:53,754 | /home/ubuntu/reagan-bench2/apps/frappe/frappe/utils/scheduler.py:
Site: reaganerp.com
Queued events for site reaganerp.com
[DEBUG] 2021-09-23 15:53:53,953 | /home/ubuntu/reagan-bench2/apps/frappe/frappe/utils/scheduler.py:
Site: reaganerp.com
Queued events for site reaganerp.com
[DEBUG] 2021-09-23 15:54:54,162 | /home/ubuntu/reagan-bench2/apps/frappe/frappe/utils/scheduler.py:
Site: reaganerp.com
Queued events for site reaganerp.com
[DEBUG] 2021-09-23 15:55:54,363 | /home/ubuntu/reagan-bench2/apps/frappe/frappe/utils/scheduler.py:
Site: reaganerp.com
Queued events for site reaganerp.com
[DEBUG] 2021-09-23 15:56:54,573 | /home/ubuntu/reagan-bench2/apps/frappe/frappe/utils/scheduler.py:
Site: reaganerp.com
Queued events for site reaganerp.com
[DEBUG] 2021-09-23 15:57:54,784 | /home/ubuntu/reagan-bench2/apps/frappe/frappe/utils/scheduler.py:
Site: reaganerp.com
Queued events for site reaganerp.com
[DEBUG] 2021-09-23 15:58:54,977 | /home/ubuntu/reagan-bench2/apps/frappe/frappe/utils/scheduler.py:
Site: reaganerp.com
Queued events for site reaganerp.com
[DEBUG] 2021-09-23 15:59:55,148 | /home/ubuntu/reagan-bench2/apps/frappe/frappe/utils/scheduler.py:
Site: reaganerp.com
Queued events for site reaganerp.com
[DEBUG] 2021-09-23 16:00:55,301 | /home/ubuntu/reagan-bench2/apps/frappe/frappe/utils/scheduler.py:
Site: reaganerp.com
Queued events for site reaganerp.com
[DEBUG] 2021-09-23 16:01:55,615 | /home/ubuntu/reagan-bench2/apps/frappe/frappe/utils/scheduler.py:
Site: reaganerp.com
Queued events for site reaganerp.com
[DEBUG] 2021-09-23 16:02:55,779 | /home/ubuntu/reagan-bench2/apps/frappe/frappe/utils/scheduler.py:
Site: reaganerp.com
Queued events for site reaganerp.com
[DEBUG] 2021-09-23 16:03:55,970 | /home/ubuntu/reagan-bench2/apps/frappe/frappe/utils/scheduler.py:
Site: reaganerp.com
Queued events for site reaganerp.com
[DEBUG] 2021-09-23 16:04:56,265 | /home/ubuntu/reagan-bench2/apps/frappe/frappe/utils/scheduler.py:
Site: reaganerp.com
Queued events for site reaganerp.com
[DEBUG] 2021-09-23 16:05:56,424 | /home/ubuntu/reagan-bench2/apps/frappe/frappe/utils/scheduler.py:
Site: reaganerp.com
Queued events for site reaganerp.com
[DEBUG] 2021-09-23 16:06:56,584 | /home/ubuntu/reagan-bench2/apps/frappe/frappe/utils/scheduler.py:
Site: reaganerp.com
Queued events for site reaganerp.com
[DEBUG] 2021-09-23 16:07:56,757 | /home/ubuntu/reagan-bench2/apps/frappe/frappe/utils/scheduler.py:
Site: reaganerp.com
Queued events for site reaganerp.com
[DEBUG] 2021-09-23 16:08:57,005 | /home/ubuntu/reagan-bench2/apps/frappe/frappe/utils/scheduler.py:
Site: reaganerp.com
Queued events for site reaganerp.com
[DEBUG] 2021-09-23 16:09:57,223 | /home/ubuntu/reagan-bench2/apps/frappe/frappe/utils/scheduler.py:
Site: reaganerp.com
Queued events for site reaganerp.com
[DEBUG] 2021-09-23 16:10:57,777 | /home/ubuntu/reagan-bench2/apps/frappe/frappe/utils/scheduler.py:
Site: reaganerp.com
Queued events for site reaganerp.com
[DEBUG] 2021-09-23 16:11:57,986 | /home/ubuntu/reagan-bench2/apps/frappe/frappe/utils/scheduler.py:
Site: reaganerp.com
Queued events for site reaganerp.com
[DEBUG] 2021-09-23 16:12:58,172 | /home/ubuntu/reagan-bench2/apps/frappe/frappe/utils/scheduler.py:
Site: reaganerp.com
Queued events for site reaganerp.com
[DEBUG] 2021-09-23 16:13:58,387 | /home/ubuntu/reagan-bench2/apps/frappe/frappe/utils/scheduler.py:
Site: reaganerp.com
Queued events for site reaganerp.com
[DEBUG] 2021-09-23 16:14:58,609 | /home/ubuntu/reagan-bench2/apps/frappe/frappe/utils/scheduler.py:
Site: reaganerp.com
Queued events for site reaganerp.com
[DEBUG] 2021-09-23 16:15:58,816 | /home/ubuntu/reagan-bench2/apps/frappe/frappe/utils/scheduler.py:
Site: reaganerp.com
Queued events for site reaganerp.com
[DEBUG] 2021-09-23 16:16:59,040 | /home/ubuntu/reagan-bench2/apps/frappe/frappe/utils/scheduler.py:
Site: reaganerp.com
Queued events for site reaganerp.com
[DEBUG] 2021-09-23 16:17:59,234 | /home/ubuntu/reagan-bench2/apps/frappe/frappe/utils/scheduler.py:
Site: reaganerp.com
Queued events for site reaganerp.com
[DEBUG] 2021-09-23 16:18:59,447 | /home/ubuntu/reagan-bench2/apps/frappe/frappe/utils/scheduler.py:
Site: reaganerp.com
Queued events for site reaganerp.com
[DEBUG] 2021-09-23 16:19:59,813 | /home/ubuntu/reagan-bench2/apps/frappe/frappe/utils/scheduler.py:
Site: reaganerp.com
Queued events for site reaganerp.com
[DEBUG] 2021-09-23 16:21:00,000 | /home/ubuntu/reagan-bench2/apps/frappe/frappe/utils/scheduler.py:
Site: reaganerp.com
Queued events for site reaganerp.com
[DEBUG] 2021-09-23 16:22:00,244 | /home/ubuntu/reagan-bench2/apps/frappe/frappe/utils/scheduler.py:
Site: reaganerp.com
Queued events for site reaganerp.com
[DEBUG] 2021-09-23 16:23:00,463 | /home/ubuntu/reagan-bench2/apps/frappe/frappe/utils/scheduler.py:
Site: reaganerp.com
Queued events for site reaganerp.com
[DEBUG] 2021-09-23 16:24:00,665 | /home/ubuntu/reagan-bench2/apps/frappe/frappe/utils/scheduler.py:
Site: reaganerp.com
Queued events for site reaganerp.com
[DEBUG] 2021-09-23 16:25:00,872 | /home/ubuntu/reagan-bench2/apps/frappe/frappe/utils/scheduler.py:
Site: reaganerp.com
Queued events for site reaganerp.com
[DEBUG] 2021-09-23 16:26:01,084 | /home/ubuntu/reagan-bench2/apps/frappe/frappe/utils/scheduler.py:
Site: reaganerp.com
Queued events for site reaganerp.com
[DEBUG] 2021-09-23 16:27:01,305 | /home/ubuntu/reagan-bench2/apps/frappe/frappe/utils/scheduler.py:
Site: reaganerp.com
Queued events for site reaganerp.com
[DEBUG] 2021-09-23 16:28:01,516 | /home/ubuntu/reagan-bench2/apps/frappe/frappe/utils/scheduler.py:
Site: reaganerp.com
Queued events for site reaganerp.com
[DEBUG] 2021-09-23 16:29:01,724 | /home/ubuntu/reagan-bench2/apps/frappe/frappe/utils/scheduler.py:
Site: reaganerp.com
Queued events for site reaganerp.com
[DEBUG] 2021-09-23 16:30:02,047 | /home/ubuntu/reagan-bench2/apps/frappe/frappe/utils/scheduler.py:
Site: reaganerp.com
Queued events for site reaganerp.com
[DEBUG] 2021-09-23 16:31:02,268 | /home/ubuntu/reagan-bench2/apps/frappe/frappe/utils/scheduler.py:
Site: reaganerp.com
Queued events for site reaganerp.com
[DEBUG] 2021-09-23 16:32:02,489 | /home/ubuntu/reagan-bench2/apps/frappe/frappe/utils/scheduler.py:
Site: reaganerp.com
Queued events for site reaganerp.com
[DEBUG] 2021-09-23 16:33:02,715 | /home/ubuntu/reagan-bench2/apps/frappe/frappe/utils/scheduler.py:
Site: reaganerp.com
Queued events for site reaganerp.com
[DEBUG] 2021-09-23 16:34:02,948 | /home/ubuntu/reagan-bench2/apps/frappe/frappe/utils/scheduler.py:
Site: reaganerp.com
Queued events for site reaganerp.com
[DEBUG] 2021-09-23 16:35:03,152 | /home/ubuntu/reagan-bench2/apps/frappe/frappe/utils/scheduler.py:
Site: reaganerp.com
Queued events for site reaganerp.com
[DEBUG] 2021-09-23 16:36:03,360 | /home/ubuntu/reagan-bench2/apps/frappe/frappe/utils/scheduler.py:
Site: reaganerp.com
Queued events for site reaganerp.com
[DEBUG] 2021-09-23 16:37:03,586 | /home/ubuntu/reagan-bench2/apps/frappe/frappe/utils/scheduler.py:
Site: reaganerp.com
Queued events for site reaganerp.com
[DEBUG] 2021-09-23 16:38:03,771 | /home/ubuntu/reagan-bench2/apps/frappe/frappe/utils/scheduler.py:
Site: reaganerp.com
Queued events for site reaganerp.com
[DEBUG] 2021-09-23 16:39:03,961 | /home/ubuntu/reagan-bench2/apps/frappe/frappe/utils/scheduler.py:
Site: reaganerp.com
Queued events for site reaganerp.com
[DEBUG] 2021-09-23 16:40:04,143 | /home/ubuntu/reagan-bench2/apps/frappe/frappe/utils/scheduler.py:
Site: reaganerp.com
Queued events for site reaganerp.com
[DEBUG] 2021-09-23 16:41:04,383 | /home/ubuntu/reagan-bench2/apps/frappe/frappe/utils/scheduler.py:
Site: reaganerp.com
Queued events for site reaganerp.com
[DEBUG] 2021-09-23 16:42:04,606 | /home/ubuntu/reagan-bench2/apps/frappe/frappe/utils/scheduler.py:
Site: reaganerp.com
Queued events for site reaganerp.com
[DEBUG] 2021-09-23 16:43:04,831 | /home/ubuntu/reagan-bench2/apps/frappe/frappe/utils/scheduler.py:
Site: reaganerp.com
Queued events for site reaganerp.com
[DEBUG] 2021-09-23 16:44:05,028 | /home/ubuntu/reagan-bench2/apps/frappe/frappe/utils/scheduler.py:
Site: reaganerp.com
Queued events for site reaganerp.com
[DEBUG] 2021-09-23 16:45:05,246 | /home/ubuntu/reagan-bench2/apps/frappe/frappe/utils/scheduler.py:
Site: reaganerp.com
Queued events for site reaganerp.com
[DEBUG] 2021-09-23 16:46:05,461 | /home/ubuntu/reagan-bench2/apps/frappe/frappe/utils/scheduler.py:
Site: reaganerp.com
Queued events for site reaganerp.com
[DEBUG] 2021-09-23 16:47:05,676 | /home/ubuntu/reagan-bench2/apps/frappe/frappe/utils/scheduler.py:
Site: reaganerp.com
Queued events for site reaganerp.com
[DEBUG] 2021-09-23 16:48:05,872 | /home/ubuntu/reagan-bench2/apps/frappe/frappe/utils/scheduler.py:
Site: reaganerp.com
Queued events for site reaganerp.com
[DEBUG] 2021-09-23 16:49:06,093 | /home/ubuntu/reagan-bench2/apps/frappe/frappe/utils/scheduler.py:
Site: reaganerp.com
Queued events for site reaganerp.com
[DEBUG] 2021-09-23 16:50:06,288 | /home/ubuntu/reagan-bench2/apps/frappe/frappe/utils/scheduler.py:
Site: reaganerp.com
Queued events for site reaganerp.com
[DEBUG] 2021-09-23 16:51:06,501 | /home/ubuntu/reagan-bench2/apps/frappe/frappe/utils/scheduler.py:
Site: reaganerp.com
Queued events for site reaganerp.com
[DEBUG] 2021-09-23 16:52:06,707 | /home/ubuntu/reagan-bench2/apps/frappe/frappe/utils/scheduler.py:
Site: reaganerp.com
Queued events for site reaganerp.com
[DEBUG] 2021-09-23 16:53:06,924 | /home/ubuntu/reagan-bench2/apps/frappe/frappe/utils/scheduler.py:
Site: reaganerp.com
Queued events for site reaganerp.com
[DEBUG] 2021-09-23 16:54:07,148 | /home/ubuntu/reagan-bench2/apps/frappe/frappe/utils/scheduler.py:
Site: reaganerp.com
Queued events for site reaganerp.com
[DEBUG] 2021-09-23 16:55:07,350 | /home/ubuntu/reagan-bench2/apps/frappe/frappe/utils/scheduler.py:
Site: reaganerp.com
Queued events for site reaganerp.com
[DEBUG] 2021-09-23 16:56:07,532 | /home/ubuntu/reagan-bench2/apps/frappe/frappe/utils/scheduler.py:
Site: reaganerp.com
Queued events for site reaganerp.com
[DEBUG] 2021-09-23 16:57:07,751 | /home/ubuntu/reagan-bench2/apps/frappe/frappe/utils/scheduler.py:
Site: reaganerp.com
Queued events for site reaganerp.com
[DEBUG] 2021-09-23 16:58:07,981 | /home/ubuntu/reagan-bench2/apps/frappe/frappe/utils/scheduler.py:
Site: reaganerp.com
Queued events for site reaganerp.com
[DEBUG] 2021-09-23 16:59:08,175 | /home/ubuntu/reagan-bench2/apps/frappe/frappe/utils/scheduler.py:
Site: reaganerp.com
Queued events for site reaganerp.com
[DEBUG] 2021-09-23 17:00:08,381 | /home/ubuntu/reagan-bench2/apps/frappe/frappe/utils/scheduler.py:
Site: reaganerp.com
Queued events for site reaganerp.com
[DEBUG] 2021-09-23 17:01:08,592 | /home/ubuntu/reagan-bench2/apps/frappe/frappe/utils/scheduler.py:
Site: reaganerp.com
Queued events for site reaganerp.com
[DEBUG] 2021-09-23 17:02:08,818 | /home/ubuntu/reagan-bench2/apps/frappe/frappe/utils/scheduler.py:
Site: reaganerp.com
Queued events for site reaganerp.com
[DEBUG] 2021-09-23 17:03:09,025 | /home/ubuntu/reagan-bench2/apps/frappe/frappe/utils/scheduler.py:
Site: reaganerp.com
Queued events for site reaganerp.com
[DEBUG] 2021-09-23 17:04:09,243 | /home/ubuntu/reagan-bench2/apps/frappe/frappe/utils/scheduler.py:
Site: reaganerp.com
Queued events for site reaganerp.com
[DEBUG] 2021-09-23 17:05:09,444 | /home/ubuntu/reagan-bench2/apps/frappe/frappe/utils/scheduler.py:
Site: reaganerp.com
Queued events for site reaganerp.com
[DEBUG] 2021-09-23 17:06:09,644 | /home/ubuntu/reagan-bench2/apps/frappe/frappe/utils/scheduler.py:
Site: reaganerp.com
Queued events for site reaganerp.com
[DEBUG] 2021-09-23 17:07:09,811 | /home/ubuntu/reagan-bench2/apps/frappe/frappe/utils/scheduler.py:
Site: reaganerp.com
Queued events for site reaganerp.com
[DEBUG] 2021-09-23 17:08:10,019 | /home/ubuntu/reagan-bench2/apps/frappe/frappe/utils/scheduler.py:
Site: reaganerp.com
Queued events for site reaganerp.com
[DEBUG] 2021-09-23 17:09:10,238 | /home/ubuntu/reagan-bench2/apps/frappe/frappe/utils/scheduler.py:
Site: reaganerp.com
Queued events for site reaganerp.com
[DEBUG] 2021-09-23 17:10:10,474 | /home/ubuntu/reagan-bench2/apps/frappe/frappe/utils/scheduler.py:
Site: reaganerp.com
Queued events for site reaganerp.com
[DEBUG] 2021-09-23 17:11:10,707 | /home/ubuntu/reagan-bench2/apps/frappe/frappe/utils/scheduler.py:
Site: reaganerp.com
Queued events for site reaganerp.com
[DEBUG] 2021-09-23 17:12:10,916 | /home/ubuntu/reagan-bench2/apps/frappe/frappe/utils/scheduler.py:
Site: reaganerp.com
Queued events for site reaganerp.com
[DEBUG] 2021-09-23 17:13:11,285 | /home/ubuntu/reagan-bench2/apps/frappe/frappe/utils/scheduler.py:
Site: reaganerp.com
Queued events for site reaganerp.com
[DEBUG] 2021-09-23 17:14:11,512 | /home/ubuntu/reagan-bench2/apps/frappe/frappe/utils/scheduler.py:
Site: reaganerp.com
Queued events for site reaganerp.com
[DEBUG] 2021-09-23 17:15:11,718 | /home/ubuntu/reagan-bench2/apps/frappe/frappe/utils/scheduler.py:
Site: reaganerp.com
Queued events for site reaganerp.com
[DEBUG] 2021-09-23 17:16:11,931 | /home/ubuntu/reagan-bench2/apps/frappe/frappe/utils/scheduler.py:
Site: reaganerp.com
Queued events for site reaganerp.com
[DEBUG] 2021-09-23 17:17:12,174 | /home/ubuntu/reagan-bench2/apps/frappe/frappe/utils/scheduler.py:
Site: reaganerp.com
Queued events for site reaganerp.com
[DEBUG] 2021-09-23 17:18:12,378 | /home/ubuntu/reagan-bench2/apps/frappe/frappe/utils/scheduler.py:
Site: reaganerp.com
Queued events for site reaganerp.com
[DEBUG] 2021-09-23 17:19:12,600 | /home/ubuntu/reagan-bench2/apps/frappe/frappe/utils/scheduler.py:
Site: reaganerp.com
Queued events for site reaganerp.com
[DEBUG] 2021-09-23 17:20:12,793 | /home/ubuntu/reagan-bench2/apps/frappe/frappe/utils/scheduler.py:
Site: reaganerp.com
Queued events for site reaganerp.com
[DEBUG] 2021-09-23 17:21:13,015 | /home/ubuntu/reagan-bench2/apps/frappe/frappe/utils/scheduler.py:
Site: reaganerp.com
Queued events for site reaganerp.com
[DEBUG] 2021-09-23 17:22:13,229 | /home/ubuntu/reagan-bench2/apps/frappe/frappe/utils/scheduler.py:
Site: reaganerp.com
Queued events for site reaganerp.com
[DEBUG] 2021-09-23 17:23:13,446 | /home/ubuntu/reagan-bench2/apps/frappe/frappe/utils/scheduler.py:
Site: reaganerp.com
Queued events for site reaganerp.com
[DEBUG] 2021-09-23 17:24:13,635 | /home/ubuntu/reagan-bench2/apps/frappe/frappe/utils/scheduler.py:
Site: reaganerp.com
Queued events for site reaganerp.com
[DEBUG] 2021-09-23 17:25:13,844 | /home/ubuntu/reagan-bench2/apps/frappe/frappe/utils/scheduler.py:
Site: reaganerp.com
Queued events for site reaganerp.com
[DEBUG] 2021-09-23 17:26:14,067 | /home/ubuntu/reagan-bench2/apps/frappe/frappe/utils/scheduler.py:
Site: reaganerp.com
Queued events for site reaganerp.com
[DEBUG] 2021-09-23 17:27:14,286 | /home/ubuntu/reagan-bench2/apps/frappe/frappe/utils/scheduler.py:
Site: reaganerp.com
Queued events for site reaganerp.com
[DEBUG] 2021-09-23 17:28:14,481 | /home/ubuntu/reagan-bench2/apps/frappe/frappe/utils/scheduler.py:
Site: reaganerp.com
Queued events for site reaganerp.com
[DEBUG] 2021-09-23 17:29:14,702 | /home/ubuntu/reagan-bench2/apps/frappe/frappe/utils/scheduler.py:
Site: reaganerp.com
Queued events for site reaganerp.com
[DEBUG] 2021-09-23 17:30:14,943 | /home/ubuntu/reagan-bench2/apps/frappe/frappe/utils/scheduler.py:
Site: reaganerp.com
Queued events for site reaganerp.com
[DEBUG] 2021-09-23 17:31:15,178 | /home/ubuntu/reagan-bench2/apps/frappe/frappe/utils/scheduler.py:
Site: reaganerp.com
Queued events for site reaganerp.com
[DEBUG] 2021-09-23 17:32:15,384 | /home/ubuntu/reagan-bench2/apps/frappe/frappe/utils/scheduler.py:
Site: reaganerp.com
Queued events for site reaganerp.com
[DEBUG] 2021-09-23 17:33:15,595 | /home/ubuntu/reagan-bench2/apps/frappe/frappe/utils/scheduler.py:
Site: reaganerp.com
Queued events for site reaganerp.com
[DEBUG] 2021-09-23 17:34:15,838 | /home/ubuntu/reagan-bench2/apps/frappe/frappe/utils/scheduler.py:
Site: reaganerp.com
Queued events for site reaganerp.com
[DEBUG] 2021-09-23 17:35:16,072 | /home/ubuntu/reagan-bench2/apps/frappe/frappe/utils/scheduler.py:
Site: reaganerp.com
Queued events for site reaganerp.com
[DEBUG] 2021-09-23 17:36:16,293 | /home/ubuntu/reagan-bench2/apps/frappe/frappe/utils/scheduler.py:
Site: reaganerp.com
Queued events for site reaganerp.com
[DEBUG] 2021-09-23 17:37:16,507 | /home/ubuntu/reagan-bench2/apps/frappe/frappe/utils/scheduler.py:
Site: reaganerp.com
Queued events for site reaganerp.com
[DEBUG] 2021-09-23 17:38:16,764 | /home/ubuntu/reagan-bench2/apps/frappe/frappe/utils/scheduler.py:
Site: reaganerp.com
Queued events for site reaganerp.com
[DEBUG] 2021-09-23 17:39:16,953 | /home/ubuntu/reagan-bench2/apps/frappe/frappe/utils/scheduler.py:
Site: reaganerp.com
Queued events for site reaganerp.com
[DEBUG] 2021-09-23 17:40:17,169 | /home/ubuntu/reagan-bench2/apps/frappe/frappe/utils/scheduler.py:
Site: reaganerp.com
Queued events for site reaganerp.com
[DEBUG] 2021-09-23 17:41:17,363 | /home/ubuntu/reagan-bench2/apps/frappe/frappe/utils/scheduler.py:
Site: reaganerp.com
Queued events for site reaganerp.com
[DEBUG] 2021-09-23 17:42:17,560 | /home/ubuntu/reagan-bench2/apps/frappe/frappe/utils/scheduler.py:
Site: reaganerp.com
Queued events for site reaganerp.com
[DEBUG] 2021-09-23 17:43:17,778 | /home/ubuntu/reagan-bench2/apps/frappe/frappe/utils/scheduler.py:
Site: reaganerp.com
Queued events for site reaganerp.com
[DEBUG] 2021-09-23 17:44:18,068 | /home/ubuntu/reagan-bench2/apps/frappe/frappe/utils/scheduler.py:
Site: reaganerp.com
Queued events for site reaganerp.com
[DEBUG] 2021-09-23 17:45:18,281 | /home/ubuntu/reagan-bench2/apps/frappe/frappe/utils/scheduler.py:
Site: reaganerp.com
Queued events for site reaganerp.com
[DEBUG] 2021-09-23 17:46:18,555 | /home/ubuntu/reagan-bench2/apps/frappe/frappe/utils/scheduler.py:
Site: reaganerp.com
Queued events for site reaganerp.com
[DEBUG] 2021-09-23 17:47:18,776 | /home/ubuntu/reagan-bench2/apps/frappe/frappe/utils/scheduler.py:
Site: reaganerp.com
Queued events for site reaganerp.com
[DEBUG] 2021-09-23 17:48:18,939 | /home/ubuntu/reagan-bench2/apps/frappe/frappe/utils/scheduler.py:
Site: reaganerp.com
Queued events for site reaganerp.com
[DEBUG] 2021-09-23 17:49:19,097 | /home/ubuntu/reagan-bench2/apps/frappe/frappe/utils/scheduler.py:
Site: reaganerp.com
Queued events for site reaganerp.com
[DEBUG] 2021-09-23 17:50:19,265 | /home/ubuntu/reagan-bench2/apps/frappe/frappe/utils/scheduler.py:
Site: reaganerp.com
Queued events for site reaganerp.com
[DEBUG] 2021-09-23 17:51:19,428 | /home/ubuntu/reagan-bench2/apps/frappe/frappe/utils/scheduler.py:
Site: reaganerp.com
Queued events for site reaganerp.com
[DEBUG] 2021-09-23 17:52:19,606 | /home/ubuntu/reagan-bench2/apps/frappe/frappe/utils/scheduler.py:
Site: reaganerp.com
Queued events for site reaganerp.com
[DEBUG] 2021-09-23 17:53:19,785 | /home/ubuntu/reagan-bench2/apps/frappe/frappe/utils/scheduler.py:
Site: reaganerp.com
Queued events for site reaganerp.com
[DEBUG] 2021-09-23 17:54:19,966 | /home/ubuntu/reagan-bench2/apps/frappe/frappe/utils/scheduler.py:
Site: reaganerp.com
Queued events for site reaganerp.com
[DEBUG] 2021-09-23 17:55:20,252 | /home/ubuntu/reagan-bench2/apps/frappe/frappe/utils/scheduler.py:
Site: reaganerp.com
Queued events for site reaganerp.com
[DEBUG] 2021-09-23 17:56:20,411 | /home/ubuntu/reagan-bench2/apps/frappe/frappe/utils/scheduler.py:
Site: reaganerp.com
Queued events for site reaganerp.com
[DEBUG] 2021-09-23 17:57:20,549 | /home/ubuntu/reagan-bench2/apps/frappe/frappe/utils/scheduler.py:
Site: reaganerp.com
Queued events for site reaganerp.com
[DEBUG] 2021-09-23 17:58:20,768 | /home/ubuntu/reagan-bench2/apps/frappe/frappe/utils/scheduler.py:
Site: reaganerp.com
Queued events for site reaganerp.com
[DEBUG] 2021-09-23 17:59:20,981 | /home/ubuntu/reagan-bench2/apps/frappe/frappe/utils/scheduler.py:
Site: reaganerp.com
Queued events for site reaganerp.com
[DEBUG] 2021-09-23 18:00:21,583 | /home/ubuntu/reagan-bench2/apps/frappe/frappe/utils/scheduler.py:
Site: reaganerp.com
Queued events for site reaganerp.com
[DEBUG] 2021-09-23 18:01:22,684 | /home/ubuntu/reagan-bench2/apps/frappe/frappe/utils/scheduler.py:
Site: reaganerp.com
Queued events for site reaganerp.com
[DEBUG] 2021-09-23 18:02:23,110 | /home/ubuntu/reagan-bench2/apps/frappe/frappe/utils/scheduler.py:
Site: reaganerp.com
Queued events for site reaganerp.com
[DEBUG] 2021-09-23 18:03:23,345 | /home/ubuntu/reagan-bench2/apps/frappe/frappe/utils/scheduler.py:
Site: reaganerp.com
Queued events for site reaganerp.com
[DEBUG] 2021-09-23 18:04:23,559 | /home/ubuntu/reagan-bench2/apps/frappe/frappe/utils/scheduler.py:
Site: reaganerp.com
Queued events for site reaganerp.com
[DEBUG] 2021-09-23 18:05:23,781 | /home/ubuntu/reagan-bench2/apps/frappe/frappe/utils/scheduler.py:
Site: reaganerp.com
Queued events for site reaganerp.com
[DEBUG] 2021-09-23 18:06:24,079 | /home/ubuntu/reagan-bench2/apps/frappe/frappe/utils/scheduler.py:
Site: reaganerp.com
Queued events for site reaganerp.com
[DEBUG] 2021-09-23 18:07:24,287 | /home/ubuntu/reagan-bench2/apps/frappe/frappe/utils/scheduler.py:
Site: reaganerp.com
Queued events for site reaganerp.com
[DEBUG] 2021-09-23 18:08:24,528 | /home/ubuntu/reagan-bench2/apps/frappe/frappe/utils/scheduler.py:
Site: reaganerp.com
Queued events for site reaganerp.com
[DEBUG] 2021-09-23 18:09:24,738 | /home/ubuntu/reagan-bench2/apps/frappe/frappe/utils/scheduler.py:
Site: reaganerp.com
Queued events for site reaganerp.com
[DEBUG] 2021-09-23 18:10:24,970 | /home/ubuntu/reagan-bench2/apps/frappe/frappe/utils/scheduler.py:
Site: reaganerp.com
Queued events for site reaganerp.com
[DEBUG] 2021-09-23 18:11:25,248 | /home/ubuntu/reagan-bench2/apps/frappe/frappe/utils/scheduler.py:
Site: reaganerp.com
Queued events for site reaganerp.com
[DEBUG] 2021-09-23 18:12:25,465 | /home/ubuntu/reagan-bench2/apps/frappe/frappe/utils/scheduler.py:
Site: reaganerp.com
Queued events for site reaganerp.com
[DEBUG] 2021-09-23 18:13:25,653 | /home/ubuntu/reagan-bench2/apps/frappe/frappe/utils/scheduler.py:
Site: reaganerp.com
Queued events for site reaganerp.com
[DEBUG] 2021-09-23 18:14:25,922 | /home/ubuntu/reagan-bench2/apps/frappe/frappe/utils/scheduler.py:
Site: reaganerp.com
Queued events for site reaganerp.com
[DEBUG] 2021-09-23 18:15:26,138 | /home/ubuntu/reagan-bench2/apps/frappe/frappe/utils/scheduler.py:
Site: reaganerp.com
Queued events for site reaganerp.com
[DEBUG] 2021-09-23 18:16:26,347 | /home/ubuntu/reagan-bench2/apps/frappe/frappe/utils/scheduler.py:
Site: reaganerp.com
Queued events for site reaganerp.com
[DEBUG] 2021-09-23 18:17:26,558 | /home/ubuntu/reagan-bench2/apps/frappe/frappe/utils/scheduler.py:
Site: reaganerp.com
Queued events for site reaganerp.com
[DEBUG] 2021-09-23 18:18:26,784 | /home/ubuntu/reagan-bench2/apps/frappe/frappe/utils/scheduler.py:
Site: reaganerp.com
Queued events for site reaganerp.com
[DEBUG] 2021-09-23 18:19:26,993 | /home/ubuntu/reagan-bench2/apps/frappe/frappe/utils/scheduler.py:
Site: reaganerp.com
Queued events for site reaganerp.com
[DEBUG] 2021-09-23 18:20:27,213 | /home/ubuntu/reagan-bench2/apps/frappe/frappe/utils/scheduler.py:
Site: reaganerp.com
Queued events for site reaganerp.com
[DEBUG] 2021-09-23 18:21:27,421 | /home/ubuntu/reagan-bench2/apps/frappe/frappe/utils/scheduler.py:
Site: reaganerp.com
Queued events for site reaganerp.com
[DEBUG] 2021-09-23 18:22:27,637 | /home/ubuntu/reagan-bench2/apps/frappe/frappe/utils/scheduler.py:
Site: reaganerp.com
Queued events for site reaganerp.com
[DEBUG] 2021-09-23 18:23:27,823 | /home/ubuntu/reagan-bench2/apps/frappe/frappe/utils/scheduler.py:
Site: reaganerp.com
Queued events for site reaganerp.com
[DEBUG] 2021-09-23 18:24:28,019 | /home/ubuntu/reagan-bench2/apps/frappe/frappe/utils/scheduler.py:
Site: reaganerp.com
Queued events for site reaganerp.com
[DEBUG] 2021-09-23 18:25:28,221 | /home/ubuntu/reagan-bench2/apps/frappe/frappe/utils/scheduler.py:
Site: reaganerp.com
Queued events for site reaganerp.com
[DEBUG] 2021-09-23 18:26:28,434 | /home/ubuntu/reagan-bench2/apps/frappe/frappe/utils/scheduler.py:
Site: reaganerp.com
Queued events for site reaganerp.com
[DEBUG] 2021-09-23 18:27:28,645 | /home/ubuntu/reagan-bench2/apps/frappe/frappe/utils/scheduler.py:
Site: reaganerp.com
Queued events for site reaganerp.com
[DEBUG] 2021-09-23 18:28:28,848 | /home/ubuntu/reagan-bench2/apps/frappe/frappe/utils/scheduler.py:
Site: reaganerp.com
Queued events for site reaganerp.com
[DEBUG] 2021-09-23 18:29:29,074 | /home/ubuntu/reagan-bench2/apps/frappe/frappe/utils/scheduler.py:
Site: reaganerp.com
Queued events for site reaganerp.com
[DEBUG] 2021-09-23 18:30:29,317 | /home/ubuntu/reagan-bench2/apps/frappe/frappe/utils/scheduler.py:
Site: reaganerp.com
Queued events for site reaganerp.com
[DEBUG] 2021-09-23 18:31:29,568 | /home/ubuntu/reagan-bench2/apps/frappe/frappe/utils/scheduler.py:
Site: reaganerp.com
Queued events for site reaganerp.com
[DEBUG] 2021-09-23 18:32:29,790 | /home/ubuntu/reagan-bench2/apps/frappe/frappe/utils/scheduler.py:
Site: reaganerp.com
Queued events for site reaganerp.com
[DEBUG] 2021-09-23 18:33:29,971 | /home/ubuntu/reagan-bench2/apps/frappe/frappe/utils/scheduler.py:
Site: reaganerp.com
Queued events for site reaganerp.com
[DEBUG] 2021-09-23 18:34:30,181 | /home/ubuntu/reagan-bench2/apps/frappe/frappe/utils/scheduler.py:
Site: reaganerp.com
Queued events for site reaganerp.com
[DEBUG] 2021-09-23 18:35:30,392 | /home/ubuntu/reagan-bench2/apps/frappe/frappe/utils/scheduler.py:
Site: reaganerp.com
Queued events for site reaganerp.com
[DEBUG] 2021-09-23 18:36:30,588 | /home/ubuntu/reagan-bench2/apps/frappe/frappe/utils/scheduler.py:
Site: reaganerp.com
Queued events for site reaganerp.com
[DEBUG] 2021-09-23 18:37:30,811 | /home/ubuntu/reagan-bench2/apps/frappe/frappe/utils/scheduler.py:
Site: reaganerp.com
Queued events for site reaganerp.com
[DEBUG] 2021-09-23 18:38:31,043 | /home/ubuntu/reagan-bench2/apps/frappe/frappe/utils/scheduler.py:
Site: reaganerp.com
Queued events for site reaganerp.com
[DEBUG] 2021-09-23 18:39:31,235 | /home/ubuntu/reagan-bench2/apps/frappe/frappe/utils/scheduler.py:
Site: reaganerp.com
Queued events for site reaganerp.com
[DEBUG] 2021-09-23 18:40:31,458 | /home/ubuntu/reagan-bench2/apps/frappe/frappe/utils/scheduler.py:
Site: reaganerp.com
Queued events for site reaganerp.com
[DEBUG] 2021-09-23 18:41:31,665 | /home/ubuntu/reagan-bench2/apps/frappe/frappe/utils/scheduler.py:
Site: reaganerp.com
Queued events for site reaganerp.com
[DEBUG] 2021-09-23 18:42:31,852 | /home/ubuntu/reagan-bench2/apps/frappe/frappe/utils/scheduler.py:
Site: reaganerp.com
Queued events for site reaganerp.com
[DEBUG] 2021-09-23 18:43:32,076 | /home/ubuntu/reagan-bench2/apps/frappe/frappe/utils/scheduler.py:
Site: reaganerp.com
Queued events for site reaganerp.com
[DEBUG] 2021-09-23 18:44:32,305 | /home/ubuntu/reagan-bench2/apps/frappe/frappe/utils/scheduler.py:
Site: reaganerp.com
Queued events for site reaganerp.com
[DEBUG] 2021-09-23 18:45:32,485 | /home/ubuntu/reagan-bench2/apps/frappe/frappe/utils/scheduler.py:
Site: reaganerp.com
Queued events for site reaganerp.com
[DEBUG] 2021-09-23 18:46:32,699 | /home/ubuntu/reagan-bench2/apps/frappe/frappe/utils/scheduler.py:
Site: reaganerp.com
Queued events for site reaganerp.com
[DEBUG] 2021-09-23 18:47:32,906 | /home/ubuntu/reagan-bench2/apps/frappe/frappe/utils/scheduler.py:
Site: reaganerp.com
Queued events for site reaganerp.com
[DEBUG] 2021-09-23 18:48:33,112 | /home/ubuntu/reagan-bench2/apps/frappe/frappe/utils/scheduler.py:
Site: reaganerp.com
Queued events for site reaganerp.com
[DEBUG] 2021-09-23 18:49:33,325 | /home/ubuntu/reagan-bench2/apps/frappe/frappe/utils/scheduler.py:
Site: reaganerp.com
Queued events for site reaganerp.com
[DEBUG] 2021-09-23 18:50:33,528 | /home/ubuntu/reagan-bench2/apps/frappe/frappe/utils/scheduler.py:
Site: reaganerp.com
Queued events for site reaganerp.com
[DEBUG] 2021-09-23 18:51:33,697 | /home/ubuntu/reagan-bench2/apps/frappe/frappe/utils/scheduler.py:
Site: reaganerp.com
Queued events for site reaganerp.com
[DEBUG] 2021-09-23 18:52:33,886 | /home/ubuntu/reagan-bench2/apps/frappe/frappe/utils/scheduler.py:
Site: reaganerp.com
Queued events for site reaganerp.com
[DEBUG] 2021-09-23 18:53:34,084 | /home/ubuntu/reagan-bench2/apps/frappe/frappe/utils/scheduler.py:
Site: reaganerp.com
Queued events for site reaganerp.com
[DEBUG] 2021-09-23 18:54:34,317 | /home/ubuntu/reagan-bench2/apps/frappe/frappe/utils/scheduler.py:
Site: reaganerp.com
Queued events for site reaganerp.com
[DEBUG] 2021-09-23 18:55:34,521 | /home/ubuntu/reagan-bench2/apps/frappe/frappe/utils/scheduler.py:
Site: reaganerp.com
Queued events for site reaganerp.com
[DEBUG] 2021-09-23 18:56:34,692 | /home/ubuntu/reagan-bench2/apps/frappe/frappe/utils/scheduler.py:
Site: reaganerp.com
Queued events for site reaganerp.com
[DEBUG] 2021-09-23 18:57:34,880 | /home/ubuntu/reagan-bench2/apps/frappe/frappe/utils/scheduler.py:
Site: reaganerp.com
Queued events for site reaganerp.com
[DEBUG] 2021-09-23 18:58:35,101 | /home/ubuntu/reagan-bench2/apps/frappe/frappe/utils/scheduler.py:
Site: reaganerp.com
Queued events for site reaganerp.com
[DEBUG] 2021-09-23 18:59:35,312 | /home/ubuntu/reagan-bench2/apps/frappe/frappe/utils/scheduler.py:
Site: reaganerp.com
Queued events for site reaganerp.com
[DEBUG] 2021-09-23 20:22:12,701 | /home/ubuntu/reagan-bench2/apps/frappe/frappe/utils/scheduler.py:
Site: reaganerp.com
Queued events for site reaganerp.com
[DEBUG] 2021-09-23 20:23:12,930 | /home/ubuntu/reagan-bench2/apps/frappe/frappe/utils/scheduler.py:
Site: reaganerp.com
Queued events for site reaganerp.com
[DEBUG] 2021-09-23 20:24:13,082 | /home/ubuntu/reagan-bench2/apps/frappe/frappe/utils/scheduler.py:
Site: reaganerp.com
Queued events for site reaganerp.com
[DEBUG] 2021-09-23 20:25:13,291 | /home/ubuntu/reagan-bench2/apps/frappe/frappe/utils/scheduler.py:
Site: reaganerp.com
Queued events for site reaganerp.com
[DEBUG] 2021-09-23 20:26:13,544 | /home/ubuntu/reagan-bench2/apps/frappe/frappe/utils/scheduler.py:
Site: reaganerp.com
Queued events for site reaganerp.com
[DEBUG] 2021-09-23 20:27:13,828 | /home/ubuntu/reagan-bench2/apps/frappe/frappe/utils/scheduler.py:
Site: reaganerp.com
Queued events for site reaganerp.com
[DEBUG] 2021-09-23 20:28:14,129 | /home/ubuntu/reagan-bench2/apps/frappe/frappe/utils/scheduler.py:
Site: reaganerp.com
Queued events for site reaganerp.com
[DEBUG] 2021-09-23 20:29:14,369 | /home/ubuntu/reagan-bench2/apps/frappe/frappe/utils/scheduler.py:
Site: reaganerp.com
Queued events for site reaganerp.com
[DEBUG] 2021-09-23 20:30:14,588 | /home/ubuntu/reagan-bench2/apps/frappe/frappe/utils/scheduler.py:
Site: reaganerp.com
Queued events for site reaganerp.com
[DEBUG] 2021-09-28 08:20:45,050 | /home/ubuntu/reagan-bench2/apps/frappe/frappe/utils/scheduler.py:
Site: reaganerp.com
Queued events for site reaganerp.com
[DEBUG] 2021-09-28 08:21:45,267 | /home/ubuntu/reagan-bench2/apps/frappe/frappe/utils/scheduler.py:
Site: reaganerp.com
Queued events for site reaganerp.com
[DEBUG] 2021-09-28 08:22:45,535 | /home/ubuntu/reagan-bench2/apps/frappe/frappe/utils/scheduler.py:
Site: reaganerp.com
Queued events for site reaganerp.com
[DEBUG] 2021-09-28 08:23:46,176 | /home/ubuntu/reagan-bench2/apps/frappe/frappe/utils/scheduler.py:
Site: reaganerp.com
Queued events for site reaganerp.com
[DEBUG] 2021-09-28 08:24:46,408 | /home/ubuntu/reagan-bench2/apps/frappe/frappe/utils/scheduler.py:
Site: reaganerp.com
Queued events for site reaganerp.com
[DEBUG] 2021-09-28 08:25:46,847 | /home/ubuntu/reagan-bench2/apps/frappe/frappe/utils/scheduler.py:
Site: reaganerp.com
Queued events for site reaganerp.com
[DEBUG] 2021-09-28 08:26:47,280 | /home/ubuntu/reagan-bench2/apps/frappe/frappe/utils/scheduler.py:
Site: reaganerp.com
Queued events for site reaganerp.com
[DEBUG] 2021-09-28 08:27:47,535 | /home/ubuntu/reagan-bench2/apps/frappe/frappe/utils/scheduler.py:
Site: reaganerp.com
Queued events for site reaganerp.com
[DEBUG] 2021-09-28 08:28:47,725 | /home/ubuntu/reagan-bench2/apps/frappe/frappe/utils/scheduler.py:
Site: reaganerp.com
Queued events for site reaganerp.com
[DEBUG] 2021-09-28 08:29:48,196 | /home/ubuntu/reagan-bench2/apps/frappe/frappe/utils/scheduler.py:
Site: reaganerp.com
Queued events for site reaganerp.com
[DEBUG] 2021-09-28 08:30:48,460 | /home/ubuntu/reagan-bench2/apps/frappe/frappe/utils/scheduler.py:
Site: reaganerp.com
Queued events for site reaganerp.com
[DEBUG] 2021-09-28 08:31:48,707 | /home/ubuntu/reagan-bench2/apps/frappe/frappe/utils/scheduler.py:
Site: reaganerp.com
Queued events for site reaganerp.com
[DEBUG] 2021-09-28 08:32:48,893 | /home/ubuntu/reagan-bench2/apps/frappe/frappe/utils/scheduler.py:
Site: reaganerp.com
Queued events for site reaganerp.com
[DEBUG] 2021-09-28 08:33:49,115 | /home/ubuntu/reagan-bench2/apps/frappe/frappe/utils/scheduler.py:
Site: reaganerp.com
Queued events for site reaganerp.com
[DEBUG] 2021-09-28 08:34:49,343 | /home/ubuntu/reagan-bench2/apps/frappe/frappe/utils/scheduler.py:
Site: reaganerp.com
Queued events for site reaganerp.com
[DEBUG] 2021-09-28 08:35:49,565 | /home/ubuntu/reagan-bench2/apps/frappe/frappe/utils/scheduler.py:
Site: reaganerp.com
Queued events for site reaganerp.com
[DEBUG] 2021-09-28 08:36:49,742 | /home/ubuntu/reagan-bench2/apps/frappe/frappe/utils/scheduler.py:
Site: reaganerp.com
Queued events for site reaganerp.com
[DEBUG] 2021-09-28 08:37:49,998 | /home/ubuntu/reagan-bench2/apps/frappe/frappe/utils/scheduler.py:
Site: reaganerp.com
Queued events for site reaganerp.com
[DEBUG] 2021-09-28 09:16:42,420 | /home/ubuntu/reagan-bench2/apps/frappe/frappe/utils/scheduler.py:
Site: reaganerp.com
Queued events for site reaganerp.com
[DEBUG] 2021-09-28 09:17:42,620 | /home/ubuntu/reagan-bench2/apps/frappe/frappe/utils/scheduler.py:
Site: reaganerp.com
Queued events for site reaganerp.com
[DEBUG] 2021-09-28 09:18:42,842 | /home/ubuntu/reagan-bench2/apps/frappe/frappe/utils/scheduler.py:
Site: reaganerp.com
Queued events for site reaganerp.com
[DEBUG] 2021-09-28 10:22:58,182 | /home/ubuntu/reagan-bench2/apps/frappe/frappe/utils/scheduler.py:
Site: reaganerp.com
Queued events for site reaganerp.com
[DEBUG] 2021-09-28 10:23:58,406 | /home/ubuntu/reagan-bench2/apps/frappe/frappe/utils/scheduler.py:
Site: reaganerp.com
Queued events for site reaganerp.com
[DEBUG] 2021-09-28 10:24:58,596 | /home/ubuntu/reagan-bench2/apps/frappe/frappe/utils/scheduler.py:
Site: reaganerp.com
Queued events for site reaganerp.com
[DEBUG] 2021-09-28 10:25:58,788 | /home/ubuntu/reagan-bench2/apps/frappe/frappe/utils/scheduler.py:
Site: reaganerp.com
Queued events for site reaganerp.com
[DEBUG] 2021-09-28 10:26:59,034 | /home/ubuntu/reagan-bench2/apps/frappe/frappe/utils/scheduler.py:
Site: reaganerp.com
Queued events for site reaganerp.com
[DEBUG] 2021-09-28 10:27:59,229 | /home/ubuntu/reagan-bench2/apps/frappe/frappe/utils/scheduler.py:
Site: reaganerp.com
Queued events for site reaganerp.com
[DEBUG] 2021-09-28 10:28:59,414 | /home/ubuntu/reagan-bench2/apps/frappe/frappe/utils/scheduler.py:
Site: reaganerp.com
Queued events for site reaganerp.com
[DEBUG] 2021-09-28 10:29:59,575 | /home/ubuntu/reagan-bench2/apps/frappe/frappe/utils/scheduler.py:
Site: reaganerp.com
Queued events for site reaganerp.com
[DEBUG] 2021-09-28 10:30:59,795 | /home/ubuntu/reagan-bench2/apps/frappe/frappe/utils/scheduler.py:
Site: reaganerp.com
Queued events for site reaganerp.com
[DEBUG] 2021-09-28 10:31:59,981 | /home/ubuntu/reagan-bench2/apps/frappe/frappe/utils/scheduler.py:
Site: reaganerp.com
Queued events for site reaganerp.com
[DEBUG] 2021-09-28 10:33:00,128 | /home/ubuntu/reagan-bench2/apps/frappe/frappe/utils/scheduler.py:
Site: reaganerp.com
Queued events for site reaganerp.com
