[ERROR] 2021-09-16 16:29:45,186 | /home/ubuntu/reagan-bench2/apps/frappe/frappe/app.py:
Site: reaganerp.com
Form Dict: {
 "action": "Save",
 "cmd": "frappe.desk.form.save.savedocs",
 "doc": "{\"doctype\":\"DocType\",\"name\":\"Items\",\"owner\":\"Administrator\",\"creation\":\"2021-09-03 17:39:05.742405\",\"modified\":\"2021-09-16 18:53:53.832706\",\"modified_by\":\"Administrator\",\"idx\":0,\"docstatus\":0,\"issingle\":0,\"is_tree\":0,\"istable\":1,\"editable_grid\":1,\"track_changes\":1,\"module\":\"DSR\",\"name_case\":\"\",\"sort_field\":\"modified\",\"sort_order\":\"DESC\",\"read_only\":0,\"in_create\":0,\"allow_copy\":0,\"allow_rename\":0,\"allow_import\":0,\"hide_toolbar\":0,\"track_seen\":0,\"max_attachments\":0,\"document_type\":\"\",\"engine\":\"InnoDB\",\"is_submittable\":0,\"show_name_in_global_search\":0,\"custom\":0,\"beta\":0,\"has_web_view\":0,\"allow_guest_to_view\":0,\"allow_auto_repeat\":0,\"allow_events_in_timeline\":0,\"track_views\":0,\"show_preview_popup\":0,\"quick_entry\":1,\"fields\":[{\"doctype\":\"DocField\",\"name\":\"4edd52156b\",\"owner\":\"Administrator\",\"creation\":\"2021-09-03 17:39:05.742405\",\"modified\":\"2021-09-16 18:53:53.832706\",\"modified_by\":\"Administrator\",\"parent\":\"Items\",\"parentfield\":\"fields\",\"parenttype\":\"DocType\",\"idx\":1,\"docstatus\":0,\"fieldname\":\"item_code\",\"label\":\"Item Code\",\"fieldtype\":\"Link\",\"options\":\"Item\",\"search_index\":0,\"hidden\":0,\"set_only_once\":0,\"allow_in_quick_entry\":0,\"print_hide\":0,\"report_hide\":0,\"reqd\":0,\"bold\":0,\"in_global_search\":0,\"collapsible\":0,\"unique\":0,\"no_copy\":0,\"allow_on_submit\":0,\"show_preview_popup\":0,\"permlevel\":0,\"ignore_user_permissions\":0,\"columns\":2,\"in_list_view\":1,\"fetch_if_empty\":0,\"in_filter\":0,\"remember_last_selected_value\":0,\"ignore_xss_filter\":0,\"print_hide_if_no_value\":0,\"allow_bulk_edit\":0,\"in_standard_filter\":0,\"in_preview\":0,\"read_only\":1,\"precision\":\"\",\"length\":0,\"translatable\":0},{\"doctype\":\"DocField\",\"name\":\"92bdf2687d\",\"owner\":\"Administrator\",\"creation\":\"2021-09-03 17:39:05.742405\",\"modified\":\"2021-09-16 18:53:53.832706\",\"modified_by\":\"Administrator\",\"parent\":\"Items\",\"parentfield\":\"fields\",\"parenttype\":\"DocType\",\"idx\":2,\"docstatus\":0,\"fieldname\":\"item_group\",\"label\":\"Item Group\",\"fieldtype\":\"Link\",\"options\":\"Item Group\",\"search_index\":0,\"hidden\":0,\"set_only_once\":0,\"allow_in_quick_entry\":0,\"print_hide\":0,\"report_hide\":0,\"reqd\":0,\"bold\":0,\"in_global_search\":0,\"collapsible\":0,\"unique\":0,\"no_copy\":0,\"allow_on_submit\":0,\"show_preview_popup\":0,\"permlevel\":0,\"ignore_user_permissions\":0,\"columns\":2,\"in_list_view\":1,\"fetch_if_empty\":0,\"in_filter\":0,\"remember_last_selected_value\":0,\"ignore_xss_filter\":0,\"print_hide_if_no_value\":0,\"allow_bulk_edit\":0,\"in_standard_filter\":0,\"in_preview\":0,\"read_only\":1,\"precision\":\"\",\"length\":0,\"translatable\":0},{\"doctype\":\"DocField\",\"name\":\"6762de4446\",\"owner\":\"Administrator\",\"creation\":\"2021-09-03 17:39:05.742405\",\"modified\":\"2021-09-16 18:53:53.832706\",\"modified_by\":\"Administrator\",\"parent\":\"Items\",\"parentfield\":\"fields\",\"parenttype\":\"DocType\",\"idx\":3,\"docstatus\":0,\"fieldname\":\"whole_qty\",\"label\":\"Whole Qty\",\"fieldtype\":\"Float\",\"search_index\":0,\"hidden\":0,\"set_only_once\":0,\"allow_in_quick_entry\":0,\"print_hide\":0,\"report_hide\":0,\"reqd\":0,\"bold\":0,\"in_global_search\":0,\"collapsible\":0,\"unique\":0,\"no_copy\":0,\"allow_on_submit\":0,\"show_preview_popup\":0,\"permlevel\":0,\"ignore_user_permissions\":0,\"columns\":1,\"in_list_view\":1,\"fetch_if_empty\":0,\"in_filter\":0,\"remember_last_selected_value\":0,\"ignore_xss_filter\":0,\"print_hide_if_no_value\":0,\"allow_bulk_edit\":0,\"in_standard_filter\":0,\"in_preview\":0,\"read_only\":0,\"precision\":\"\",\"length\":0,\"translatable\":0},{\"doctype\":\"DocField\",\"name\":\"0e4d46008b\",\"owner\":\"Administrator\",\"creation\":\"2021-09-03 17:39:05.742405\",\"modified\":\"2021-09-16 18:53:53.832706\",\"modified_by\":\"Administrator\",\"parent\":\"Items\",\"parentfield\":\"fields\",\"parenttype\":\"DocType\",\"idx\":4,\"docstatus\":0,\"fieldname\":\"whole_uom\",\"label\":\"Whole UOM\",\"fieldtype\":\"Link\",\"options\":\"UOM\",\"search_index\":0,\"hidden\":0,\"set_only_once\":0,\"allow_in_quick_entry\":0,\"print_hide\":0,\"report_hide\":0,\"reqd\":0,\"bold\":0,\"in_global_search\":0,\"collapsible\":0,\"unique\":0,\"no_copy\":0,\"allow_on_submit\":0,\"show_preview_popup\":0,\"permlevel\":0,\"ignore_user_permissions\":0,\"columns\":1,\"in_list_view\":1,\"fetch_if_empty\":0,\"in_filter\":0,\"remember_last_selected_value\":0,\"ignore_xss_filter\":0,\"print_hide_if_no_value\":0,\"allow_bulk_edit\":0,\"in_standard_filter\":0,\"in_preview\":0,\"read_only\":1,\"precision\":\"\",\"length\":0,\"translatable\":0},{\"doctype\":\"DocField\",\"name\":\"85007b42bb\",\"owner\":\"Administrator\",\"creation\":\"2021-09-03 17:39:05.742405\",\"modified\":\"2021-09-16 18:53:53.832706\",\"modified_by\":\"Administrator\",\"parent\":\"Items\",\"parentfield\":\"fields\",\"parenttype\":\"DocType\",\"idx\":5,\"docstatus\":0,\"fieldname\":\"broken_qty\",\"label\":\"Broken Qty\",\"fieldtype\":\"Float\",\"search_index\":0,\"hidden\":0,\"set_only_once\":0,\"allow_in_quick_entry\":0,\"print_hide\":0,\"report_hide\":0,\"reqd\":0,\"bold\":0,\"in_global_search\":0,\"collapsible\":0,\"unique\":0,\"no_copy\":0,\"allow_on_submit\":0,\"show_preview_popup\":0,\"permlevel\":0,\"ignore_user_permissions\":0,\"columns\":1,\"in_list_view\":1,\"fetch_if_empty\":0,\"in_filter\":0,\"remember_last_selected_value\":0,\"ignore_xss_filter\":0,\"print_hide_if_no_value\":0,\"allow_bulk_edit\":0,\"in_standard_filter\":0,\"in_preview\":0,\"read_only\":0,\"precision\":\"\",\"length\":0,\"translatable\":0},{\"doctype\":\"DocField\",\"name\":\"0596d4eb1b\",\"owner\":\"Administrator\",\"creation\":\"2021-09-03 17:39:05.742405\",\"modified\":\"2021-09-16 18:53:53.832706\",\"modified_by\":\"Administrator\",\"parent\":\"Items\",\"parentfield\":\"fields\",\"parenttype\":\"DocType\",\"idx\":6,\"docstatus\":0,\"fieldname\":\"broken_uom\",\"label\":\"Broken UOM\",\"fieldtype\":\"Link\",\"options\":\"UOM\",\"search_index\":0,\"hidden\":0,\"set_only_once\":0,\"allow_in_quick_entry\":0,\"print_hide\":0,\"report_hide\":0,\"reqd\":0,\"bold\":0,\"in_global_search\":0,\"collapsible\":0,\"unique\":0,\"no_copy\":0,\"allow_on_submit\":0,\"show_preview_popup\":0,\"permlevel\":0,\"ignore_user_permissions\":0,\"columns\":1,\"in_list_view\":1,\"fetch_if_empty\":0,\"in_filter\":0,\"remember_last_selected_value\":0,\"ignore_xss_filter\":0,\"print_hide_if_no_value\":0,\"allow_bulk_edit\":0,\"in_standard_filter\":0,\"in_preview\":0,\"read_only\":0,\"precision\":\"\",\"length\":0,\"translatable\":0},{\"doctype\":\"DocField\",\"name\":\"1b1c621588\",\"owner\":\"Administrator\",\"creation\":\"2021-09-03 17:39:05.742405\",\"modified\":\"2021-09-16 18:53:53.832706\",\"modified_by\":\"Administrator\",\"parent\":\"Items\",\"parentfield\":\"fields\",\"parenttype\":\"DocType\",\"idx\":7,\"docstatus\":0,\"fieldname\":\"item_uom\",\"label\":\"Item UOM\",\"fieldtype\":\"Data\",\"options\":\"\",\"search_index\":0,\"hidden\":1,\"set_only_once\":0,\"allow_in_quick_entry\":0,\"print_hide\":0,\"report_hide\":0,\"reqd\":0,\"bold\":0,\"in_global_search\":0,\"collapsible\":0,\"unique\":0,\"no_copy\":0,\"allow_on_submit\":0,\"show_preview_popup\":0,\"permlevel\":0,\"ignore_user_permissions\":0,\"columns\":0,\"in_list_view\":0,\"fetch_if_empty\":0,\"in_filter\":0,\"remember_last_selected_value\":0,\"ignore_xss_filter\":0,\"print_hide_if_no_value\":0,\"allow_bulk_edit\":0,\"in_standard_filter\":0,\"in_preview\":0,\"read_only\":0,\"precision\":\"\",\"length\":0,\"translatable\":0}],\"permissions\":[],\"__unsaved\":1}"
}
Request Error
Traceback (most recent call last):
  File "/home/ubuntu/reagan-bench2/apps/frappe/frappe/app.py", line 67, in application
    response = frappe.api.handle()
  File "/home/ubuntu/reagan-bench2/apps/frappe/frappe/api.py", line 59, in handle
    return frappe.handler.handle()
  File "/home/ubuntu/reagan-bench2/apps/frappe/frappe/handler.py", line 24, in handle
    data = execute_cmd(cmd)
  File "/home/ubuntu/reagan-bench2/apps/frappe/frappe/handler.py", line 64, in execute_cmd
    return frappe.call(method, **frappe.form_dict)
  File "/home/ubuntu/reagan-bench2/apps/frappe/frappe/__init__.py", line 1075, in call
    return fn(*args, **newargs)
  File "/home/ubuntu/reagan-bench2/apps/frappe/frappe/desk/form/save.py", line 21, in savedocs
    doc.save()
  File "/home/ubuntu/reagan-bench2/apps/frappe/frappe/model/document.py", line 273, in save
    return self._save(*args, **kwargs)
  File "/home/ubuntu/reagan-bench2/apps/frappe/frappe/model/document.py", line 326, in _save
    self.run_post_save_methods()
  File "/home/ubuntu/reagan-bench2/apps/frappe/frappe/model/document.py", line 932, in run_post_save_methods
    self.run_method("on_update")
  File "/home/ubuntu/reagan-bench2/apps/frappe/frappe/model/document.py", line 802, in run_method
    out = Document.hook(fn)(self, *args, **kwargs)
  File "/home/ubuntu/reagan-bench2/apps/frappe/frappe/model/document.py", line 1081, in composer
    return composed(self, method, *args, **kwargs)
  File "/home/ubuntu/reagan-bench2/apps/frappe/frappe/model/document.py", line 1064, in runner
    add_to_return_value(self, fn(self, *args, **kwargs))
  File "/home/ubuntu/reagan-bench2/apps/frappe/frappe/model/document.py", line 796, in <lambda>
    fn = lambda self, *args, **kwargs: getattr(self, method)(*args, **kwargs)
  File "/home/ubuntu/reagan-bench2/apps/frappe/frappe/core/doctype/doctype/doctype.py", line 282, in on_update
    raise e
  File "/home/ubuntu/reagan-bench2/apps/frappe/frappe/core/doctype/doctype/doctype.py", line 279, in on_update
    frappe.db.updatedb(self.name, Meta(self))
  File "/home/ubuntu/reagan-bench2/apps/frappe/frappe/database/mariadb/database.py", line 291, in updatedb
    db_table.sync()
  File "/home/ubuntu/reagan-bench2/apps/frappe/frappe/database/schema.py", line 37, in sync
    self.alter()
  File "/home/ubuntu/reagan-bench2/apps/frappe/frappe/database/mariadb/schema.py", line 86, in alter
    raise e
  File "/home/ubuntu/reagan-bench2/apps/frappe/frappe/database/mariadb/schema.py", line 75, in alter
    frappe.db.sql(query)
  File "/home/ubuntu/reagan-bench2/apps/frappe/frappe/database/database.py", line 170, in sql
    self._cursor.execute(query)
  File "/home/ubuntu/reagan-bench2/env/lib/python3.8/site-packages/pymysql/cursors.py", line 170, in execute
    result = self._query(query)
  File "/home/ubuntu/reagan-bench2/env/lib/python3.8/site-packages/pymysql/cursors.py", line 328, in _query
    conn.query(q)
  File "/home/ubuntu/reagan-bench2/env/lib/python3.8/site-packages/pymysql/connections.py", line 517, in query
    self._affected_rows = self._read_query_result(unbuffered=unbuffered)
  File "/home/ubuntu/reagan-bench2/env/lib/python3.8/site-packages/pymysql/connections.py", line 732, in _read_query_result
    result.read()
  File "/home/ubuntu/reagan-bench2/env/lib/python3.8/site-packages/pymysql/connections.py", line 1075, in read
    first_packet = self.connection._read_packet()
  File "/home/ubuntu/reagan-bench2/env/lib/python3.8/site-packages/pymysql/connections.py", line 684, in _read_packet
    packet.check_error()
  File "/home/ubuntu/reagan-bench2/env/lib/python3.8/site-packages/pymysql/protocol.py", line 220, in check_error
    err.raise_mysql_exception(self._data)
  File "/home/ubuntu/reagan-bench2/env/lib/python3.8/site-packages/pymysql/err.py", line 109, in raise_mysql_exception
    raise errorclass(errno, errval)
pymysql.err.DataError: (1265, "Data truncated for column 'whole_qty' at row 1")
