[ERROR] 2021-09-16 15:23:17,083 | /home/ubuntu/reagan-bench2/apps/frappe/frappe/app.py:
Site: reaganerp.com
Form Dict: {
 "action": "Save",
 "cmd": "frappe.desk.form.save.savedocs",
 "doc": "{\"docstatus\":0,\"doctype\":\"Countsheet Template\",\"name\":\"New Countsheet Template 1\",\"__islocal\":1,\"__unsaved\":1,\"owner\":\"Administrator\",\"menu_filter\":\"HONEYBON CAKES\",\"items\":[{\"docstatus\":0,\"doctype\":\"Items\",\"name\":\"New Items 1\",\"__islocal\":1,\"__unsaved\":1,\"owner\":\"Administrator\",\"parent\":\"New Countsheet Template 1\",\"parentfield\":\"items\",\"parenttype\":\"Countsheet Template\",\"idx\":1,\"item_code\":\"Packaging, White Paper Twine per KG\",\"item_group\":\"Supplies - Labels & Packaging\",\"whole_uom\":\"KG\",\"item_uom\":\"GRAMS,KG\"},{\"docstatus\":0,\"doctype\":\"Items\",\"name\":\"New Items 2\",\"__islocal\":1,\"__unsaved\":1,\"owner\":\"Administrator\",\"parent\":\"New Countsheet Template 1\",\"parentfield\":\"items\",\"parenttype\":\"Countsheet Template\",\"idx\":2,\"item_code\":\"HB Cakebox Large 9.6 50'S\",\"item_group\":\"Supplies - Labels & Packaging\",\"whole_uom\":\"EACH\",\"item_uom\":\"PC,EACH\"},{\"docstatus\":0,\"doctype\":\"Items\",\"name\":\"New Items 3\",\"__islocal\":1,\"__unsaved\":1,\"owner\":\"Administrator\",\"parent\":\"New Countsheet Template 1\",\"parentfield\":\"items\",\"parenttype\":\"Countsheet Template\",\"idx\":3,\"item_code\":\"Label, Honeybon Sticker 5cm Round 1s\",\"item_group\":\"Supplies - Labels & Packaging\",\"whole_uom\":\"PC\",\"item_uom\":\"PC\"},{\"docstatus\":0,\"doctype\":\"Items\",\"name\":\"New Items 4\",\"__islocal\":1,\"__unsaved\":1,\"owner\":\"Administrator\",\"parent\":\"New Countsheet Template 1\",\"parentfield\":\"items\",\"parenttype\":\"Countsheet Template\",\"idx\":4,\"item_code\":\"Prep Bakery, HB Ensaymada 1'S\",\"item_group\":\"Prep Bakery\",\"whole_uom\":\"EACH\",\"item_uom\":[\"EACH\"],\"broken_uom\":\"EACH\"}],\"outlet_prep\":[{\"docstatus\":0,\"doctype\":\"Outlet Prep\",\"name\":\"New Outlet Prep 1\",\"__islocal\":1,\"__unsaved\":1,\"owner\":\"Administrator\",\"parent\":\"New Countsheet Template 1\",\"parentfield\":\"outlet_prep\",\"parenttype\":\"Countsheet Template\",\"idx\":1,\"item_code\":\"Prep Pastry, Mango Bits 800G\",\"item_group\":\"Prep Pastry\",\"whole_uom\":\"EACH\",\"item_uom\":\"GRAMS,EACH\"},{\"docstatus\":0,\"doctype\":\"Outlet Prep\",\"name\":\"New Outlet Prep 2\",\"__islocal\":1,\"__unsaved\":1,\"owner\":\"Administrator\",\"parent\":\"New Countsheet Template 1\",\"parentfield\":\"outlet_prep\",\"parenttype\":\"Countsheet Template\",\"idx\":2,\"item_code\":\"Prep Pastry, HB Black Forest Cake (Whole Cake)\",\"item_group\":\"Prep Pastry\",\"whole_uom\":\"EACH\",\"item_uom\":\"SLICE,EACH\"},{\"docstatus\":0,\"doctype\":\"Outlet Prep\",\"name\":\"New Outlet Prep 3\",\"__islocal\":1,\"__unsaved\":1,\"owner\":\"Administrator\",\"parent\":\"New Countsheet Template 1\",\"parentfield\":\"outlet_prep\",\"parenttype\":\"Countsheet Template\",\"idx\":3,\"item_code\":\"Prep Pastry, HB Matcha Cappucino Whole Cake\",\"item_group\":\"Prep Pastry\",\"whole_uom\":\"EACH\",\"item_uom\":\"EACH,SLICE\"},{\"docstatus\":0,\"doctype\":\"Outlet Prep\",\"name\":\"New Outlet Prep 4\",\"__islocal\":1,\"__unsaved\":1,\"owner\":\"Administrator\",\"parent\":\"New Countsheet Template 1\",\"parentfield\":\"outlet_prep\",\"parenttype\":\"Countsheet Template\",\"idx\":4,\"item_code\":\"Prep Pastry, HB Tiramisu (Whole Cake)\",\"item_group\":\"Prep Pastry\",\"whole_uom\":\"EACH\",\"item_uom\":\"EACH,SLICE\"},{\"docstatus\":0,\"doctype\":\"Outlet Prep\",\"name\":\"New Outlet Prep 5\",\"__islocal\":1,\"__unsaved\":1,\"owner\":\"Administrator\",\"parent\":\"New Countsheet Template 1\",\"parentfield\":\"outlet_prep\",\"parenttype\":\"Countsheet Template\",\"idx\":5,\"item_code\":\"Prep Pastry, HB Double Fudge Choco Chip Cook (Yield: 12 Pieces)\",\"item_group\":\"Prep Pastry\",\"whole_uom\":\"EACH\",\"item_uom\":\"EACH,PC\"},{\"docstatus\":0,\"doctype\":\"Outlet Prep\",\"name\":\"New Outlet Prep 6\",\"__islocal\":1,\"__unsaved\":1,\"owner\":\"Administrator\",\"parent\":\"New Countsheet Template 1\",\"parentfield\":\"outlet_prep\",\"parenttype\":\"Countsheet Template\",\"idx\":6,\"item_code\":\"Prep Pastry, HB Ultimate Chocolate Cake (Whole Cake)\",\"item_group\":\"Prep Pastry\",\"whole_uom\":\"EACH\",\"item_uom\":\"EACH,SLICE\"},{\"docstatus\":0,\"doctype\":\"Outlet Prep\",\"name\":\"New Outlet Prep 7\",\"__islocal\":1,\"__unsaved\":1,\"owner\":\"Administrator\",\"parent\":\"New Countsheet Template 1\",\"parentfield\":\"outlet_prep\",\"parenttype\":\"Countsheet Template\",\"idx\":7,\"item_code\":\"Prep Pastry, HB Mocha Crunch (Whole Cake)\",\"item_group\":\"Prep Pastry\",\"whole_uom\":\"EACH\",\"item_uom\":\"EACH,SLICE\"},{\"docstatus\":0,\"doctype\":\"Outlet Prep\",\"name\":\"New Outlet Prep 8\",\"__islocal\":1,\"__unsaved\":1,\"owner\":\"Administrator\",\"parent\":\"New Countsheet Template 1\",\"parentfield\":\"outlet_prep\",\"parenttype\":\"Countsheet Template\",\"idx\":8,\"item_code\":\"Prep Pastry, HB O Fudge Bars 6'S\",\"item_group\":\"Prep Pastry\",\"whole_uom\":\"EACH\",\"item_uom\":\"EACH\"},{\"docstatus\":0,\"doctype\":\"Outlet Prep\",\"name\":\"New Outlet Prep 9\",\"__islocal\":1,\"__unsaved\":1,\"owner\":\"Administrator\",\"parent\":\"New Countsheet Template 1\",\"parentfield\":\"outlet_prep\",\"parenttype\":\"Countsheet Template\",\"idx\":9,\"item_code\":\"Prep Pastry, HB Chocolate Caramel (Whole)\",\"item_group\":\"Prep Pastry\",\"whole_uom\":\"EACH\",\"item_uom\":\"SLICE,EACH\"},{\"docstatus\":0,\"doctype\":\"Outlet Prep\",\"name\":\"New Outlet Prep 10\",\"__islocal\":1,\"__unsaved\":1,\"owner\":\"Administrator\",\"parent\":\"New Countsheet Template 1\",\"parentfield\":\"outlet_prep\",\"parenttype\":\"Countsheet Template\",\"idx\":10,\"item_code\":\"Prep Pastry, HB Chocolate Decadence (Whole)\",\"item_group\":\"Prep Pastry\",\"whole_uom\":\"EACH\",\"item_uom\":\"SLICE,EACH\"},{\"docstatus\":0,\"doctype\":\"Outlet Prep\",\"name\":\"New Outlet Prep 11\",\"__islocal\":1,\"__unsaved\":1,\"owner\":\"Administrator\",\"parent\":\"New Countsheet Template 1\",\"parentfield\":\"outlet_prep\",\"parenttype\":\"Countsheet Template\",\"idx\":11,\"item_code\":\"Prep Pastry, Mango Float 170G\",\"item_group\":\"Prep Pastry\",\"whole_uom\":\"EACH\",\"item_uom\":\"EACH,GRAMS\"},{\"docstatus\":0,\"doctype\":\"Outlet Prep\",\"name\":\"New Outlet Prep 12\",\"__islocal\":1,\"__unsaved\":1,\"owner\":\"Administrator\",\"parent\":\"New Countsheet Template 1\",\"parentfield\":\"outlet_prep\",\"parenttype\":\"Countsheet Template\",\"idx\":12,\"item_code\":\"Prep Pastry, HB Mango Brazo (Whole Cake)\",\"item_group\":\"Prep Pastry\",\"whole_uom\":\"EACH\",\"item_uom\":\"SLICE,EACH\"},{\"docstatus\":0,\"doctype\":\"Outlet Prep\",\"name\":\"New Outlet Prep 13\",\"__islocal\":1,\"__unsaved\":1,\"owner\":\"Administrator\",\"parent\":\"New Countsheet Template 1\",\"parentfield\":\"outlet_prep\",\"parenttype\":\"Countsheet Template\",\"idx\":13,\"item_code\":\"Prep Pastry, HB Mango Sonata (Whole Cake)\",\"item_group\":\"Prep Pastry\",\"whole_uom\":\"EACH\",\"item_uom\":\"EACH,SLICE\"},{\"docstatus\":0,\"doctype\":\"Outlet Prep\",\"name\":\"New Outlet Prep 14\",\"__islocal\":1,\"__unsaved\":1,\"owner\":\"Administrator\",\"parent\":\"New Countsheet Template 1\",\"parentfield\":\"outlet_prep\",\"parenttype\":\"Countsheet Template\",\"idx\":14,\"item_code\":\"Prep Pastry, Ube Queso 180G\",\"item_group\":\"Prep Pastry\",\"whole_uom\":\"EACH\",\"item_uom\":\"EACH\"},{\"docstatus\":0,\"doctype\":\"Outlet Prep\",\"name\":\"New Outlet Prep 15\",\"__islocal\":1,\"__unsaved\":1,\"owner\":\"Administrator\",\"parent\":\"New Countsheet Template 1\",\"parentfield\":\"outlet_prep\",\"parenttype\":\"Countsheet Template\",\"idx\":15,\"item_code\":\"Prep Pastry, HB Roasted Cocoa Mousse (Whole Cake)\",\"item_group\":\"Prep Pastry\",\"whole_uom\":\"EACH\",\"item_uom\":\"EACH,SLICE\"},{\"docstatus\":0,\"doctype\":\"Outlet Prep\",\"name\":\"New Outlet Prep 16\",\"__islocal\":1,\"__unsaved\":1,\"owner\":\"Administrator\",\"parent\":\"New Countsheet Template 1\",\"parentfield\":\"outlet_prep\",\"parenttype\":\"Countsheet Template\",\"idx\":16,\"item_code\":\"Prep Pastry, HB Red Velvet (Event Cake)\",\"item_group\":\"Prep Pastry\",\"whole_uom\":\"EACH\",\"item_uom\":\"SLICE,EACH\"},{\"docstatus\":0,\"doctype\":\"Outlet Prep\",\"name\":\"New Outlet Prep 17\",\"__islocal\":1,\"__unsaved\":1,\"owner\":\"Administrator\",\"parent\":\"New Countsheet Template 1\",\"parentfield\":\"outlet_prep\",\"parenttype\":\"Countsheet Template\",\"idx\":17,\"item_code\":\"Prep Pastry, HB Red Velvet (Whole Cake)\",\"item_group\":\"Prep Pastry\",\"whole_uom\":\"EACH\",\"item_uom\":\"EACH,SLICE\"},{\"docstatus\":0,\"doctype\":\"Outlet Prep\",\"name\":\"New Outlet Prep 18\",\"__islocal\":1,\"__unsaved\":1,\"owner\":\"Administrator\",\"parent\":\"New Countsheet Template 1\",\"parentfield\":\"outlet_prep\",\"parenttype\":\"Countsheet Template\",\"idx\":18,\"item_code\":\"Prep Pastry, HB O Fudge Bars 12'S\",\"item_group\":\"Prep Pastry\",\"whole_uom\":\"EACH\",\"item_uom\":\"EACH\"},{\"docstatus\":0,\"doctype\":\"Outlet Prep\",\"name\":\"New Outlet Prep 19\",\"__islocal\":1,\"__unsaved\":1,\"owner\":\"Administrator\",\"parent\":\"New Countsheet Template 1\",\"parentfield\":\"outlet_prep\",\"parenttype\":\"Countsheet Template\",\"idx\":19,\"item_code\":\"Prep Pastry, HB White Choco Chunks Cookies 6'S\",\"item_group\":\"Prep Pastry\",\"whole_uom\":\"EACH\",\"item_uom\":\"EACH,PC\"},{\"docstatus\":0,\"doctype\":\"Outlet Prep\",\"name\":\"New Outlet Prep 20\",\"__islocal\":1,\"__unsaved\":1,\"owner\":\"Administrator\",\"parent\":\"New Countsheet Template 1\",\"parentfield\":\"outlet_prep\",\"parenttype\":\"Countsheet Template\",\"idx\":20,\"item_code\":\"Prep Pastry, HB Classic Ube Cake Whole Cake\",\"item_group\":\"Prep Pastry\",\"whole_uom\":\"EACH\",\"item_uom\":\"EACH,SLICE\"},{\"docstatus\":0,\"doctype\":\"Outlet Prep\",\"name\":\"New Outlet Prep 21\",\"__islocal\":1,\"__unsaved\":1,\"owner\":\"Administrator\",\"parent\":\"New Countsheet Template 1\",\"parentfield\":\"outlet_prep\",\"parenttype\":\"Countsheet Template\",\"idx\":21,\"item_code\":\"Prep Pastry, HB Double Choco Chunks Cookies 6'S\",\"item_group\":\"Prep Pastry\",\"whole_uom\":\"EACH\",\"item_uom\":\"PC,EACH\"},{\"docstatus\":0,\"doctype\":\"Outlet Prep\",\"name\":\"New Outlet Prep 22\",\"__islocal\":1,\"__unsaved\":1,\"owner\":\"Administrator\",\"parent\":\"New Countsheet Template 1\",\"parentfield\":\"outlet_prep\",\"parenttype\":\"Countsheet Template\",\"idx\":22,\"item_code\":\"Prep Pastry, HB Strawberry Shortcake (Whole Cake)\",\"item_group\":\"Prep Pastry\",\"whole_uom\":\"EACH\",\"item_uom\":\"SLICE,EACH\"},{\"docstatus\":0,\"doctype\":\"Outlet Prep\",\"name\":\"New Outlet Prep 23\",\"__islocal\":1,\"__unsaved\":1,\"owner\":\"Administrator\",\"parent\":\"New Countsheet Template 1\",\"parentfield\":\"outlet_prep\",\"parenttype\":\"Countsheet Template\",\"idx\":23,\"item_code\":\"Prep Pastry, HB Mango Cheesecake Whole Cake\",\"item_group\":\"Prep Pastry\",\"whole_uom\":\"EACH\",\"item_uom\":\"EACH,SLICE\"},{\"docstatus\":0,\"doctype\":\"Outlet Prep\",\"name\":\"New Outlet Prep 24\",\"__islocal\":1,\"__unsaved\":1,\"owner\":\"Administrator\",\"parent\":\"New Countsheet Template 1\",\"parentfield\":\"outlet_prep\",\"parenttype\":\"Countsheet Template\",\"idx\":24,\"item_code\":\"Prep Pastry, HB Brownies 6'S\",\"item_group\":\"Prep Pastry\",\"whole_uom\":\"EACH\",\"item_uom\":\"EACH\"},{\"docstatus\":0,\"doctype\":\"Outlet Prep\",\"name\":\"New Outlet Prep 25\",\"__islocal\":1,\"__unsaved\":1,\"owner\":\"Administrator\",\"parent\":\"New Countsheet Template 1\",\"parentfield\":\"outlet_prep\",\"parenttype\":\"Countsheet Template\",\"idx\":25,\"item_code\":\"Prep Pastry, HB Brazo De Mercedes (Event Cake)\",\"item_group\":\"Prep Pastry\",\"whole_uom\":\"EACH\",\"item_uom\":\"SLICE,EACH\"},{\"docstatus\":0,\"doctype\":\"Outlet Prep\",\"name\":\"New Outlet Prep 26\",\"__islocal\":1,\"__unsaved\":1,\"owner\":\"Administrator\",\"parent\":\"New Countsheet Template 1\",\"parentfield\":\"outlet_prep\",\"parenttype\":\"Countsheet Template\",\"idx\":26,\"item_code\":\"Prep Pastry, HB Choco Crinkles 12'S\",\"item_group\":\"Prep Pastry\",\"whole_uom\":\"EACH\",\"item_uom\":\"EACH\"},{\"docstatus\":0,\"doctype\":\"Outlet Prep\",\"name\":\"New Outlet Prep 27\",\"__islocal\":1,\"__unsaved\":1,\"owner\":\"Administrator\",\"parent\":\"New Countsheet Template 1\",\"parentfield\":\"outlet_prep\",\"parenttype\":\"Countsheet Template\",\"idx\":27,\"item_code\":\"Prep Pastry, HB White Choco Chunks Cookies 12'S\",\"item_group\":\"Prep Pastry\",\"whole_uom\":\"EACH\",\"item_uom\":\"PC,EACH\"},{\"docstatus\":0,\"doctype\":\"Outlet Prep\",\"name\":\"New Outlet Prep 28\",\"__islocal\":1,\"__unsaved\":1,\"owner\":\"Administrator\",\"parent\":\"New Countsheet Template 1\",\"parentfield\":\"outlet_prep\",\"parenttype\":\"Countsheet Template\",\"idx\":28,\"item_code\":\"Prep Pastry, HB Cr\u00e8me Brulee Cake (Whole Cake)\",\"item_group\":\"Prep Pastry\",\"whole_uom\":\"EACH\",\"item_uom\":\"EACH,SLICE\"},{\"docstatus\":0,\"doctype\":\"Outlet Prep\",\"name\":\"New Outlet Prep 29\",\"__islocal\":1,\"__unsaved\":1,\"owner\":\"Administrator\",\"parent\":\"New Countsheet Template 1\",\"parentfield\":\"outlet_prep\",\"parenttype\":\"Countsheet Template\",\"idx\":29,\"item_code\":\"Prep Pastry, HB Brownies 12'S\",\"item_group\":\"Prep Pastry\",\"whole_uom\":\"EACH\",\"item_uom\":\"EACH\"},{\"docstatus\":0,\"doctype\":\"Outlet Prep\",\"name\":\"New Outlet Prep 30\",\"__islocal\":1,\"__unsaved\":1,\"owner\":\"Administrator\",\"parent\":\"New Countsheet Template 1\",\"parentfield\":\"outlet_prep\",\"parenttype\":\"Countsheet Template\",\"idx\":30,\"item_code\":\"Prep Pastry, HB Sansrival (Whole Cake)\",\"item_group\":\"Prep Pastry\",\"whole_uom\":\"EACH\",\"item_uom\":\"SLICE,EACH\"},{\"docstatus\":0,\"doctype\":\"Outlet Prep\",\"name\":\"New Outlet Prep 31\",\"__islocal\":1,\"__unsaved\":1,\"owner\":\"Administrator\",\"parent\":\"New Countsheet Template 1\",\"parentfield\":\"outlet_prep\",\"parenttype\":\"Countsheet Template\",\"idx\":31,\"item_code\":\"Prep Pastry, Japanese Cheesecake Cream 900G\",\"item_group\":\"Prep Pastry\",\"whole_uom\":\"EACH\",\"item_uom\":\"EACH,GRAMS\"}],\"countsheet_type_name\":\"ts\"}"
}
Request Error
Traceback (most recent call last):
  File "/home/ubuntu/reagan-bench2/apps/frappe/frappe/app.py", line 67, in application
    response = frappe.api.handle()
  File "/home/ubuntu/reagan-bench2/apps/frappe/frappe/api.py", line 59, in handle
    return frappe.handler.handle()
  File "/home/ubuntu/reagan-bench2/apps/frappe/frappe/handler.py", line 24, in handle
    data = execute_cmd(cmd)
  File "/home/ubuntu/reagan-bench2/apps/frappe/frappe/handler.py", line 64, in execute_cmd
    return frappe.call(method, **frappe.form_dict)
  File "/home/ubuntu/reagan-bench2/apps/frappe/frappe/__init__.py", line 1075, in call
    return fn(*args, **newargs)
  File "/home/ubuntu/reagan-bench2/apps/frappe/frappe/desk/form/save.py", line 12, in savedocs
    doc = frappe.get_doc(json.loads(doc))
  File "/home/ubuntu/reagan-bench2/apps/frappe/frappe/__init__.py", line 765, in get_doc
    doc = frappe.model.document.get_doc(*args, **kwargs)
  File "/home/ubuntu/reagan-bench2/apps/frappe/frappe/model/document.py", line 71, in get_doc
    return controller(*args, **kwargs)
  File "/home/ubuntu/reagan-bench2/apps/frappe/frappe/model/document.py", line 115, in __init__
    super(Document, self).__init__(kwargs)
  File "/home/ubuntu/reagan-bench2/apps/frappe/frappe/model/base_document.py", line 66, in __init__
    self.update(d)
  File "/home/ubuntu/reagan-bench2/apps/frappe/frappe/model/base_document.py", line 89, in update
    self.set(key, value)
  File "/home/ubuntu/reagan-bench2/apps/frappe/frappe/model/base_document.py", line 136, in set
    self.extend(key, value)
  File "/home/ubuntu/reagan-bench2/apps/frappe/frappe/model/base_document.py", line 173, in extend
    self.append(key, v)
  File "/home/ubuntu/reagan-bench2/apps/frappe/frappe/model/base_document.py", line 150, in append
    value = self._init_child(value, key)
  File "/home/ubuntu/reagan-bench2/apps/frappe/frappe/model/base_document.py", line 189, in _init_child
    value = get_controller(value["doctype"])(value)
  File "/home/ubuntu/reagan-bench2/apps/frappe/frappe/model/document.py", line 115, in __init__
    super(Document, self).__init__(kwargs)
  File "/home/ubuntu/reagan-bench2/apps/frappe/frappe/model/base_document.py", line 66, in __init__
    self.update(d)
  File "/home/ubuntu/reagan-bench2/apps/frappe/frappe/model/base_document.py", line 89, in update
    self.set(key, value)
  File "/home/ubuntu/reagan-bench2/apps/frappe/frappe/model/base_document.py", line 136, in set
    self.extend(key, value)
  File "/home/ubuntu/reagan-bench2/apps/frappe/frappe/model/base_document.py", line 173, in extend
    self.append(key, v)
  File "/home/ubuntu/reagan-bench2/apps/frappe/frappe/model/base_document.py", line 165, in append
    raise ValueError(
ValueError: Document for field "item_uom" attached to child table of "New Items 4" must be a dict or BaseDocument, not class 'str' (EACH)
[ERROR] 2021-09-16 15:53:47,092 | /home/ubuntu/reagan-bench2/apps/frappe/frappe/app.py:
Site: reaganerp.com
Form Dict: {
 "action": "Save",
 "cmd": "frappe.desk.form.save.savedocs",
 "doc": "{\"docstatus\":0,\"doctype\":\"Countsheet Template\",\"name\":\"New Countsheet Template 1\",\"__islocal\":1,\"__unsaved\":1,\"owner\":\"Administrator\",\"menu_filter\":\"HONEYBON CAKES\",\"items\":[{\"docstatus\":0,\"doctype\":\"Items\",\"name\":\"New Items 1\",\"__islocal\":1,\"__unsaved\":1,\"owner\":\"Administrator\",\"parent\":\"New Countsheet Template 1\",\"parentfield\":\"items\",\"parenttype\":\"Countsheet Template\",\"idx\":1,\"item_code\":\"Packaging, White Paper Twine per KG\",\"item_group\":\"Supplies - Labels & Packaging\",\"whole_uom\":\"KG\",\"item_uom\":[\"GRAMS\",\"KG\"],\"broken_uom\":\"GRAMS\"},{\"docstatus\":0,\"doctype\":\"Items\",\"name\":\"New Items 2\",\"__islocal\":1,\"__unsaved\":1,\"owner\":\"Administrator\",\"parent\":\"New Countsheet Template 1\",\"parentfield\":\"items\",\"parenttype\":\"Countsheet Template\",\"idx\":2,\"item_code\":\"HB Cakebox Large 9.6 50'S\",\"item_group\":\"Supplies - Labels & Packaging\",\"whole_uom\":\"EACH\",\"item_uom\":\"PC,EACH\"},{\"docstatus\":0,\"doctype\":\"Items\",\"name\":\"New Items 3\",\"__islocal\":1,\"__unsaved\":1,\"owner\":\"Administrator\",\"parent\":\"New Countsheet Template 1\",\"parentfield\":\"items\",\"parenttype\":\"Countsheet Template\",\"idx\":3,\"item_code\":\"Label, Honeybon Sticker 5cm Round 1s\",\"item_group\":\"Supplies - Labels & Packaging\",\"whole_uom\":\"PC\",\"item_uom\":\"PC\"},{\"docstatus\":0,\"doctype\":\"Items\",\"name\":\"New Items 4\",\"__islocal\":1,\"__unsaved\":1,\"owner\":\"Administrator\",\"parent\":\"New Countsheet Template 1\",\"parentfield\":\"items\",\"parenttype\":\"Countsheet Template\",\"idx\":4,\"item_code\":\"Prep Bakery, HB Ensaymada 1'S\",\"item_group\":\"Prep Bakery\",\"whole_uom\":\"EACH\",\"item_uom\":\"EACH\"}],\"outlet_prep\":[{\"docstatus\":0,\"doctype\":\"Outlet Prep\",\"name\":\"New Outlet Prep 1\",\"__islocal\":1,\"__unsaved\":1,\"owner\":\"Administrator\",\"parent\":\"New Countsheet Template 1\",\"parentfield\":\"outlet_prep\",\"parenttype\":\"Countsheet Template\",\"idx\":1,\"item_code\":\"Prep Pastry, Mango Bits 800G\",\"item_group\":\"Prep Pastry\",\"whole_uom\":\"EACH\",\"item_uom\":\"GRAMS,EACH\"},{\"docstatus\":0,\"doctype\":\"Outlet Prep\",\"name\":\"New Outlet Prep 2\",\"__islocal\":1,\"__unsaved\":1,\"owner\":\"Administrator\",\"parent\":\"New Countsheet Template 1\",\"parentfield\":\"outlet_prep\",\"parenttype\":\"Countsheet Template\",\"idx\":2,\"item_code\":\"Prep Pastry, HB Matcha Cappucino Whole Cake\",\"item_group\":\"Prep Pastry\",\"whole_uom\":\"EACH\",\"item_uom\":\"EACH,SLICE\"},{\"docstatus\":0,\"doctype\":\"Outlet Prep\",\"name\":\"New Outlet Prep 3\",\"__islocal\":1,\"__unsaved\":1,\"owner\":\"Administrator\",\"parent\":\"New Countsheet Template 1\",\"parentfield\":\"outlet_prep\",\"parenttype\":\"Countsheet Template\",\"idx\":3,\"item_code\":\"Prep Pastry, HB Black Forest Cake (Whole Cake)\",\"item_group\":\"Prep Pastry\",\"whole_uom\":\"EACH\",\"item_uom\":\"SLICE,EACH\"},{\"docstatus\":0,\"doctype\":\"Outlet Prep\",\"name\":\"New Outlet Prep 4\",\"__islocal\":1,\"__unsaved\":1,\"owner\":\"Administrator\",\"parent\":\"New Countsheet Template 1\",\"parentfield\":\"outlet_prep\",\"parenttype\":\"Countsheet Template\",\"idx\":4,\"item_code\":\"Prep Pastry, HB Tiramisu (Whole Cake)\",\"item_group\":\"Prep Pastry\",\"whole_uom\":\"EACH\",\"item_uom\":\"EACH,SLICE\"},{\"docstatus\":0,\"doctype\":\"Outlet Prep\",\"name\":\"New Outlet Prep 5\",\"__islocal\":1,\"__unsaved\":1,\"owner\":\"Administrator\",\"parent\":\"New Countsheet Template 1\",\"parentfield\":\"outlet_prep\",\"parenttype\":\"Countsheet Template\",\"idx\":5,\"item_code\":\"Prep Pastry, HB Double Fudge Choco Chip Cook (Yield: 12 Pieces)\",\"item_group\":\"Prep Pastry\",\"whole_uom\":\"EACH\",\"item_uom\":\"EACH,PC\"},{\"docstatus\":0,\"doctype\":\"Outlet Prep\",\"name\":\"New Outlet Prep 6\",\"__islocal\":1,\"__unsaved\":1,\"owner\":\"Administrator\",\"parent\":\"New Countsheet Template 1\",\"parentfield\":\"outlet_prep\",\"parenttype\":\"Countsheet Template\",\"idx\":6,\"item_code\":\"Prep Pastry, HB Ultimate Chocolate Cake (Whole Cake)\",\"item_group\":\"Prep Pastry\",\"whole_uom\":\"EACH\",\"item_uom\":\"EACH,SLICE\"},{\"docstatus\":0,\"doctype\":\"Outlet Prep\",\"name\":\"New Outlet Prep 7\",\"__islocal\":1,\"__unsaved\":1,\"owner\":\"Administrator\",\"parent\":\"New Countsheet Template 1\",\"parentfield\":\"outlet_prep\",\"parenttype\":\"Countsheet Template\",\"idx\":7,\"item_code\":\"Prep Pastry, HB Mocha Crunch (Whole Cake)\",\"item_group\":\"Prep Pastry\",\"whole_uom\":\"EACH\",\"item_uom\":\"EACH,SLICE\"},{\"docstatus\":0,\"doctype\":\"Outlet Prep\",\"name\":\"New Outlet Prep 8\",\"__islocal\":1,\"__unsaved\":1,\"owner\":\"Administrator\",\"parent\":\"New Countsheet Template 1\",\"parentfield\":\"outlet_prep\",\"parenttype\":\"Countsheet Template\",\"idx\":8,\"item_code\":\"Prep Pastry, HB Chocolate Decadence (Whole)\",\"item_group\":\"Prep Pastry\",\"whole_uom\":\"EACH\",\"item_uom\":\"SLICE,EACH\"},{\"docstatus\":0,\"doctype\":\"Outlet Prep\",\"name\":\"New Outlet Prep 9\",\"__islocal\":1,\"__unsaved\":1,\"owner\":\"Administrator\",\"parent\":\"New Countsheet Template 1\",\"parentfield\":\"outlet_prep\",\"parenttype\":\"Countsheet Template\",\"idx\":9,\"item_code\":\"Prep Pastry, HB Chocolate Caramel (Whole)\",\"item_group\":\"Prep Pastry\",\"whole_uom\":\"EACH\",\"item_uom\":\"SLICE,EACH\"},{\"docstatus\":0,\"doctype\":\"Outlet Prep\",\"name\":\"New Outlet Prep 10\",\"__islocal\":1,\"__unsaved\":1,\"owner\":\"Administrator\",\"parent\":\"New Countsheet Template 1\",\"parentfield\":\"outlet_prep\",\"parenttype\":\"Countsheet Template\",\"idx\":10,\"item_code\":\"Prep Pastry, HB O Fudge Bars 6'S\",\"item_group\":\"Prep Pastry\",\"whole_uom\":\"EACH\",\"item_uom\":\"EACH\"},{\"docstatus\":0,\"doctype\":\"Outlet Prep\",\"name\":\"New Outlet Prep 11\",\"__islocal\":1,\"__unsaved\":1,\"owner\":\"Administrator\",\"parent\":\"New Countsheet Template 1\",\"parentfield\":\"outlet_prep\",\"parenttype\":\"Countsheet Template\",\"idx\":11,\"item_code\":\"Prep Pastry, HB Mango Brazo (Whole Cake)\",\"item_group\":\"Prep Pastry\",\"whole_uom\":\"EACH\",\"item_uom\":\"SLICE,EACH\"},{\"docstatus\":0,\"doctype\":\"Outlet Prep\",\"name\":\"New Outlet Prep 12\",\"__islocal\":1,\"__unsaved\":1,\"owner\":\"Administrator\",\"parent\":\"New Countsheet Template 1\",\"parentfield\":\"outlet_prep\",\"parenttype\":\"Countsheet Template\",\"idx\":12,\"item_code\":\"Prep Pastry, Mango Float 170G\",\"item_group\":\"Prep Pastry\",\"whole_uom\":\"EACH\",\"item_uom\":\"EACH,GRAMS\"},{\"docstatus\":0,\"doctype\":\"Outlet Prep\",\"name\":\"New Outlet Prep 13\",\"__islocal\":1,\"__unsaved\":1,\"owner\":\"Administrator\",\"parent\":\"New Countsheet Template 1\",\"parentfield\":\"outlet_prep\",\"parenttype\":\"Countsheet Template\",\"idx\":13,\"item_code\":\"Prep Pastry, HB Mango Sonata (Whole Cake)\",\"item_group\":\"Prep Pastry\",\"whole_uom\":\"EACH\",\"item_uom\":\"EACH,SLICE\"},{\"docstatus\":0,\"doctype\":\"Outlet Prep\",\"name\":\"New Outlet Prep 14\",\"__islocal\":1,\"__unsaved\":1,\"owner\":\"Administrator\",\"parent\":\"New Countsheet Template 1\",\"parentfield\":\"outlet_prep\",\"parenttype\":\"Countsheet Template\",\"idx\":14,\"item_code\":\"Prep Pastry, Ube Queso 180G\",\"item_group\":\"Prep Pastry\",\"whole_uom\":\"EACH\",\"item_uom\":\"EACH\"},{\"docstatus\":0,\"doctype\":\"Outlet Prep\",\"name\":\"New Outlet Prep 15\",\"__islocal\":1,\"__unsaved\":1,\"owner\":\"Administrator\",\"parent\":\"New Countsheet Template 1\",\"parentfield\":\"outlet_prep\",\"parenttype\":\"Countsheet Template\",\"idx\":15,\"item_code\":\"Prep Pastry, HB Roasted Cocoa Mousse (Whole Cake)\",\"item_group\":\"Prep Pastry\",\"whole_uom\":\"EACH\",\"item_uom\":\"EACH,SLICE\"},{\"docstatus\":0,\"doctype\":\"Outlet Prep\",\"name\":\"New Outlet Prep 16\",\"__islocal\":1,\"__unsaved\":1,\"owner\":\"Administrator\",\"parent\":\"New Countsheet Template 1\",\"parentfield\":\"outlet_prep\",\"parenttype\":\"Countsheet Template\",\"idx\":16,\"item_code\":\"Prep Pastry, HB Red Velvet (Event Cake)\",\"item_group\":\"Prep Pastry\",\"whole_uom\":\"EACH\",\"item_uom\":\"SLICE,EACH\"},{\"docstatus\":0,\"doctype\":\"Outlet Prep\",\"name\":\"New Outlet Prep 17\",\"__islocal\":1,\"__unsaved\":1,\"owner\":\"Administrator\",\"parent\":\"New Countsheet Template 1\",\"parentfield\":\"outlet_prep\",\"parenttype\":\"Countsheet Template\",\"idx\":17,\"item_code\":\"Prep Pastry, HB O Fudge Bars 12'S\",\"item_group\":\"Prep Pastry\",\"whole_uom\":\"EACH\",\"item_uom\":\"EACH\"},{\"docstatus\":0,\"doctype\":\"Outlet Prep\",\"name\":\"New Outlet Prep 18\",\"__islocal\":1,\"__unsaved\":1,\"owner\":\"Administrator\",\"parent\":\"New Countsheet Template 1\",\"parentfield\":\"outlet_prep\",\"parenttype\":\"Countsheet Template\",\"idx\":18,\"item_code\":\"Prep Pastry, HB White Choco Chunks Cookies 6'S\",\"item_group\":\"Prep Pastry\",\"whole_uom\":\"EACH\",\"item_uom\":\"EACH,PC\"},{\"docstatus\":0,\"doctype\":\"Outlet Prep\",\"name\":\"New Outlet Prep 19\",\"__islocal\":1,\"__unsaved\":1,\"owner\":\"Administrator\",\"parent\":\"New Countsheet Template 1\",\"parentfield\":\"outlet_prep\",\"parenttype\":\"Countsheet Template\",\"idx\":19,\"item_code\":\"Prep Pastry, HB Double Choco Chunks Cookies 6'S\",\"item_group\":\"Prep Pastry\",\"whole_uom\":\"EACH\",\"item_uom\":\"PC,EACH\"},{\"docstatus\":0,\"doctype\":\"Outlet Prep\",\"name\":\"New Outlet Prep 20\",\"__islocal\":1,\"__unsaved\":1,\"owner\":\"Administrator\",\"parent\":\"New Countsheet Template 1\",\"parentfield\":\"outlet_prep\",\"parenttype\":\"Countsheet Template\",\"idx\":20,\"item_code\":\"Prep Pastry, HB Strawberry Shortcake (Whole Cake)\",\"item_group\":\"Prep Pastry\",\"whole_uom\":\"EACH\",\"item_uom\":\"SLICE,EACH\"},{\"docstatus\":0,\"doctype\":\"Outlet Prep\",\"name\":\"New Outlet Prep 21\",\"__islocal\":1,\"__unsaved\":1,\"owner\":\"Administrator\",\"parent\":\"New Countsheet Template 1\",\"parentfield\":\"outlet_prep\",\"parenttype\":\"Countsheet Template\",\"idx\":21,\"item_code\":\"Prep Pastry, HB Classic Ube Cake Whole Cake\",\"item_group\":\"Prep Pastry\",\"whole_uom\":\"EACH\",\"item_uom\":\"EACH,SLICE\"},{\"docstatus\":0,\"doctype\":\"Outlet Prep\",\"name\":\"New Outlet Prep 22\",\"__islocal\":1,\"__unsaved\":1,\"owner\":\"Administrator\",\"parent\":\"New Countsheet Template 1\",\"parentfield\":\"outlet_prep\",\"parenttype\":\"Countsheet Template\",\"idx\":22,\"item_code\":\"Prep Pastry, HB Red Velvet (Whole Cake)\",\"item_group\":\"Prep Pastry\",\"whole_uom\":\"EACH\",\"item_uom\":\"EACH,SLICE\"},{\"docstatus\":0,\"doctype\":\"Outlet Prep\",\"name\":\"New Outlet Prep 23\",\"__islocal\":1,\"__unsaved\":1,\"owner\":\"Administrator\",\"parent\":\"New Countsheet Template 1\",\"parentfield\":\"outlet_prep\",\"parenttype\":\"Countsheet Template\",\"idx\":23,\"item_code\":\"Prep Pastry, HB Brownies 6'S\",\"item_group\":\"Prep Pastry\",\"whole_uom\":\"EACH\",\"item_uom\":\"EACH\"},{\"docstatus\":0,\"doctype\":\"Outlet Prep\",\"name\":\"New Outlet Prep 24\",\"__islocal\":1,\"__unsaved\":1,\"owner\":\"Administrator\",\"parent\":\"New Countsheet Template 1\",\"parentfield\":\"outlet_prep\",\"parenttype\":\"Countsheet Template\",\"idx\":24,\"item_code\":\"Prep Pastry, HB Mango Cheesecake Whole Cake\",\"item_group\":\"Prep Pastry\",\"whole_uom\":\"EACH\",\"item_uom\":\"EACH,SLICE\"},{\"docstatus\":0,\"doctype\":\"Outlet Prep\",\"name\":\"New Outlet Prep 25\",\"__islocal\":1,\"__unsaved\":1,\"owner\":\"Administrator\",\"parent\":\"New Countsheet Template 1\",\"parentfield\":\"outlet_prep\",\"parenttype\":\"Countsheet Template\",\"idx\":25,\"item_code\":\"Prep Pastry, HB Brazo De Mercedes (Event Cake)\",\"item_group\":\"Prep Pastry\",\"whole_uom\":\"EACH\",\"item_uom\":\"SLICE,EACH\"},{\"docstatus\":0,\"doctype\":\"Outlet Prep\",\"name\":\"New Outlet Prep 26\",\"__islocal\":1,\"__unsaved\":1,\"owner\":\"Administrator\",\"parent\":\"New Countsheet Template 1\",\"parentfield\":\"outlet_prep\",\"parenttype\":\"Countsheet Template\",\"idx\":26,\"item_code\":\"Prep Pastry, HB Choco Crinkles 12'S\",\"item_group\":\"Prep Pastry\",\"whole_uom\":\"EACH\",\"item_uom\":\"EACH\"},{\"docstatus\":0,\"doctype\":\"Outlet Prep\",\"name\":\"New Outlet Prep 27\",\"__islocal\":1,\"__unsaved\":1,\"owner\":\"Administrator\",\"parent\":\"New Countsheet Template 1\",\"parentfield\":\"outlet_prep\",\"parenttype\":\"Countsheet Template\",\"idx\":27,\"item_code\":\"Prep Pastry, HB White Choco Chunks Cookies 12'S\",\"item_group\":\"Prep Pastry\",\"whole_uom\":\"EACH\",\"item_uom\":\"PC,EACH\"},{\"docstatus\":0,\"doctype\":\"Outlet Prep\",\"name\":\"New Outlet Prep 28\",\"__islocal\":1,\"__unsaved\":1,\"owner\":\"Administrator\",\"parent\":\"New Countsheet Template 1\",\"parentfield\":\"outlet_prep\",\"parenttype\":\"Countsheet Template\",\"idx\":28,\"item_code\":\"Prep Pastry, HB Cr\u00e8me Brulee Cake (Whole Cake)\",\"item_group\":\"Prep Pastry\",\"whole_uom\":\"EACH\",\"item_uom\":\"EACH,SLICE\"},{\"docstatus\":0,\"doctype\":\"Outlet Prep\",\"name\":\"New Outlet Prep 29\",\"__islocal\":1,\"__unsaved\":1,\"owner\":\"Administrator\",\"parent\":\"New Countsheet Template 1\",\"parentfield\":\"outlet_prep\",\"parenttype\":\"Countsheet Template\",\"idx\":29,\"item_code\":\"Prep Pastry, HB Sansrival (Whole Cake)\",\"item_group\":\"Prep Pastry\",\"whole_uom\":\"EACH\",\"item_uom\":\"SLICE,EACH\"},{\"docstatus\":0,\"doctype\":\"Outlet Prep\",\"name\":\"New Outlet Prep 30\",\"__islocal\":1,\"__unsaved\":1,\"owner\":\"Administrator\",\"parent\":\"New Countsheet Template 1\",\"parentfield\":\"outlet_prep\",\"parenttype\":\"Countsheet Template\",\"idx\":30,\"item_code\":\"Prep Pastry, Japanese Cheesecake Cream 900G\",\"item_group\":\"Prep Pastry\",\"whole_uom\":\"EACH\",\"item_uom\":\"EACH,GRAMS\"},{\"docstatus\":0,\"doctype\":\"Outlet Prep\",\"name\":\"New Outlet Prep 31\",\"__islocal\":1,\"__unsaved\":1,\"owner\":\"Administrator\",\"parent\":\"New Countsheet Template 1\",\"parentfield\":\"outlet_prep\",\"parenttype\":\"Countsheet Template\",\"idx\":31,\"item_code\":\"Prep Pastry, HB Brownies 12'S\",\"item_group\":\"Prep Pastry\",\"whole_uom\":\"EACH\",\"item_uom\":\"EACH\"}],\"countsheet_type_name\":\"sdfghjsdfghj\"}"
}
Request Error
Traceback (most recent call last):
  File "/home/ubuntu/reagan-bench2/apps/frappe/frappe/app.py", line 67, in application
    response = frappe.api.handle()
  File "/home/ubuntu/reagan-bench2/apps/frappe/frappe/api.py", line 59, in handle
    return frappe.handler.handle()
  File "/home/ubuntu/reagan-bench2/apps/frappe/frappe/handler.py", line 24, in handle
    data = execute_cmd(cmd)
  File "/home/ubuntu/reagan-bench2/apps/frappe/frappe/handler.py", line 64, in execute_cmd
    return frappe.call(method, **frappe.form_dict)
  File "/home/ubuntu/reagan-bench2/apps/frappe/frappe/__init__.py", line 1075, in call
    return fn(*args, **newargs)
  File "/home/ubuntu/reagan-bench2/apps/frappe/frappe/desk/form/save.py", line 12, in savedocs
    doc = frappe.get_doc(json.loads(doc))
  File "/home/ubuntu/reagan-bench2/apps/frappe/frappe/__init__.py", line 765, in get_doc
    doc = frappe.model.document.get_doc(*args, **kwargs)
  File "/home/ubuntu/reagan-bench2/apps/frappe/frappe/model/document.py", line 71, in get_doc
    return controller(*args, **kwargs)
  File "/home/ubuntu/reagan-bench2/apps/frappe/frappe/model/document.py", line 115, in __init__
    super(Document, self).__init__(kwargs)
  File "/home/ubuntu/reagan-bench2/apps/frappe/frappe/model/base_document.py", line 66, in __init__
    self.update(d)
  File "/home/ubuntu/reagan-bench2/apps/frappe/frappe/model/base_document.py", line 89, in update
    self.set(key, value)
  File "/home/ubuntu/reagan-bench2/apps/frappe/frappe/model/base_document.py", line 136, in set
    self.extend(key, value)
  File "/home/ubuntu/reagan-bench2/apps/frappe/frappe/model/base_document.py", line 173, in extend
    self.append(key, v)
  File "/home/ubuntu/reagan-bench2/apps/frappe/frappe/model/base_document.py", line 150, in append
    value = self._init_child(value, key)
  File "/home/ubuntu/reagan-bench2/apps/frappe/frappe/model/base_document.py", line 189, in _init_child
    value = get_controller(value["doctype"])(value)
  File "/home/ubuntu/reagan-bench2/apps/frappe/frappe/model/document.py", line 115, in __init__
    super(Document, self).__init__(kwargs)
  File "/home/ubuntu/reagan-bench2/apps/frappe/frappe/model/base_document.py", line 66, in __init__
    self.update(d)
  File "/home/ubuntu/reagan-bench2/apps/frappe/frappe/model/base_document.py", line 89, in update
    self.set(key, value)
  File "/home/ubuntu/reagan-bench2/apps/frappe/frappe/model/base_document.py", line 136, in set
    self.extend(key, value)
  File "/home/ubuntu/reagan-bench2/apps/frappe/frappe/model/base_document.py", line 173, in extend
    self.append(key, v)
  File "/home/ubuntu/reagan-bench2/apps/frappe/frappe/model/base_document.py", line 165, in append
    raise ValueError(
ValueError: Document for field "item_uom" attached to child table of "New Items 1" must be a dict or BaseDocument, not class 'str' (GRAMS)
[ERROR] 2021-09-16 16:02:05,538 | /home/ubuntu/reagan-bench2/apps/frappe/frappe/app.py:
Site: reaganerp.com
Form Dict: {
 "action": "Save",
 "cmd": "frappe.desk.form.save.savedocs",
 "doc": "{\"docstatus\":0,\"doctype\":\"Countsheet Template\",\"name\":\"New Countsheet Template 1\",\"__islocal\":1,\"__unsaved\":1,\"owner\":\"Administrator\",\"menu_filter\":\"HONEYBON CAKES\",\"items\":[{\"docstatus\":0,\"doctype\":\"Items\",\"name\":\"New Items 1\",\"__islocal\":1,\"__unsaved\":1,\"owner\":\"Administrator\",\"parent\":\"New Countsheet Template 1\",\"parentfield\":\"items\",\"parenttype\":\"Countsheet Template\",\"idx\":1,\"item_code\":\"Packaging, White Paper Twine per KG\",\"item_group\":\"Supplies - Labels & Packaging\",\"whole_uom\":\"KG\",\"item_uom\":[\"GRAMS\",\"KG\"],\"broken_uom\":\"GRAMS\"},{\"docstatus\":0,\"doctype\":\"Items\",\"name\":\"New Items 2\",\"__islocal\":1,\"__unsaved\":1,\"owner\":\"Administrator\",\"parent\":\"New Countsheet Template 1\",\"parentfield\":\"items\",\"parenttype\":\"Countsheet Template\",\"idx\":2,\"item_code\":\"HB Cakebox Large 9.6 50'S\",\"item_group\":\"Supplies - Labels & Packaging\",\"whole_uom\":\"EACH\",\"item_uom\":\"PC,EACH\"},{\"docstatus\":0,\"doctype\":\"Items\",\"name\":\"New Items 3\",\"__islocal\":1,\"__unsaved\":1,\"owner\":\"Administrator\",\"parent\":\"New Countsheet Template 1\",\"parentfield\":\"items\",\"parenttype\":\"Countsheet Template\",\"idx\":3,\"item_code\":\"Label, Honeybon Sticker 5cm Round 1s\",\"item_group\":\"Supplies - Labels & Packaging\",\"whole_uom\":\"PC\",\"item_uom\":\"PC\"},{\"docstatus\":0,\"doctype\":\"Items\",\"name\":\"New Items 4\",\"__islocal\":1,\"__unsaved\":1,\"owner\":\"Administrator\",\"parent\":\"New Countsheet Template 1\",\"parentfield\":\"items\",\"parenttype\":\"Countsheet Template\",\"idx\":4,\"item_code\":\"Prep Bakery, HB Ensaymada 1'S\",\"item_group\":\"Prep Bakery\",\"whole_uom\":\"EACH\",\"item_uom\":\"EACH\"}],\"outlet_prep\":[{\"docstatus\":0,\"doctype\":\"Outlet Prep\",\"name\":\"New Outlet Prep 1\",\"__islocal\":1,\"__unsaved\":1,\"owner\":\"Administrator\",\"parent\":\"New Countsheet Template 1\",\"parentfield\":\"outlet_prep\",\"parenttype\":\"Countsheet Template\",\"idx\":1,\"item_code\":\"Prep Pastry, Mango Bits 800G\",\"item_group\":\"Prep Pastry\",\"whole_uom\":\"EACH\",\"item_uom\":\"undefinedGRAMSEACH\"},{\"docstatus\":0,\"doctype\":\"Outlet Prep\",\"name\":\"New Outlet Prep 2\",\"__islocal\":1,\"__unsaved\":1,\"owner\":\"Administrator\",\"parent\":\"New Countsheet Template 1\",\"parentfield\":\"outlet_prep\",\"parenttype\":\"Countsheet Template\",\"idx\":2,\"item_code\":\"Prep Pastry, HB Tiramisu (Whole Cake)\",\"item_group\":\"Prep Pastry\",\"whole_uom\":\"EACH\",\"item_uom\":\"undefinedEACHSLICE\"},{\"docstatus\":0,\"doctype\":\"Outlet Prep\",\"name\":\"New Outlet Prep 3\",\"__islocal\":1,\"__unsaved\":1,\"owner\":\"Administrator\",\"parent\":\"New Countsheet Template 1\",\"parentfield\":\"outlet_prep\",\"parenttype\":\"Countsheet Template\",\"idx\":3,\"item_code\":\"Prep Pastry, HB Black Forest Cake (Whole Cake)\",\"item_group\":\"Prep Pastry\",\"whole_uom\":\"EACH\",\"item_uom\":\"undefinedSLICEEACH\"},{\"docstatus\":0,\"doctype\":\"Outlet Prep\",\"name\":\"New Outlet Prep 4\",\"__islocal\":1,\"__unsaved\":1,\"owner\":\"Administrator\",\"parent\":\"New Countsheet Template 1\",\"parentfield\":\"outlet_prep\",\"parenttype\":\"Countsheet Template\",\"idx\":4,\"item_code\":\"Prep Pastry, HB Matcha Cappucino Whole Cake\",\"item_group\":\"Prep Pastry\",\"whole_uom\":\"EACH\",\"item_uom\":\"undefinedEACHSLICE\"},{\"docstatus\":0,\"doctype\":\"Outlet Prep\",\"name\":\"New Outlet Prep 5\",\"__islocal\":1,\"__unsaved\":1,\"owner\":\"Administrator\",\"parent\":\"New Countsheet Template 1\",\"parentfield\":\"outlet_prep\",\"parenttype\":\"Countsheet Template\",\"idx\":5,\"item_code\":\"Prep Pastry, HB Double Fudge Choco Chip Cook (Yield: 12 Pieces)\",\"item_group\":\"Prep Pastry\",\"whole_uom\":\"EACH\",\"item_uom\":\"undefinedEACHPC\"},{\"docstatus\":0,\"doctype\":\"Outlet Prep\",\"name\":\"New Outlet Prep 6\",\"__islocal\":1,\"__unsaved\":1,\"owner\":\"Administrator\",\"parent\":\"New Countsheet Template 1\",\"parentfield\":\"outlet_prep\",\"parenttype\":\"Countsheet Template\",\"idx\":6,\"item_code\":\"Prep Pastry, HB Ultimate Chocolate Cake (Whole Cake)\",\"item_group\":\"Prep Pastry\",\"whole_uom\":\"EACH\",\"item_uom\":\"undefinedEACHSLICE\"},{\"docstatus\":0,\"doctype\":\"Outlet Prep\",\"name\":\"New Outlet Prep 7\",\"__islocal\":1,\"__unsaved\":1,\"owner\":\"Administrator\",\"parent\":\"New Countsheet Template 1\",\"parentfield\":\"outlet_prep\",\"parenttype\":\"Countsheet Template\",\"idx\":7,\"item_code\":\"Prep Pastry, HB Mocha Crunch (Whole Cake)\",\"item_group\":\"Prep Pastry\",\"whole_uom\":\"EACH\",\"item_uom\":\"undefinedEACHSLICE\"},{\"docstatus\":0,\"doctype\":\"Outlet Prep\",\"name\":\"New Outlet Prep 8\",\"__islocal\":1,\"__unsaved\":1,\"owner\":\"Administrator\",\"parent\":\"New Countsheet Template 1\",\"parentfield\":\"outlet_prep\",\"parenttype\":\"Countsheet Template\",\"idx\":8,\"item_code\":\"Prep Pastry, HB Chocolate Decadence (Whole)\",\"item_group\":\"Prep Pastry\",\"whole_uom\":\"EACH\",\"item_uom\":\"undefinedSLICEEACH\"},{\"docstatus\":0,\"doctype\":\"Outlet Prep\",\"name\":\"New Outlet Prep 9\",\"__islocal\":1,\"__unsaved\":1,\"owner\":\"Administrator\",\"parent\":\"New Countsheet Template 1\",\"parentfield\":\"outlet_prep\",\"parenttype\":\"Countsheet Template\",\"idx\":9,\"item_code\":\"Prep Pastry, HB Chocolate Caramel (Whole)\",\"item_group\":\"Prep Pastry\",\"whole_uom\":\"EACH\",\"item_uom\":\"undefinedSLICEEACH\"},{\"docstatus\":0,\"doctype\":\"Outlet Prep\",\"name\":\"New Outlet Prep 10\",\"__islocal\":1,\"__unsaved\":1,\"owner\":\"Administrator\",\"parent\":\"New Countsheet Template 1\",\"parentfield\":\"outlet_prep\",\"parenttype\":\"Countsheet Template\",\"idx\":10,\"item_code\":\"Prep Pastry, HB O Fudge Bars 6'S\",\"item_group\":\"Prep Pastry\",\"whole_uom\":\"EACH\",\"item_uom\":\"undefinedEACH\"},{\"docstatus\":0,\"doctype\":\"Outlet Prep\",\"name\":\"New Outlet Prep 11\",\"__islocal\":1,\"__unsaved\":1,\"owner\":\"Administrator\",\"parent\":\"New Countsheet Template 1\",\"parentfield\":\"outlet_prep\",\"parenttype\":\"Countsheet Template\",\"idx\":11,\"item_code\":\"Prep Pastry, HB Mango Sonata (Whole Cake)\",\"item_group\":\"Prep Pastry\",\"whole_uom\":\"EACH\",\"item_uom\":\"undefinedEACHSLICE\"},{\"docstatus\":0,\"doctype\":\"Outlet Prep\",\"name\":\"New Outlet Prep 12\",\"__islocal\":1,\"__unsaved\":1,\"owner\":\"Administrator\",\"parent\":\"New Countsheet Template 1\",\"parentfield\":\"outlet_prep\",\"parenttype\":\"Countsheet Template\",\"idx\":12,\"item_code\":\"Prep Pastry, Mango Float 170G\",\"item_group\":\"Prep Pastry\",\"whole_uom\":\"EACH\",\"item_uom\":\"undefinedEACHGRAMS\"},{\"docstatus\":0,\"doctype\":\"Outlet Prep\",\"name\":\"New Outlet Prep 13\",\"__islocal\":1,\"__unsaved\":1,\"owner\":\"Administrator\",\"parent\":\"New Countsheet Template 1\",\"parentfield\":\"outlet_prep\",\"parenttype\":\"Countsheet Template\",\"idx\":13,\"item_code\":\"Prep Pastry, HB Mango Brazo (Whole Cake)\",\"item_group\":\"Prep Pastry\",\"whole_uom\":\"EACH\",\"item_uom\":\"undefinedSLICEEACH\"},{\"docstatus\":0,\"doctype\":\"Outlet Prep\",\"name\":\"New Outlet Prep 14\",\"__islocal\":1,\"__unsaved\":1,\"owner\":\"Administrator\",\"parent\":\"New Countsheet Template 1\",\"parentfield\":\"outlet_prep\",\"parenttype\":\"Countsheet Template\",\"idx\":14,\"item_code\":\"Prep Pastry, HB Roasted Cocoa Mousse (Whole Cake)\",\"item_group\":\"Prep Pastry\",\"whole_uom\":\"EACH\",\"item_uom\":\"undefinedEACHSLICE\"},{\"docstatus\":0,\"doctype\":\"Outlet Prep\",\"name\":\"New Outlet Prep 15\",\"__islocal\":1,\"__unsaved\":1,\"owner\":\"Administrator\",\"parent\":\"New Countsheet Template 1\",\"parentfield\":\"outlet_prep\",\"parenttype\":\"Countsheet Template\",\"idx\":15,\"item_code\":\"Prep Pastry, Ube Queso 180G\",\"item_group\":\"Prep Pastry\",\"whole_uom\":\"EACH\",\"item_uom\":\"undefinedEACH\"},{\"docstatus\":0,\"doctype\":\"Outlet Prep\",\"name\":\"New Outlet Prep 16\",\"__islocal\":1,\"__unsaved\":1,\"owner\":\"Administrator\",\"parent\":\"New Countsheet Template 1\",\"parentfield\":\"outlet_prep\",\"parenttype\":\"Countsheet Template\",\"idx\":16,\"item_code\":\"Prep Pastry, HB Red Velvet (Event Cake)\",\"item_group\":\"Prep Pastry\",\"whole_uom\":\"EACH\",\"item_uom\":\"undefinedSLICEEACH\"},{\"docstatus\":0,\"doctype\":\"Outlet Prep\",\"name\":\"New Outlet Prep 17\",\"__islocal\":1,\"__unsaved\":1,\"owner\":\"Administrator\",\"parent\":\"New Countsheet Template 1\",\"parentfield\":\"outlet_prep\",\"parenttype\":\"Countsheet Template\",\"idx\":17,\"item_code\":\"Prep Pastry, HB White Choco Chunks Cookies 6'S\",\"item_group\":\"Prep Pastry\",\"whole_uom\":\"EACH\",\"item_uom\":\"undefinedEACHPC\"},{\"docstatus\":0,\"doctype\":\"Outlet Prep\",\"name\":\"New Outlet Prep 18\",\"__islocal\":1,\"__unsaved\":1,\"owner\":\"Administrator\",\"parent\":\"New Countsheet Template 1\",\"parentfield\":\"outlet_prep\",\"parenttype\":\"Countsheet Template\",\"idx\":18,\"item_code\":\"Prep Pastry, HB O Fudge Bars 12'S\",\"item_group\":\"Prep Pastry\",\"whole_uom\":\"EACH\",\"item_uom\":\"undefinedEACH\"},{\"docstatus\":0,\"doctype\":\"Outlet Prep\",\"name\":\"New Outlet Prep 19\",\"__islocal\":1,\"__unsaved\":1,\"owner\":\"Administrator\",\"parent\":\"New Countsheet Template 1\",\"parentfield\":\"outlet_prep\",\"parenttype\":\"Countsheet Template\",\"idx\":19,\"item_code\":\"Prep Pastry, HB Red Velvet (Whole Cake)\",\"item_group\":\"Prep Pastry\",\"whole_uom\":\"EACH\",\"item_uom\":\"undefinedEACHSLICE\"},{\"docstatus\":0,\"doctype\":\"Outlet Prep\",\"name\":\"New Outlet Prep 20\",\"__islocal\":1,\"__unsaved\":1,\"owner\":\"Administrator\",\"parent\":\"New Countsheet Template 1\",\"parentfield\":\"outlet_prep\",\"parenttype\":\"Countsheet Template\",\"idx\":20,\"item_code\":\"Prep Pastry, HB Strawberry Shortcake (Whole Cake)\",\"item_group\":\"Prep Pastry\",\"whole_uom\":\"EACH\",\"item_uom\":\"undefinedSLICEEACH\"},{\"docstatus\":0,\"doctype\":\"Outlet Prep\",\"name\":\"New Outlet Prep 21\",\"__islocal\":1,\"__unsaved\":1,\"owner\":\"Administrator\",\"parent\":\"New Countsheet Template 1\",\"parentfield\":\"outlet_prep\",\"parenttype\":\"Countsheet Template\",\"idx\":21,\"item_code\":\"Prep Pastry, HB Classic Ube Cake Whole Cake\",\"item_group\":\"Prep Pastry\",\"whole_uom\":\"EACH\",\"item_uom\":\"undefinedEACHSLICE\"},{\"docstatus\":0,\"doctype\":\"Outlet Prep\",\"name\":\"New Outlet Prep 22\",\"__islocal\":1,\"__unsaved\":1,\"owner\":\"Administrator\",\"parent\":\"New Countsheet Template 1\",\"parentfield\":\"outlet_prep\",\"parenttype\":\"Countsheet Template\",\"idx\":22,\"item_code\":\"Prep Pastry, HB Double Choco Chunks Cookies 6'S\",\"item_group\":\"Prep Pastry\",\"whole_uom\":\"EACH\",\"item_uom\":\"undefinedPCEACH\"},{\"docstatus\":0,\"doctype\":\"Outlet Prep\",\"name\":\"New Outlet Prep 23\",\"__islocal\":1,\"__unsaved\":1,\"owner\":\"Administrator\",\"parent\":\"New Countsheet Template 1\",\"parentfield\":\"outlet_prep\",\"parenttype\":\"Countsheet Template\",\"idx\":23,\"item_code\":\"Prep Pastry, HB Brownies 6'S\",\"item_group\":\"Prep Pastry\",\"whole_uom\":\"EACH\",\"item_uom\":\"undefinedEACH\"},{\"docstatus\":0,\"doctype\":\"Outlet Prep\",\"name\":\"New Outlet Prep 24\",\"__islocal\":1,\"__unsaved\":1,\"owner\":\"Administrator\",\"parent\":\"New Countsheet Template 1\",\"parentfield\":\"outlet_prep\",\"parenttype\":\"Countsheet Template\",\"idx\":24,\"item_code\":\"Prep Pastry, HB Mango Cheesecake Whole Cake\",\"item_group\":\"Prep Pastry\",\"whole_uom\":\"EACH\",\"item_uom\":\"undefinedEACHSLICE\"},{\"docstatus\":0,\"doctype\":\"Outlet Prep\",\"name\":\"New Outlet Prep 25\",\"__islocal\":1,\"__unsaved\":1,\"owner\":\"Administrator\",\"parent\":\"New Countsheet Template 1\",\"parentfield\":\"outlet_prep\",\"parenttype\":\"Countsheet Template\",\"idx\":25,\"item_code\":\"Prep Pastry, HB Brazo De Mercedes (Event Cake)\",\"item_group\":\"Prep Pastry\",\"whole_uom\":\"EACH\",\"item_uom\":\"undefinedSLICEEACH\"},{\"docstatus\":0,\"doctype\":\"Outlet Prep\",\"name\":\"New Outlet Prep 26\",\"__islocal\":1,\"__unsaved\":1,\"owner\":\"Administrator\",\"parent\":\"New Countsheet Template 1\",\"parentfield\":\"outlet_prep\",\"parenttype\":\"Countsheet Template\",\"idx\":26,\"item_code\":\"Prep Pastry, HB White Choco Chunks Cookies 12'S\",\"item_group\":\"Prep Pastry\",\"whole_uom\":\"EACH\",\"item_uom\":\"undefinedPCEACH\"},{\"docstatus\":0,\"doctype\":\"Outlet Prep\",\"name\":\"New Outlet Prep 27\",\"__islocal\":1,\"__unsaved\":1,\"owner\":\"Administrator\",\"parent\":\"New Countsheet Template 1\",\"parentfield\":\"outlet_prep\",\"parenttype\":\"Countsheet Template\",\"idx\":27,\"item_code\":\"Prep Pastry, HB Choco Crinkles 12'S\",\"item_group\":\"Prep Pastry\",\"whole_uom\":\"EACH\",\"item_uom\":\"undefinedEACH\"},{\"docstatus\":0,\"doctype\":\"Outlet Prep\",\"name\":\"New Outlet Prep 28\",\"__islocal\":1,\"__unsaved\":1,\"owner\":\"Administrator\",\"parent\":\"New Countsheet Template 1\",\"parentfield\":\"outlet_prep\",\"parenttype\":\"Countsheet Template\",\"idx\":28,\"item_code\":\"Prep Pastry, HB Cr\u00e8me Brulee Cake (Whole Cake)\",\"item_group\":\"Prep Pastry\",\"whole_uom\":\"EACH\",\"item_uom\":\"undefinedEACHSLICE\"},{\"docstatus\":0,\"doctype\":\"Outlet Prep\",\"name\":\"New Outlet Prep 29\",\"__islocal\":1,\"__unsaved\":1,\"owner\":\"Administrator\",\"parent\":\"New Countsheet Template 1\",\"parentfield\":\"outlet_prep\",\"parenttype\":\"Countsheet Template\",\"idx\":29,\"item_code\":\"Prep Pastry, HB Sansrival (Whole Cake)\",\"item_group\":\"Prep Pastry\",\"whole_uom\":\"EACH\",\"item_uom\":\"undefinedSLICEEACH\"},{\"docstatus\":0,\"doctype\":\"Outlet Prep\",\"name\":\"New Outlet Prep 30\",\"__islocal\":1,\"__unsaved\":1,\"owner\":\"Administrator\",\"parent\":\"New Countsheet Template 1\",\"parentfield\":\"outlet_prep\",\"parenttype\":\"Countsheet Template\",\"idx\":30,\"item_code\":\"Prep Pastry, HB Brownies 12'S\",\"item_group\":\"Prep Pastry\",\"whole_uom\":\"EACH\",\"item_uom\":\"undefinedEACH\"},{\"docstatus\":0,\"doctype\":\"Outlet Prep\",\"name\":\"New Outlet Prep 31\",\"__islocal\":1,\"__unsaved\":1,\"owner\":\"Administrator\",\"parent\":\"New Countsheet Template 1\",\"parentfield\":\"outlet_prep\",\"parenttype\":\"Countsheet Template\",\"idx\":31,\"item_code\":\"Prep Pastry, Japanese Cheesecake Cream 900G\",\"item_group\":\"Prep Pastry\",\"whole_uom\":\"EACH\",\"item_uom\":\"undefinedEACHGRAMS\"}],\"countsheet_type_name\":\"mnhjk\"}"
}
Request Error
Traceback (most recent call last):
  File "/home/ubuntu/reagan-bench2/apps/frappe/frappe/app.py", line 67, in application
    response = frappe.api.handle()
  File "/home/ubuntu/reagan-bench2/apps/frappe/frappe/api.py", line 59, in handle
    return frappe.handler.handle()
  File "/home/ubuntu/reagan-bench2/apps/frappe/frappe/handler.py", line 24, in handle
    data = execute_cmd(cmd)
  File "/home/ubuntu/reagan-bench2/apps/frappe/frappe/handler.py", line 64, in execute_cmd
    return frappe.call(method, **frappe.form_dict)
  File "/home/ubuntu/reagan-bench2/apps/frappe/frappe/__init__.py", line 1075, in call
    return fn(*args, **newargs)
  File "/home/ubuntu/reagan-bench2/apps/frappe/frappe/desk/form/save.py", line 12, in savedocs
    doc = frappe.get_doc(json.loads(doc))
  File "/home/ubuntu/reagan-bench2/apps/frappe/frappe/__init__.py", line 765, in get_doc
    doc = frappe.model.document.get_doc(*args, **kwargs)
  File "/home/ubuntu/reagan-bench2/apps/frappe/frappe/model/document.py", line 71, in get_doc
    return controller(*args, **kwargs)
  File "/home/ubuntu/reagan-bench2/apps/frappe/frappe/model/document.py", line 115, in __init__
    super(Document, self).__init__(kwargs)
  File "/home/ubuntu/reagan-bench2/apps/frappe/frappe/model/base_document.py", line 66, in __init__
    self.update(d)
  File "/home/ubuntu/reagan-bench2/apps/frappe/frappe/model/base_document.py", line 89, in update
    self.set(key, value)
  File "/home/ubuntu/reagan-bench2/apps/frappe/frappe/model/base_document.py", line 136, in set
    self.extend(key, value)
  File "/home/ubuntu/reagan-bench2/apps/frappe/frappe/model/base_document.py", line 173, in extend
    self.append(key, v)
  File "/home/ubuntu/reagan-bench2/apps/frappe/frappe/model/base_document.py", line 150, in append
    value = self._init_child(value, key)
  File "/home/ubuntu/reagan-bench2/apps/frappe/frappe/model/base_document.py", line 189, in _init_child
    value = get_controller(value["doctype"])(value)
  File "/home/ubuntu/reagan-bench2/apps/frappe/frappe/model/document.py", line 115, in __init__
    super(Document, self).__init__(kwargs)
  File "/home/ubuntu/reagan-bench2/apps/frappe/frappe/model/base_document.py", line 66, in __init__
    self.update(d)
  File "/home/ubuntu/reagan-bench2/apps/frappe/frappe/model/base_document.py", line 89, in update
    self.set(key, value)
  File "/home/ubuntu/reagan-bench2/apps/frappe/frappe/model/base_document.py", line 136, in set
    self.extend(key, value)
  File "/home/ubuntu/reagan-bench2/apps/frappe/frappe/model/base_document.py", line 173, in extend
    self.append(key, v)
  File "/home/ubuntu/reagan-bench2/apps/frappe/frappe/model/base_document.py", line 165, in append
    raise ValueError(
ValueError: Document for field "item_uom" attached to child table of "New Items 1" must be a dict or BaseDocument, not class 'str' (GRAMS)
[DEBUG] 2021-09-16 16:12:24,149 | /home/ubuntu/reagan-bench2/apps/frappe/frappe/utils/scheduler.py:
Site: reaganerp.com
Queued events for site reaganerp.com
[DEBUG] 2021-09-16 16:13:24,447 | /home/ubuntu/reagan-bench2/apps/frappe/frappe/utils/scheduler.py:
Site: reaganerp.com
Queued events for site reaganerp.com
[DEBUG] 2021-09-16 16:14:24,729 | /home/ubuntu/reagan-bench2/apps/frappe/frappe/utils/scheduler.py:
Site: reaganerp.com
Queued events for site reaganerp.com
[ERROR] 2021-09-16 16:14:31,839 | /home/ubuntu/reagan-bench2/apps/frappe/frappe/app.py:
Site: reaganerp.com
Form Dict: {
 "action": "Save",
 "cmd": "frappe.desk.form.save.savedocs",
 "doc": "{\"name\":\"lkjhgf\",\"owner\":\"Administrator\",\"creation\":\"2021-09-16 18:44:15.858130\",\"modified\":\"2021-09-16 18:44:15.858130\",\"modified_by\":\"Administrator\",\"idx\":0,\"docstatus\":0,\"countsheet_type_name\":\"lkjhgf\",\"menu_filter\":\"HONEYBON CAKES\",\"doctype\":\"Countsheet Template\",\"items\":[{\"name\":\"d47f0a43c0\",\"owner\":\"Administrator\",\"creation\":\"2021-09-16 18:44:15.858130\",\"modified\":\"2021-09-16 18:44:15.858130\",\"modified_by\":\"Administrator\",\"parent\":\"lkjhgf\",\"parentfield\":\"items\",\"parenttype\":\"Countsheet Template\",\"idx\":1,\"docstatus\":0,\"item_code\":\"Packaging, White Paper Twine per KG\",\"item_group\":\"Supplies - Labels & Packaging\",\"whole_qty\":0,\"whole_uom\":\"KG\",\"broken_qty\":0,\"broken_uom\":\"GRAMS\",\"item_uom\":\"GRAMS,KG\",\"doctype\":\"Items\"},{\"name\":\"25116af513\",\"owner\":\"Administrator\",\"creation\":\"2021-09-16 18:44:15.858130\",\"modified\":\"2021-09-16 18:44:15.858130\",\"modified_by\":\"Administrator\",\"parent\":\"lkjhgf\",\"parentfield\":\"items\",\"parenttype\":\"Countsheet Template\",\"idx\":2,\"docstatus\":0,\"item_code\":\"HB Cakebox Large 9.6 50'S\",\"item_group\":\"Supplies - Labels & Packaging\",\"whole_qty\":0,\"whole_uom\":\"EACH\",\"broken_qty\":0,\"broken_uom\":\"PC\",\"item_uom\":\"PC,EACH\",\"doctype\":\"Items\"},{\"name\":\"c46a7ee37d\",\"owner\":\"Administrator\",\"creation\":\"2021-09-16 18:44:15.858130\",\"modified\":\"2021-09-16 18:44:15.858130\",\"modified_by\":\"Administrator\",\"parent\":\"lkjhgf\",\"parentfield\":\"items\",\"parenttype\":\"Countsheet Template\",\"idx\":3,\"docstatus\":0,\"item_code\":\"Prep Bakery, HB Ensaymada 1'S\",\"item_group\":\"Prep Bakery\",\"whole_qty\":0,\"whole_uom\":\"EACH\",\"broken_qty\":0,\"broken_uom\":\"EACH\",\"item_uom\":\"EACH\",\"doctype\":\"Items\"},{\"name\":\"3c334cee54\",\"owner\":\"Administrator\",\"creation\":\"2021-09-16 18:44:15.858130\",\"modified\":\"2021-09-16 18:44:15.858130\",\"modified_by\":\"Administrator\",\"parent\":\"lkjhgf\",\"parentfield\":\"items\",\"parenttype\":\"Countsheet Template\",\"idx\":4,\"docstatus\":0,\"item_code\":\"Label, Honeybon Sticker 5cm Round 1s\",\"item_group\":\"Supplies - Labels & Packaging\",\"whole_qty\":0,\"whole_uom\":\"PC\",\"broken_qty\":0,\"broken_uom\":\"PC\",\"item_uom\":\"PC\",\"doctype\":\"Items\"}],\"outlet_prep\":[{\"name\":\"c9a24eff32\",\"owner\":\"Administrator\",\"creation\":\"2021-09-16 18:44:15.858130\",\"modified\":\"2021-09-16 18:44:15.858130\",\"modified_by\":\"Administrator\",\"parent\":\"lkjhgf\",\"parentfield\":\"outlet_prep\",\"parenttype\":\"Countsheet Template\",\"idx\":1,\"docstatus\":0,\"item_code\":\"Prep Pastry, HB Black Forest Cake (Whole Cake)\",\"item_group\":\"Prep Pastry\",\"whole_qty\":0,\"whole_uom\":\"EACH\",\"broken_qty\":0,\"item_uom\":[\"SLICE\",\"EACH\"],\"doctype\":\"Outlet Prep\",\"broken_uom\":\"SLICE\"},{\"name\":\"6408690a42\",\"owner\":\"Administrator\",\"creation\":\"2021-09-16 18:44:15.858130\",\"modified\":\"2021-09-16 18:44:15.858130\",\"modified_by\":\"Administrator\",\"parent\":\"lkjhgf\",\"parentfield\":\"outlet_prep\",\"parenttype\":\"Countsheet Template\",\"idx\":2,\"docstatus\":0,\"item_code\":\"Prep Pastry, HB Tiramisu (Whole Cake)\",\"item_group\":\"Prep Pastry\",\"whole_qty\":0,\"whole_uom\":\"EACH\",\"broken_qty\":0,\"item_uom\":\"EACH,SLICE\",\"doctype\":\"Outlet Prep\"},{\"name\":\"30ef7b8789\",\"owner\":\"Administrator\",\"creation\":\"2021-09-16 18:44:15.858130\",\"modified\":\"2021-09-16 18:44:15.858130\",\"modified_by\":\"Administrator\",\"parent\":\"lkjhgf\",\"parentfield\":\"outlet_prep\",\"parenttype\":\"Countsheet Template\",\"idx\":3,\"docstatus\":0,\"item_code\":\"Prep Pastry, HB Matcha Cappucino Whole Cake\",\"item_group\":\"Prep Pastry\",\"whole_qty\":0,\"whole_uom\":\"EACH\",\"broken_qty\":0,\"item_uom\":\"EACH,SLICE\",\"doctype\":\"Outlet Prep\"},{\"name\":\"52523b7f43\",\"owner\":\"Administrator\",\"creation\":\"2021-09-16 18:44:15.858130\",\"modified\":\"2021-09-16 18:44:15.858130\",\"modified_by\":\"Administrator\",\"parent\":\"lkjhgf\",\"parentfield\":\"outlet_prep\",\"parenttype\":\"Countsheet Template\",\"idx\":4,\"docstatus\":0,\"item_code\":\"Prep Pastry, HB Double Fudge Choco Chip Cook (Yield: 12 Pieces)\",\"item_group\":\"Prep Pastry\",\"whole_qty\":0,\"whole_uom\":\"EACH\",\"broken_qty\":0,\"item_uom\":\"EACH,PC\",\"doctype\":\"Outlet Prep\"},{\"name\":\"8237e45367\",\"owner\":\"Administrator\",\"creation\":\"2021-09-16 18:44:15.858130\",\"modified\":\"2021-09-16 18:44:15.858130\",\"modified_by\":\"Administrator\",\"parent\":\"lkjhgf\",\"parentfield\":\"outlet_prep\",\"parenttype\":\"Countsheet Template\",\"idx\":5,\"docstatus\":0,\"item_code\":\"Prep Pastry, Mango Bits 800G\",\"item_group\":\"Prep Pastry\",\"whole_qty\":0,\"whole_uom\":\"EACH\",\"broken_qty\":0,\"item_uom\":\"GRAMS,EACH\",\"doctype\":\"Outlet Prep\"},{\"name\":\"314711096a\",\"owner\":\"Administrator\",\"creation\":\"2021-09-16 18:44:15.858130\",\"modified\":\"2021-09-16 18:44:15.858130\",\"modified_by\":\"Administrator\",\"parent\":\"lkjhgf\",\"parentfield\":\"outlet_prep\",\"parenttype\":\"Countsheet Template\",\"idx\":6,\"docstatus\":0,\"item_code\":\"Prep Pastry, HB Mocha Crunch (Whole Cake)\",\"item_group\":\"Prep Pastry\",\"whole_qty\":0,\"whole_uom\":\"EACH\",\"broken_qty\":0,\"item_uom\":\"EACH,SLICE\",\"doctype\":\"Outlet Prep\"},{\"name\":\"7896edc49b\",\"owner\":\"Administrator\",\"creation\":\"2021-09-16 18:44:15.858130\",\"modified\":\"2021-09-16 18:44:15.858130\",\"modified_by\":\"Administrator\",\"parent\":\"lkjhgf\",\"parentfield\":\"outlet_prep\",\"parenttype\":\"Countsheet Template\",\"idx\":7,\"docstatus\":0,\"item_code\":\"Prep Pastry, HB Chocolate Caramel (Whole)\",\"item_group\":\"Prep Pastry\",\"whole_qty\":0,\"whole_uom\":\"EACH\",\"broken_qty\":0,\"item_uom\":\"SLICE,EACH\",\"doctype\":\"Outlet Prep\"},{\"name\":\"b072d87679\",\"owner\":\"Administrator\",\"creation\":\"2021-09-16 18:44:15.858130\",\"modified\":\"2021-09-16 18:44:15.858130\",\"modified_by\":\"Administrator\",\"parent\":\"lkjhgf\",\"parentfield\":\"outlet_prep\",\"parenttype\":\"Countsheet Template\",\"idx\":8,\"docstatus\":0,\"item_code\":\"Prep Pastry, HB Ultimate Chocolate Cake (Whole Cake)\",\"item_group\":\"Prep Pastry\",\"whole_qty\":0,\"whole_uom\":\"EACH\",\"broken_qty\":0,\"item_uom\":\"EACH,SLICE\",\"doctype\":\"Outlet Prep\"},{\"name\":\"5e7ffb68c7\",\"owner\":\"Administrator\",\"creation\":\"2021-09-16 18:44:15.858130\",\"modified\":\"2021-09-16 18:44:15.858130\",\"modified_by\":\"Administrator\",\"parent\":\"lkjhgf\",\"parentfield\":\"outlet_prep\",\"parenttype\":\"Countsheet Template\",\"idx\":9,\"docstatus\":0,\"item_code\":\"Prep Pastry, HB O Fudge Bars 6'S\",\"item_group\":\"Prep Pastry\",\"whole_qty\":0,\"whole_uom\":\"EACH\",\"broken_qty\":0,\"item_uom\":\"EACH\",\"doctype\":\"Outlet Prep\"},{\"name\":\"6f7505b301\",\"owner\":\"Administrator\",\"creation\":\"2021-09-16 18:44:15.858130\",\"modified\":\"2021-09-16 18:44:15.858130\",\"modified_by\":\"Administrator\",\"parent\":\"lkjhgf\",\"parentfield\":\"outlet_prep\",\"parenttype\":\"Countsheet Template\",\"idx\":10,\"docstatus\":0,\"item_code\":\"Prep Pastry, HB Chocolate Decadence (Whole)\",\"item_group\":\"Prep Pastry\",\"whole_qty\":0,\"whole_uom\":\"EACH\",\"broken_qty\":0,\"item_uom\":\"SLICE,EACH\",\"doctype\":\"Outlet Prep\"},{\"name\":\"ebc07d3db1\",\"owner\":\"Administrator\",\"creation\":\"2021-09-16 18:44:15.858130\",\"modified\":\"2021-09-16 18:44:15.858130\",\"modified_by\":\"Administrator\",\"parent\":\"lkjhgf\",\"parentfield\":\"outlet_prep\",\"parenttype\":\"Countsheet Template\",\"idx\":11,\"docstatus\":0,\"item_code\":\"Prep Pastry, Mango Float 170G\",\"item_group\":\"Prep Pastry\",\"whole_qty\":0,\"whole_uom\":\"EACH\",\"broken_qty\":0,\"item_uom\":\"EACH,GRAMS\",\"doctype\":\"Outlet Prep\"},{\"name\":\"9ef2d2437b\",\"owner\":\"Administrator\",\"creation\":\"2021-09-16 18:44:15.858130\",\"modified\":\"2021-09-16 18:44:15.858130\",\"modified_by\":\"Administrator\",\"parent\":\"lkjhgf\",\"parentfield\":\"outlet_prep\",\"parenttype\":\"Countsheet Template\",\"idx\":12,\"docstatus\":0,\"item_code\":\"Prep Pastry, HB Mango Sonata (Whole Cake)\",\"item_group\":\"Prep Pastry\",\"whole_qty\":0,\"whole_uom\":\"EACH\",\"broken_qty\":0,\"item_uom\":\"EACH,SLICE\",\"doctype\":\"Outlet Prep\"},{\"name\":\"269314ac68\",\"owner\":\"Administrator\",\"creation\":\"2021-09-16 18:44:15.858130\",\"modified\":\"2021-09-16 18:44:15.858130\",\"modified_by\":\"Administrator\",\"parent\":\"lkjhgf\",\"parentfield\":\"outlet_prep\",\"parenttype\":\"Countsheet Template\",\"idx\":13,\"docstatus\":0,\"item_code\":\"Prep Pastry, HB Mango Brazo (Whole Cake)\",\"item_group\":\"Prep Pastry\",\"whole_qty\":0,\"whole_uom\":\"EACH\",\"broken_qty\":0,\"item_uom\":\"SLICE,EACH\",\"doctype\":\"Outlet Prep\"},{\"name\":\"23192c000f\",\"owner\":\"Administrator\",\"creation\":\"2021-09-16 18:44:15.858130\",\"modified\":\"2021-09-16 18:44:15.858130\",\"modified_by\":\"Administrator\",\"parent\":\"lkjhgf\",\"parentfield\":\"outlet_prep\",\"parenttype\":\"Countsheet Template\",\"idx\":14,\"docstatus\":0,\"item_code\":\"Prep Pastry, Ube Queso 180G\",\"item_group\":\"Prep Pastry\",\"whole_qty\":0,\"whole_uom\":\"EACH\",\"broken_qty\":0,\"item_uom\":\"EACH\",\"doctype\":\"Outlet Prep\"},{\"name\":\"7ab5b4a4cf\",\"owner\":\"Administrator\",\"creation\":\"2021-09-16 18:44:15.858130\",\"modified\":\"2021-09-16 18:44:15.858130\",\"modified_by\":\"Administrator\",\"parent\":\"lkjhgf\",\"parentfield\":\"outlet_prep\",\"parenttype\":\"Countsheet Template\",\"idx\":15,\"docstatus\":0,\"item_code\":\"Prep Pastry, HB Roasted Cocoa Mousse (Whole Cake)\",\"item_group\":\"Prep Pastry\",\"whole_qty\":0,\"whole_uom\":\"EACH\",\"broken_qty\":0,\"item_uom\":\"EACH,SLICE\",\"doctype\":\"Outlet Prep\"},{\"name\":\"c72112d787\",\"owner\":\"Administrator\",\"creation\":\"2021-09-16 18:44:15.858130\",\"modified\":\"2021-09-16 18:44:15.858130\",\"modified_by\":\"Administrator\",\"parent\":\"lkjhgf\",\"parentfield\":\"outlet_prep\",\"parenttype\":\"Countsheet Template\",\"idx\":16,\"docstatus\":0,\"item_code\":\"Prep Pastry, HB Red Velvet (Event Cake)\",\"item_group\":\"Prep Pastry\",\"whole_qty\":0,\"whole_uom\":\"EACH\",\"broken_qty\":0,\"item_uom\":\"SLICE,EACH\",\"doctype\":\"Outlet Prep\"},{\"name\":\"b90fdb8315\",\"owner\":\"Administrator\",\"creation\":\"2021-09-16 18:44:15.858130\",\"modified\":\"2021-09-16 18:44:15.858130\",\"modified_by\":\"Administrator\",\"parent\":\"lkjhgf\",\"parentfield\":\"outlet_prep\",\"parenttype\":\"Countsheet Template\",\"idx\":17,\"docstatus\":0,\"item_code\":\"Prep Pastry, HB White Choco Chunks Cookies 6'S\",\"item_group\":\"Prep Pastry\",\"whole_qty\":0,\"whole_uom\":\"EACH\",\"broken_qty\":0,\"item_uom\":\"EACH,PC\",\"doctype\":\"Outlet Prep\"},{\"name\":\"737d80e51a\",\"owner\":\"Administrator\",\"creation\":\"2021-09-16 18:44:15.858130\",\"modified\":\"2021-09-16 18:44:15.858130\",\"modified_by\":\"Administrator\",\"parent\":\"lkjhgf\",\"parentfield\":\"outlet_prep\",\"parenttype\":\"Countsheet Template\",\"idx\":18,\"docstatus\":0,\"item_code\":\"Prep Pastry, HB O Fudge Bars 12'S\",\"item_group\":\"Prep Pastry\",\"whole_qty\":0,\"whole_uom\":\"EACH\",\"broken_qty\":0,\"item_uom\":\"EACH\",\"doctype\":\"Outlet Prep\"},{\"name\":\"f09e97cc20\",\"owner\":\"Administrator\",\"creation\":\"2021-09-16 18:44:15.858130\",\"modified\":\"2021-09-16 18:44:15.858130\",\"modified_by\":\"Administrator\",\"parent\":\"lkjhgf\",\"parentfield\":\"outlet_prep\",\"parenttype\":\"Countsheet Template\",\"idx\":19,\"docstatus\":0,\"item_code\":\"Prep Pastry, HB Classic Ube Cake Whole Cake\",\"item_group\":\"Prep Pastry\",\"whole_qty\":0,\"whole_uom\":\"EACH\",\"broken_qty\":0,\"item_uom\":\"EACH,SLICE\",\"doctype\":\"Outlet Prep\"},{\"name\":\"419a5dcf07\",\"owner\":\"Administrator\",\"creation\":\"2021-09-16 18:44:15.858130\",\"modified\":\"2021-09-16 18:44:15.858130\",\"modified_by\":\"Administrator\",\"parent\":\"lkjhgf\",\"parentfield\":\"outlet_prep\",\"parenttype\":\"Countsheet Template\",\"idx\":20,\"docstatus\":0,\"item_code\":\"Prep Pastry, HB Red Velvet (Whole Cake)\",\"item_group\":\"Prep Pastry\",\"whole_qty\":0,\"whole_uom\":\"EACH\",\"broken_qty\":0,\"item_uom\":\"EACH,SLICE\",\"doctype\":\"Outlet Prep\"},{\"name\":\"9ff1338f2b\",\"owner\":\"Administrator\",\"creation\":\"2021-09-16 18:44:15.858130\",\"modified\":\"2021-09-16 18:44:15.858130\",\"modified_by\":\"Administrator\",\"parent\":\"lkjhgf\",\"parentfield\":\"outlet_prep\",\"parenttype\":\"Countsheet Template\",\"idx\":21,\"docstatus\":0,\"item_code\":\"Prep Pastry, HB Strawberry Shortcake (Whole Cake)\",\"item_group\":\"Prep Pastry\",\"whole_qty\":0,\"whole_uom\":\"EACH\",\"broken_qty\":0,\"item_uom\":\"SLICE,EACH\",\"doctype\":\"Outlet Prep\"},{\"name\":\"6cbf57672d\",\"owner\":\"Administrator\",\"creation\":\"2021-09-16 18:44:15.858130\",\"modified\":\"2021-09-16 18:44:15.858130\",\"modified_by\":\"Administrator\",\"parent\":\"lkjhgf\",\"parentfield\":\"outlet_prep\",\"parenttype\":\"Countsheet Template\",\"idx\":22,\"docstatus\":0,\"item_code\":\"Prep Pastry, HB Double Choco Chunks Cookies 6'S\",\"item_group\":\"Prep Pastry\",\"whole_qty\":0,\"whole_uom\":\"EACH\",\"broken_qty\":0,\"item_uom\":\"PC,EACH\",\"doctype\":\"Outlet Prep\"},{\"name\":\"8b7796a370\",\"owner\":\"Administrator\",\"creation\":\"2021-09-16 18:44:15.858130\",\"modified\":\"2021-09-16 18:44:15.858130\",\"modified_by\":\"Administrator\",\"parent\":\"lkjhgf\",\"parentfield\":\"outlet_prep\",\"parenttype\":\"Countsheet Template\",\"idx\":23,\"docstatus\":0,\"item_code\":\"Prep Pastry, HB White Choco Chunks Cookies 12'S\",\"item_group\":\"Prep Pastry\",\"whole_qty\":0,\"whole_uom\":\"EACH\",\"broken_qty\":0,\"item_uom\":\"PC,EACH\",\"doctype\":\"Outlet Prep\"},{\"name\":\"1f0ac96bd6\",\"owner\":\"Administrator\",\"creation\":\"2021-09-16 18:44:15.858130\",\"modified\":\"2021-09-16 18:44:15.858130\",\"modified_by\":\"Administrator\",\"parent\":\"lkjhgf\",\"parentfield\":\"outlet_prep\",\"parenttype\":\"Countsheet Template\",\"idx\":24,\"docstatus\":0,\"item_code\":\"Prep Pastry, HB Mango Cheesecake Whole Cake\",\"item_group\":\"Prep Pastry\",\"whole_qty\":0,\"whole_uom\":\"EACH\",\"broken_qty\":0,\"item_uom\":\"EACH,SLICE\",\"doctype\":\"Outlet Prep\"},{\"name\":\"903cb4a6e9\",\"owner\":\"Administrator\",\"creation\":\"2021-09-16 18:44:15.858130\",\"modified\":\"2021-09-16 18:44:15.858130\",\"modified_by\":\"Administrator\",\"parent\":\"lkjhgf\",\"parentfield\":\"outlet_prep\",\"parenttype\":\"Countsheet Template\",\"idx\":25,\"docstatus\":0,\"item_code\":\"Prep Pastry, HB Brownies 6'S\",\"item_group\":\"Prep Pastry\",\"whole_qty\":0,\"whole_uom\":\"EACH\",\"broken_qty\":0,\"item_uom\":\"EACH\",\"doctype\":\"Outlet Prep\"},{\"name\":\"76f1b7ce25\",\"owner\":\"Administrator\",\"creation\":\"2021-09-16 18:44:15.858130\",\"modified\":\"2021-09-16 18:44:15.858130\",\"modified_by\":\"Administrator\",\"parent\":\"lkjhgf\",\"parentfield\":\"outlet_prep\",\"parenttype\":\"Countsheet Template\",\"idx\":26,\"docstatus\":0,\"item_code\":\"Prep Pastry, HB Brazo De Mercedes (Event Cake)\",\"item_group\":\"Prep Pastry\",\"whole_qty\":0,\"whole_uom\":\"EACH\",\"broken_qty\":0,\"item_uom\":\"SLICE,EACH\",\"doctype\":\"Outlet Prep\"},{\"name\":\"8f608330af\",\"owner\":\"Administrator\",\"creation\":\"2021-09-16 18:44:15.858130\",\"modified\":\"2021-09-16 18:44:15.858130\",\"modified_by\":\"Administrator\",\"parent\":\"lkjhgf\",\"parentfield\":\"outlet_prep\",\"parenttype\":\"Countsheet Template\",\"idx\":27,\"docstatus\":0,\"item_code\":\"Prep Pastry, HB Brownies 12'S\",\"item_group\":\"Prep Pastry\",\"whole_qty\":0,\"whole_uom\":\"EACH\",\"broken_qty\":0,\"item_uom\":\"EACH\",\"doctype\":\"Outlet Prep\"},{\"name\":\"b6b247b6f4\",\"owner\":\"Administrator\",\"creation\":\"2021-09-16 18:44:15.858130\",\"modified\":\"2021-09-16 18:44:15.858130\",\"modified_by\":\"Administrator\",\"parent\":\"lkjhgf\",\"parentfield\":\"outlet_prep\",\"parenttype\":\"Countsheet Template\",\"idx\":28,\"docstatus\":0,\"item_code\":\"Prep Pastry, HB Sansrival (Whole Cake)\",\"item_group\":\"Prep Pastry\",\"whole_qty\":0,\"whole_uom\":\"EACH\",\"broken_qty\":0,\"item_uom\":\"SLICE,EACH\",\"doctype\":\"Outlet Prep\"},{\"name\":\"cef3b76b3b\",\"owner\":\"Administrator\",\"creation\":\"2021-09-16 18:44:15.858130\",\"modified\":\"2021-09-16 18:44:15.858130\",\"modified_by\":\"Administrator\",\"parent\":\"lkjhgf\",\"parentfield\":\"outlet_prep\",\"parenttype\":\"Countsheet Template\",\"idx\":29,\"docstatus\":0,\"item_code\":\"Prep Pastry, HB Choco Crinkles 12'S\",\"item_group\":\"Prep Pastry\",\"whole_qty\":0,\"whole_uom\":\"EACH\",\"broken_qty\":0,\"item_uom\":\"EACH\",\"doctype\":\"Outlet Prep\"},{\"name\":\"4cd0d25054\",\"owner\":\"Administrator\",\"creation\":\"2021-09-16 18:44:15.858130\",\"modified\":\"2021-09-16 18:44:15.858130\",\"modified_by\":\"Administrator\",\"parent\":\"lkjhgf\",\"parentfield\":\"outlet_prep\",\"parenttype\":\"Countsheet Template\",\"idx\":30,\"docstatus\":0,\"item_code\":\"Prep Pastry, Japanese Cheesecake Cream 900G\",\"item_group\":\"Prep Pastry\",\"whole_qty\":0,\"whole_uom\":\"EACH\",\"broken_qty\":0,\"item_uom\":\"EACH,GRAMS\",\"doctype\":\"Outlet Prep\"},{\"name\":\"7c4e4ba265\",\"owner\":\"Administrator\",\"creation\":\"2021-09-16 18:44:15.858130\",\"modified\":\"2021-09-16 18:44:15.858130\",\"modified_by\":\"Administrator\",\"parent\":\"lkjhgf\",\"parentfield\":\"outlet_prep\",\"parenttype\":\"Countsheet Template\",\"idx\":31,\"docstatus\":0,\"item_code\":\"Prep Pastry, HB Cr\u00e8me Brulee Cake (Whole Cake)\",\"item_group\":\"Prep Pastry\",\"whole_qty\":0,\"whole_uom\":\"EACH\",\"broken_qty\":0,\"item_uom\":\"EACH,SLICE\",\"doctype\":\"Outlet Prep\"}],\"__last_sync_on\":\"2021-09-16T10:44:23.464Z\",\"__unsaved\":1}"
}
Request Error
Traceback (most recent call last):
  File "/home/ubuntu/reagan-bench2/apps/frappe/frappe/app.py", line 67, in application
    response = frappe.api.handle()
  File "/home/ubuntu/reagan-bench2/apps/frappe/frappe/api.py", line 59, in handle
    return frappe.handler.handle()
  File "/home/ubuntu/reagan-bench2/apps/frappe/frappe/handler.py", line 24, in handle
    data = execute_cmd(cmd)
  File "/home/ubuntu/reagan-bench2/apps/frappe/frappe/handler.py", line 64, in execute_cmd
    return frappe.call(method, **frappe.form_dict)
  File "/home/ubuntu/reagan-bench2/apps/frappe/frappe/__init__.py", line 1075, in call
    return fn(*args, **newargs)
  File "/home/ubuntu/reagan-bench2/apps/frappe/frappe/desk/form/save.py", line 12, in savedocs
    doc = frappe.get_doc(json.loads(doc))
  File "/home/ubuntu/reagan-bench2/apps/frappe/frappe/__init__.py", line 765, in get_doc
    doc = frappe.model.document.get_doc(*args, **kwargs)
  File "/home/ubuntu/reagan-bench2/apps/frappe/frappe/model/document.py", line 71, in get_doc
    return controller(*args, **kwargs)
  File "/home/ubuntu/reagan-bench2/apps/frappe/frappe/model/document.py", line 115, in __init__
    super(Document, self).__init__(kwargs)
  File "/home/ubuntu/reagan-bench2/apps/frappe/frappe/model/base_document.py", line 66, in __init__
    self.update(d)
  File "/home/ubuntu/reagan-bench2/apps/frappe/frappe/model/base_document.py", line 89, in update
    self.set(key, value)
  File "/home/ubuntu/reagan-bench2/apps/frappe/frappe/model/base_document.py", line 136, in set
    self.extend(key, value)
  File "/home/ubuntu/reagan-bench2/apps/frappe/frappe/model/base_document.py", line 173, in extend
    self.append(key, v)
  File "/home/ubuntu/reagan-bench2/apps/frappe/frappe/model/base_document.py", line 150, in append
    value = self._init_child(value, key)
  File "/home/ubuntu/reagan-bench2/apps/frappe/frappe/model/base_document.py", line 189, in _init_child
    value = get_controller(value["doctype"])(value)
  File "/home/ubuntu/reagan-bench2/apps/frappe/frappe/model/document.py", line 115, in __init__
    super(Document, self).__init__(kwargs)
  File "/home/ubuntu/reagan-bench2/apps/frappe/frappe/model/base_document.py", line 66, in __init__
    self.update(d)
  File "/home/ubuntu/reagan-bench2/apps/frappe/frappe/model/base_document.py", line 89, in update
    self.set(key, value)
  File "/home/ubuntu/reagan-bench2/apps/frappe/frappe/model/base_document.py", line 136, in set
    self.extend(key, value)
  File "/home/ubuntu/reagan-bench2/apps/frappe/frappe/model/base_document.py", line 173, in extend
    self.append(key, v)
  File "/home/ubuntu/reagan-bench2/apps/frappe/frappe/model/base_document.py", line 165, in append
    raise ValueError(
ValueError: Document for field "item_uom" attached to child table of "c9a24eff32" must be a dict or BaseDocument, not class 'str' (SLICE)
[ERROR] 2021-09-16 16:14:31,947 | /home/ubuntu/reagan-bench2/apps/frappe/frappe/utils/error.py:
New Exception collected with id: 2021-09-16 16:14:31.840704-127.0.0.1-abc
[DEBUG] 2021-09-16 16:15:24,953 | /home/ubuntu/reagan-bench2/apps/frappe/frappe/utils/scheduler.py:
Site: reaganerp.com
Queued events for site reaganerp.com
[DEBUG] 2021-09-16 16:16:25,145 | /home/ubuntu/reagan-bench2/apps/frappe/frappe/utils/scheduler.py:
Site: reaganerp.com
Queued events for site reaganerp.com
[DEBUG] 2021-09-16 16:17:25,332 | /home/ubuntu/reagan-bench2/apps/frappe/frappe/utils/scheduler.py:
Site: reaganerp.com
Queued events for site reaganerp.com
[DEBUG] 2021-09-16 16:18:25,633 | /home/ubuntu/reagan-bench2/apps/frappe/frappe/utils/scheduler.py:
Site: reaganerp.com
Queued events for site reaganerp.com
[DEBUG] 2021-09-16 16:19:25,803 | /home/ubuntu/reagan-bench2/apps/frappe/frappe/utils/scheduler.py:
Site: reaganerp.com
Queued events for site reaganerp.com
[DEBUG] 2021-09-16 16:20:25,980 | /home/ubuntu/reagan-bench2/apps/frappe/frappe/utils/scheduler.py:
Site: reaganerp.com
Queued events for site reaganerp.com
[DEBUG] 2021-09-16 16:21:26,171 | /home/ubuntu/reagan-bench2/apps/frappe/frappe/utils/scheduler.py:
Site: reaganerp.com
Queued events for site reaganerp.com
[DEBUG] 2021-09-16 16:22:26,374 | /home/ubuntu/reagan-bench2/apps/frappe/frappe/utils/scheduler.py:
Site: reaganerp.com
Queued events for site reaganerp.com
[DEBUG] 2021-09-16 16:23:26,596 | /home/ubuntu/reagan-bench2/apps/frappe/frappe/utils/scheduler.py:
Site: reaganerp.com
Queued events for site reaganerp.com
[ERROR] 2021-09-16 16:23:55,033 | /home/ubuntu/reagan-bench2/apps/frappe/frappe/app.py:
Site: reaganerp.com
Form Dict: {
 "action": "Save",
 "cmd": "frappe.desk.form.save.savedocs",
 "doc": "{\"name\":\"Items\",\"creation\":\"2021-09-03 17:39:05.742405\",\"modified\":\"2021-09-16 15:43:47.285595\",\"modified_by\":\"Administrator\",\"owner\":\"Administrator\",\"docstatus\":0,\"idx\":0,\"issingle\":0,\"is_tree\":0,\"istable\":1,\"editable_grid\":1,\"track_changes\":1,\"module\":\"DSR\",\"name_case\":\"\",\"sort_field\":\"modified\",\"sort_order\":\"DESC\",\"read_only\":0,\"in_create\":0,\"allow_copy\":0,\"allow_rename\":0,\"allow_import\":0,\"hide_toolbar\":0,\"track_seen\":0,\"max_attachments\":0,\"document_type\":\"\",\"engine\":\"InnoDB\",\"is_submittable\":0,\"show_name_in_global_search\":0,\"custom\":0,\"beta\":0,\"has_web_view\":0,\"allow_guest_to_view\":0,\"allow_auto_repeat\":0,\"allow_events_in_timeline\":0,\"track_views\":0,\"show_preview_popup\":0,\"quick_entry\":1,\"doctype\":\"DocType\",\"fields\":[{\"name\":\"4edd52156b\",\"creation\":\"2021-09-03 17:39:05.742405\",\"modified\":\"2021-09-16 15:43:47.285595\",\"modified_by\":\"Administrator\",\"owner\":\"Administrator\",\"docstatus\":0,\"parent\":\"Items\",\"parentfield\":\"fields\",\"parenttype\":\"DocType\",\"idx\":1,\"fieldname\":\"item_code\",\"label\":\"Item Code\",\"fieldtype\":\"Link\",\"options\":\"Item\",\"search_index\":0,\"hidden\":0,\"set_only_once\":0,\"allow_in_quick_entry\":0,\"print_hide\":0,\"report_hide\":0,\"reqd\":0,\"bold\":0,\"in_global_search\":0,\"collapsible\":0,\"unique\":0,\"no_copy\":0,\"allow_on_submit\":0,\"show_preview_popup\":0,\"permlevel\":0,\"ignore_user_permissions\":0,\"columns\":2,\"in_list_view\":1,\"fetch_if_empty\":0,\"in_filter\":0,\"remember_last_selected_value\":0,\"ignore_xss_filter\":0,\"print_hide_if_no_value\":0,\"allow_bulk_edit\":0,\"in_standard_filter\":0,\"in_preview\":0,\"read_only\":1,\"precision\":\"\",\"length\":0,\"translatable\":0,\"doctype\":\"DocField\"},{\"name\":\"92bdf2687d\",\"creation\":\"2021-09-03 17:39:05.742405\",\"modified\":\"2021-09-16 15:43:47.285595\",\"modified_by\":\"Administrator\",\"owner\":\"Administrator\",\"docstatus\":0,\"parent\":\"Items\",\"parentfield\":\"fields\",\"parenttype\":\"DocType\",\"idx\":2,\"fieldname\":\"item_group\",\"label\":\"Item Group\",\"fieldtype\":\"Link\",\"options\":\"Item Group\",\"search_index\":0,\"hidden\":0,\"set_only_once\":0,\"allow_in_quick_entry\":0,\"print_hide\":0,\"report_hide\":0,\"reqd\":0,\"bold\":0,\"in_global_search\":0,\"collapsible\":0,\"unique\":0,\"no_copy\":0,\"allow_on_submit\":0,\"show_preview_popup\":0,\"permlevel\":0,\"ignore_user_permissions\":0,\"columns\":2,\"in_list_view\":1,\"fetch_if_empty\":0,\"in_filter\":0,\"remember_last_selected_value\":0,\"ignore_xss_filter\":0,\"print_hide_if_no_value\":0,\"allow_bulk_edit\":0,\"in_standard_filter\":0,\"in_preview\":0,\"read_only\":1,\"precision\":\"\",\"length\":0,\"translatable\":0,\"doctype\":\"DocField\"},{\"name\":\"6762de4446\",\"creation\":\"2021-09-03 17:39:05.742405\",\"modified\":\"2021-09-16 15:43:47.285595\",\"modified_by\":\"Administrator\",\"owner\":\"Administrator\",\"docstatus\":0,\"parent\":\"Items\",\"parentfield\":\"fields\",\"parenttype\":\"DocType\",\"idx\":3,\"fieldname\":\"whole_qty\",\"label\":\"Whole Qty\",\"fieldtype\":\"Float\",\"search_index\":0,\"hidden\":0,\"set_only_once\":0,\"allow_in_quick_entry\":0,\"print_hide\":0,\"report_hide\":0,\"reqd\":0,\"bold\":0,\"in_global_search\":0,\"collapsible\":0,\"unique\":0,\"no_copy\":0,\"allow_on_submit\":0,\"show_preview_popup\":0,\"permlevel\":0,\"ignore_user_permissions\":0,\"columns\":1,\"in_list_view\":1,\"fetch_if_empty\":0,\"in_filter\":0,\"remember_last_selected_value\":0,\"ignore_xss_filter\":0,\"print_hide_if_no_value\":0,\"allow_bulk_edit\":0,\"in_standard_filter\":0,\"in_preview\":0,\"read_only\":1,\"precision\":\"\",\"length\":0,\"translatable\":0,\"doctype\":\"DocField\"},{\"name\":\"0e4d46008b\",\"creation\":\"2021-09-03 17:39:05.742405\",\"modified\":\"2021-09-16 15:43:47.285595\",\"modified_by\":\"Administrator\",\"owner\":\"Administrator\",\"docstatus\":0,\"parent\":\"Items\",\"parentfield\":\"fields\",\"parenttype\":\"DocType\",\"idx\":4,\"fieldname\":\"whole_uom\",\"label\":\"Whole UOM\",\"fieldtype\":\"Link\",\"options\":\"UOM\",\"search_index\":0,\"hidden\":0,\"set_only_once\":0,\"allow_in_quick_entry\":0,\"print_hide\":0,\"report_hide\":0,\"reqd\":0,\"bold\":0,\"in_global_search\":0,\"collapsible\":0,\"unique\":0,\"no_copy\":0,\"allow_on_submit\":0,\"show_preview_popup\":0,\"permlevel\":0,\"ignore_user_permissions\":0,\"columns\":1,\"in_list_view\":1,\"fetch_if_empty\":0,\"in_filter\":0,\"remember_last_selected_value\":0,\"ignore_xss_filter\":0,\"print_hide_if_no_value\":0,\"allow_bulk_edit\":0,\"in_standard_filter\":0,\"in_preview\":0,\"read_only\":1,\"precision\":\"\",\"length\":0,\"translatable\":0,\"doctype\":\"DocField\"},{\"name\":\"85007b42bb\",\"creation\":\"2021-09-03 17:39:05.742405\",\"modified\":\"2021-09-16 15:43:47.285595\",\"modified_by\":\"Administrator\",\"owner\":\"Administrator\",\"docstatus\":0,\"parent\":\"Items\",\"parentfield\":\"fields\",\"parenttype\":\"DocType\",\"idx\":5,\"fieldname\":\"broken_qty\",\"label\":\"Broken Qty\",\"fieldtype\":\"Float\",\"search_index\":0,\"hidden\":0,\"set_only_once\":0,\"allow_in_quick_entry\":0,\"print_hide\":0,\"report_hide\":0,\"reqd\":0,\"bold\":0,\"in_global_search\":0,\"collapsible\":0,\"unique\":0,\"no_copy\":0,\"allow_on_submit\":0,\"show_preview_popup\":0,\"permlevel\":0,\"ignore_user_permissions\":0,\"columns\":1,\"in_list_view\":1,\"fetch_if_empty\":0,\"in_filter\":0,\"remember_last_selected_value\":0,\"ignore_xss_filter\":0,\"print_hide_if_no_value\":0,\"allow_bulk_edit\":0,\"in_standard_filter\":0,\"in_preview\":0,\"read_only\":1,\"precision\":\"\",\"length\":0,\"translatable\":0,\"doctype\":\"DocField\"},{\"name\":\"0596d4eb1b\",\"creation\":\"2021-09-03 17:39:05.742405\",\"modified\":\"2021-09-16 15:43:47.285595\",\"modified_by\":\"Administrator\",\"owner\":\"Administrator\",\"docstatus\":0,\"parent\":\"Items\",\"parentfield\":\"fields\",\"parenttype\":\"DocType\",\"idx\":6,\"fieldname\":\"broken_uom\",\"label\":\"Broken UOM\",\"fieldtype\":\"Link\",\"options\":\"UOM\",\"search_index\":0,\"hidden\":0,\"set_only_once\":0,\"allow_in_quick_entry\":0,\"print_hide\":0,\"report_hide\":0,\"reqd\":0,\"bold\":0,\"in_global_search\":0,\"collapsible\":0,\"unique\":0,\"no_copy\":0,\"allow_on_submit\":0,\"show_preview_popup\":0,\"permlevel\":0,\"ignore_user_permissions\":0,\"columns\":1,\"in_list_view\":1,\"fetch_if_empty\":0,\"in_filter\":0,\"remember_last_selected_value\":0,\"ignore_xss_filter\":0,\"print_hide_if_no_value\":0,\"allow_bulk_edit\":0,\"in_standard_filter\":0,\"in_preview\":0,\"read_only\":0,\"precision\":\"\",\"length\":0,\"translatable\":0,\"doctype\":\"DocField\"},{\"name\":\"1b1c621588\",\"creation\":\"2021-09-03 17:39:05.742405\",\"modified\":\"2021-09-16 15:43:47.285595\",\"modified_by\":\"Administrator\",\"owner\":\"Administrator\",\"docstatus\":0,\"parent\":\"Items\",\"parentfield\":\"fields\",\"parenttype\":\"DocType\",\"idx\":7,\"fieldname\":\"item_uom\",\"label\":\"Item UOM\",\"fieldtype\":\"Data\",\"options\":\"\",\"search_index\":0,\"hidden\":1,\"set_only_once\":0,\"allow_in_quick_entry\":0,\"print_hide\":0,\"report_hide\":0,\"reqd\":0,\"bold\":0,\"in_global_search\":0,\"collapsible\":0,\"unique\":0,\"no_copy\":0,\"allow_on_submit\":0,\"show_preview_popup\":0,\"permlevel\":0,\"ignore_user_permissions\":0,\"columns\":0,\"in_list_view\":0,\"fetch_if_empty\":0,\"in_filter\":0,\"remember_last_selected_value\":0,\"ignore_xss_filter\":0,\"print_hide_if_no_value\":0,\"allow_bulk_edit\":0,\"in_standard_filter\":0,\"in_preview\":0,\"read_only\":0,\"precision\":\"\",\"length\":0,\"translatable\":0,\"doctype\":\"DocField\"}],\"permissions\":[],\"__last_sync_on\":\"2021-09-16T10:53:34.497Z\",\"__unsaved\":1}"
}
Request Error
Traceback (most recent call last):
  File "/home/ubuntu/reagan-bench2/apps/frappe/frappe/app.py", line 67, in application
    response = frappe.api.handle()
  File "/home/ubuntu/reagan-bench2/apps/frappe/frappe/api.py", line 59, in handle
    return frappe.handler.handle()
  File "/home/ubuntu/reagan-bench2/apps/frappe/frappe/handler.py", line 24, in handle
    data = execute_cmd(cmd)
  File "/home/ubuntu/reagan-bench2/apps/frappe/frappe/handler.py", line 64, in execute_cmd
    return frappe.call(method, **frappe.form_dict)
  File "/home/ubuntu/reagan-bench2/apps/frappe/frappe/__init__.py", line 1075, in call
    return fn(*args, **newargs)
  File "/home/ubuntu/reagan-bench2/apps/frappe/frappe/desk/form/save.py", line 21, in savedocs
    doc.save()
  File "/home/ubuntu/reagan-bench2/apps/frappe/frappe/model/document.py", line 273, in save
    return self._save(*args, **kwargs)
  File "/home/ubuntu/reagan-bench2/apps/frappe/frappe/model/document.py", line 326, in _save
    self.run_post_save_methods()
  File "/home/ubuntu/reagan-bench2/apps/frappe/frappe/model/document.py", line 932, in run_post_save_methods
    self.run_method("on_update")
  File "/home/ubuntu/reagan-bench2/apps/frappe/frappe/model/document.py", line 802, in run_method
    out = Document.hook(fn)(self, *args, **kwargs)
  File "/home/ubuntu/reagan-bench2/apps/frappe/frappe/model/document.py", line 1081, in composer
    return composed(self, method, *args, **kwargs)
  File "/home/ubuntu/reagan-bench2/apps/frappe/frappe/model/document.py", line 1064, in runner
    add_to_return_value(self, fn(self, *args, **kwargs))
  File "/home/ubuntu/reagan-bench2/apps/frappe/frappe/model/document.py", line 796, in <lambda>
    fn = lambda self, *args, **kwargs: getattr(self, method)(*args, **kwargs)
  File "/home/ubuntu/reagan-bench2/apps/frappe/frappe/core/doctype/doctype/doctype.py", line 282, in on_update
    raise e
  File "/home/ubuntu/reagan-bench2/apps/frappe/frappe/core/doctype/doctype/doctype.py", line 279, in on_update
    frappe.db.updatedb(self.name, Meta(self))
  File "/home/ubuntu/reagan-bench2/apps/frappe/frappe/database/mariadb/database.py", line 291, in updatedb
    db_table.sync()
  File "/home/ubuntu/reagan-bench2/apps/frappe/frappe/database/schema.py", line 37, in sync
    self.alter()
  File "/home/ubuntu/reagan-bench2/apps/frappe/frappe/database/mariadb/schema.py", line 86, in alter
    raise e
  File "/home/ubuntu/reagan-bench2/apps/frappe/frappe/database/mariadb/schema.py", line 75, in alter
    frappe.db.sql(query)
  File "/home/ubuntu/reagan-bench2/apps/frappe/frappe/database/database.py", line 170, in sql
    self._cursor.execute(query)
  File "/home/ubuntu/reagan-bench2/env/lib/python3.8/site-packages/pymysql/cursors.py", line 170, in execute
    result = self._query(query)
  File "/home/ubuntu/reagan-bench2/env/lib/python3.8/site-packages/pymysql/cursors.py", line 328, in _query
    conn.query(q)
  File "/home/ubuntu/reagan-bench2/env/lib/python3.8/site-packages/pymysql/connections.py", line 517, in query
    self._affected_rows = self._read_query_result(unbuffered=unbuffered)
  File "/home/ubuntu/reagan-bench2/env/lib/python3.8/site-packages/pymysql/connections.py", line 732, in _read_query_result
    result.read()
  File "/home/ubuntu/reagan-bench2/env/lib/python3.8/site-packages/pymysql/connections.py", line 1075, in read
    first_packet = self.connection._read_packet()
  File "/home/ubuntu/reagan-bench2/env/lib/python3.8/site-packages/pymysql/connections.py", line 684, in _read_packet
    packet.check_error()
  File "/home/ubuntu/reagan-bench2/env/lib/python3.8/site-packages/pymysql/protocol.py", line 220, in check_error
    err.raise_mysql_exception(self._data)
  File "/home/ubuntu/reagan-bench2/env/lib/python3.8/site-packages/pymysql/err.py", line 109, in raise_mysql_exception
    raise errorclass(errno, errval)
pymysql.err.DataError: (1265, "Data truncated for column 'whole_qty' at row 1")
[ERROR] 2021-09-16 16:23:55,059 | /home/ubuntu/reagan-bench2/apps/frappe/frappe/utils/error.py:
New Exception collected with id: 2021-09-16 16:23:55.035577-127.0.0.1-b9d
[DEBUG] 2021-09-16 16:24:26,826 | /home/ubuntu/reagan-bench2/apps/frappe/frappe/utils/scheduler.py:
Site: reaganerp.com
Queued events for site reaganerp.com
[DEBUG] 2021-09-16 16:25:27,027 | /home/ubuntu/reagan-bench2/apps/frappe/frappe/utils/scheduler.py:
Site: reaganerp.com
Queued events for site reaganerp.com
[DEBUG] 2021-09-16 16:26:27,293 | /home/ubuntu/reagan-bench2/apps/frappe/frappe/utils/scheduler.py:
Site: reaganerp.com
Queued events for site reaganerp.com
[DEBUG] 2021-09-16 16:27:27,504 | /home/ubuntu/reagan-bench2/apps/frappe/frappe/utils/scheduler.py:
Site: reaganerp.com
Queued events for site reaganerp.com
[DEBUG] 2021-09-16 16:28:27,690 | /home/ubuntu/reagan-bench2/apps/frappe/frappe/utils/scheduler.py:
Site: reaganerp.com
Queued events for site reaganerp.com
[DEBUG] 2021-09-16 16:29:27,869 | /home/ubuntu/reagan-bench2/apps/frappe/frappe/utils/scheduler.py:
Site: reaganerp.com
Queued events for site reaganerp.com
[ERROR] 2021-09-16 16:29:45,344 | /home/ubuntu/reagan-bench2/apps/frappe/frappe/utils/error.py:
New Exception collected with id: 2021-09-16 16:29:45.329605-127.0.0.1-44a
[DEBUG] 2021-09-16 16:30:28,139 | /home/ubuntu/reagan-bench2/apps/frappe/frappe/utils/scheduler.py:
Site: reaganerp.com
Queued events for site reaganerp.com
[DEBUG] 2021-09-16 16:31:28,275 | /home/ubuntu/reagan-bench2/apps/frappe/frappe/utils/scheduler.py:
Site: reaganerp.com
Queued events for site reaganerp.com
[DEBUG] 2021-09-16 16:32:28,452 | /home/ubuntu/reagan-bench2/apps/frappe/frappe/utils/scheduler.py:
Site: reaganerp.com
Queued events for site reaganerp.com
[DEBUG] 2021-09-16 16:33:28,673 | /home/ubuntu/reagan-bench2/apps/frappe/frappe/utils/scheduler.py:
Site: reaganerp.com
Queued events for site reaganerp.com
[DEBUG] 2021-09-16 16:34:28,858 | /home/ubuntu/reagan-bench2/apps/frappe/frappe/utils/scheduler.py:
Site: reaganerp.com
Queued events for site reaganerp.com
[DEBUG] 2021-09-16 16:35:29,041 | /home/ubuntu/reagan-bench2/apps/frappe/frappe/utils/scheduler.py:
Site: reaganerp.com
Queued events for site reaganerp.com
[DEBUG] 2021-09-16 16:36:29,472 | /home/ubuntu/reagan-bench2/apps/frappe/frappe/utils/scheduler.py:
Site: reaganerp.com
Queued events for site reaganerp.com
[DEBUG] 2021-09-16 16:37:29,623 | /home/ubuntu/reagan-bench2/apps/frappe/frappe/utils/scheduler.py:
Site: reaganerp.com
Queued events for site reaganerp.com
[DEBUG] 2021-09-16 16:38:29,840 | /home/ubuntu/reagan-bench2/apps/frappe/frappe/utils/scheduler.py:
Site: reaganerp.com
Queued events for site reaganerp.com
[DEBUG] 2021-09-16 16:39:30,025 | /home/ubuntu/reagan-bench2/apps/frappe/frappe/utils/scheduler.py:
Site: reaganerp.com
Queued events for site reaganerp.com
[DEBUG] 2021-09-16 16:40:30,201 | /home/ubuntu/reagan-bench2/apps/frappe/frappe/utils/scheduler.py:
Site: reaganerp.com
Queued events for site reaganerp.com
[DEBUG] 2021-09-16 16:41:30,373 | /home/ubuntu/reagan-bench2/apps/frappe/frappe/utils/scheduler.py:
Site: reaganerp.com
Queued events for site reaganerp.com
[DEBUG] 2021-09-16 16:42:30,590 | /home/ubuntu/reagan-bench2/apps/frappe/frappe/utils/scheduler.py:
Site: reaganerp.com
Queued events for site reaganerp.com
[DEBUG] 2021-09-16 16:43:30,772 | /home/ubuntu/reagan-bench2/apps/frappe/frappe/utils/scheduler.py:
Site: reaganerp.com
Queued events for site reaganerp.com
[DEBUG] 2021-09-16 16:44:30,952 | /home/ubuntu/reagan-bench2/apps/frappe/frappe/utils/scheduler.py:
Site: reaganerp.com
Queued events for site reaganerp.com
[DEBUG] 2021-09-16 16:45:31,146 | /home/ubuntu/reagan-bench2/apps/frappe/frappe/utils/scheduler.py:
Site: reaganerp.com
Queued events for site reaganerp.com
[DEBUG] 2021-09-16 16:46:31,358 | /home/ubuntu/reagan-bench2/apps/frappe/frappe/utils/scheduler.py:
Site: reaganerp.com
Queued events for site reaganerp.com
[DEBUG] 2021-09-16 16:47:31,537 | /home/ubuntu/reagan-bench2/apps/frappe/frappe/utils/scheduler.py:
Site: reaganerp.com
Queued events for site reaganerp.com
[DEBUG] 2021-09-16 16:48:31,733 | /home/ubuntu/reagan-bench2/apps/frappe/frappe/utils/scheduler.py:
Site: reaganerp.com
Queued events for site reaganerp.com
[DEBUG] 2021-09-16 16:49:31,925 | /home/ubuntu/reagan-bench2/apps/frappe/frappe/utils/scheduler.py:
Site: reaganerp.com
Queued events for site reaganerp.com
[DEBUG] 2021-09-16 16:50:32,137 | /home/ubuntu/reagan-bench2/apps/frappe/frappe/utils/scheduler.py:
Site: reaganerp.com
Queued events for site reaganerp.com
[DEBUG] 2021-09-16 16:51:32,306 | /home/ubuntu/reagan-bench2/apps/frappe/frappe/utils/scheduler.py:
Site: reaganerp.com
Queued events for site reaganerp.com
[DEBUG] 2021-09-16 16:52:32,495 | /home/ubuntu/reagan-bench2/apps/frappe/frappe/utils/scheduler.py:
Site: reaganerp.com
Queued events for site reaganerp.com
[DEBUG] 2021-09-16 16:53:32,677 | /home/ubuntu/reagan-bench2/apps/frappe/frappe/utils/scheduler.py:
Site: reaganerp.com
Queued events for site reaganerp.com
[DEBUG] 2021-09-16 16:54:32,862 | /home/ubuntu/reagan-bench2/apps/frappe/frappe/utils/scheduler.py:
Site: reaganerp.com
Queued events for site reaganerp.com
[DEBUG] 2021-09-16 16:55:33,059 | /home/ubuntu/reagan-bench2/apps/frappe/frappe/utils/scheduler.py:
Site: reaganerp.com
Queued events for site reaganerp.com
[DEBUG] 2021-09-16 16:56:33,217 | /home/ubuntu/reagan-bench2/apps/frappe/frappe/utils/scheduler.py:
Site: reaganerp.com
Queued events for site reaganerp.com
[DEBUG] 2021-09-16 16:57:33,473 | /home/ubuntu/reagan-bench2/apps/frappe/frappe/utils/scheduler.py:
Site: reaganerp.com
Queued events for site reaganerp.com
[DEBUG] 2021-09-16 16:58:33,693 | /home/ubuntu/reagan-bench2/apps/frappe/frappe/utils/scheduler.py:
Site: reaganerp.com
Queued events for site reaganerp.com
[DEBUG] 2021-09-16 16:59:33,841 | /home/ubuntu/reagan-bench2/apps/frappe/frappe/utils/scheduler.py:
Site: reaganerp.com
Queued events for site reaganerp.com
[DEBUG] 2021-09-16 17:00:34,036 | /home/ubuntu/reagan-bench2/apps/frappe/frappe/utils/scheduler.py:
Site: reaganerp.com
Queued events for site reaganerp.com
[DEBUG] 2021-09-16 17:01:34,219 | /home/ubuntu/reagan-bench2/apps/frappe/frappe/utils/scheduler.py:
Site: reaganerp.com
Queued events for site reaganerp.com
[DEBUG] 2021-09-16 17:02:34,455 | /home/ubuntu/reagan-bench2/apps/frappe/frappe/utils/scheduler.py:
Site: reaganerp.com
Queued events for site reaganerp.com
[DEBUG] 2021-09-16 17:03:34,656 | /home/ubuntu/reagan-bench2/apps/frappe/frappe/utils/scheduler.py:
Site: reaganerp.com
Queued events for site reaganerp.com
[DEBUG] 2021-09-16 17:04:34,829 | /home/ubuntu/reagan-bench2/apps/frappe/frappe/utils/scheduler.py:
Site: reaganerp.com
Queued events for site reaganerp.com
[DEBUG] 2021-09-16 17:05:35,036 | /home/ubuntu/reagan-bench2/apps/frappe/frappe/utils/scheduler.py:
Site: reaganerp.com
Queued events for site reaganerp.com
[DEBUG] 2021-09-16 17:06:35,284 | /home/ubuntu/reagan-bench2/apps/frappe/frappe/utils/scheduler.py:
Site: reaganerp.com
Queued events for site reaganerp.com
[DEBUG] 2021-09-16 17:07:35,540 | /home/ubuntu/reagan-bench2/apps/frappe/frappe/utils/scheduler.py:
Site: reaganerp.com
Queued events for site reaganerp.com
[DEBUG] 2021-09-16 17:08:35,725 | /home/ubuntu/reagan-bench2/apps/frappe/frappe/utils/scheduler.py:
Site: reaganerp.com
Queued events for site reaganerp.com
[DEBUG] 2021-09-16 17:09:35,921 | /home/ubuntu/reagan-bench2/apps/frappe/frappe/utils/scheduler.py:
Site: reaganerp.com
Queued events for site reaganerp.com
[DEBUG] 2021-09-16 17:10:36,155 | /home/ubuntu/reagan-bench2/apps/frappe/frappe/utils/scheduler.py:
Site: reaganerp.com
Queued events for site reaganerp.com
[DEBUG] 2021-09-16 17:11:36,369 | /home/ubuntu/reagan-bench2/apps/frappe/frappe/utils/scheduler.py:
Site: reaganerp.com
Queued events for site reaganerp.com
[DEBUG] 2021-09-16 17:12:36,566 | /home/ubuntu/reagan-bench2/apps/frappe/frappe/utils/scheduler.py:
Site: reaganerp.com
Queued events for site reaganerp.com
[DEBUG] 2021-09-16 17:13:36,760 | /home/ubuntu/reagan-bench2/apps/frappe/frappe/utils/scheduler.py:
Site: reaganerp.com
Queued events for site reaganerp.com
[DEBUG] 2021-09-16 17:14:36,984 | /home/ubuntu/reagan-bench2/apps/frappe/frappe/utils/scheduler.py:
Site: reaganerp.com
Queued events for site reaganerp.com
[DEBUG] 2021-09-16 17:15:37,156 | /home/ubuntu/reagan-bench2/apps/frappe/frappe/utils/scheduler.py:
Site: reaganerp.com
Queued events for site reaganerp.com
[DEBUG] 2021-09-16 17:16:37,726 | /home/ubuntu/reagan-bench2/apps/frappe/frappe/utils/scheduler.py:
Site: reaganerp.com
Queued events for site reaganerp.com
[DEBUG] 2021-09-16 17:17:37,914 | /home/ubuntu/reagan-bench2/apps/frappe/frappe/utils/scheduler.py:
Site: reaganerp.com
Queued events for site reaganerp.com
[DEBUG] 2021-09-16 17:18:38,221 | /home/ubuntu/reagan-bench2/apps/frappe/frappe/utils/scheduler.py:
Site: reaganerp.com
Queued events for site reaganerp.com
[DEBUG] 2021-09-16 17:19:38,413 | /home/ubuntu/reagan-bench2/apps/frappe/frappe/utils/scheduler.py:
Site: reaganerp.com
Queued events for site reaganerp.com
[DEBUG] 2021-09-16 17:20:38,579 | /home/ubuntu/reagan-bench2/apps/frappe/frappe/utils/scheduler.py:
Site: reaganerp.com
Queued events for site reaganerp.com
[DEBUG] 2021-09-16 17:21:38,882 | /home/ubuntu/reagan-bench2/apps/frappe/frappe/utils/scheduler.py:
Site: reaganerp.com
Queued events for site reaganerp.com
[DEBUG] 2021-09-16 17:22:39,124 | /home/ubuntu/reagan-bench2/apps/frappe/frappe/utils/scheduler.py:
Site: reaganerp.com
Queued events for site reaganerp.com
[DEBUG] 2021-09-16 17:23:39,300 | /home/ubuntu/reagan-bench2/apps/frappe/frappe/utils/scheduler.py:
Site: reaganerp.com
Queued events for site reaganerp.com
[DEBUG] 2021-09-16 17:24:39,472 | /home/ubuntu/reagan-bench2/apps/frappe/frappe/utils/scheduler.py:
Site: reaganerp.com
Queued events for site reaganerp.com
[DEBUG] 2021-09-16 17:25:39,652 | /home/ubuntu/reagan-bench2/apps/frappe/frappe/utils/scheduler.py:
Site: reaganerp.com
Queued events for site reaganerp.com
[DEBUG] 2021-09-16 17:26:39,867 | /home/ubuntu/reagan-bench2/apps/frappe/frappe/utils/scheduler.py:
Site: reaganerp.com
Queued events for site reaganerp.com
[DEBUG] 2021-09-16 17:27:40,047 | /home/ubuntu/reagan-bench2/apps/frappe/frappe/utils/scheduler.py:
Site: reaganerp.com
Queued events for site reaganerp.com
[DEBUG] 2021-09-16 17:28:40,249 | /home/ubuntu/reagan-bench2/apps/frappe/frappe/utils/scheduler.py:
Site: reaganerp.com
Queued events for site reaganerp.com
[DEBUG] 2021-09-16 17:29:40,434 | /home/ubuntu/reagan-bench2/apps/frappe/frappe/utils/scheduler.py:
Site: reaganerp.com
Queued events for site reaganerp.com
[DEBUG] 2021-09-16 17:30:40,667 | /home/ubuntu/reagan-bench2/apps/frappe/frappe/utils/scheduler.py:
Site: reaganerp.com
Queued events for site reaganerp.com
[DEBUG] 2021-09-16 17:31:40,861 | /home/ubuntu/reagan-bench2/apps/frappe/frappe/utils/scheduler.py:
Site: reaganerp.com
Queued events for site reaganerp.com
[DEBUG] 2021-09-16 17:32:41,081 | /home/ubuntu/reagan-bench2/apps/frappe/frappe/utils/scheduler.py:
Site: reaganerp.com
Queued events for site reaganerp.com
[DEBUG] 2021-09-16 17:33:41,285 | /home/ubuntu/reagan-bench2/apps/frappe/frappe/utils/scheduler.py:
Site: reaganerp.com
Queued events for site reaganerp.com
[DEBUG] 2021-09-16 17:34:41,500 | /home/ubuntu/reagan-bench2/apps/frappe/frappe/utils/scheduler.py:
Site: reaganerp.com
Queued events for site reaganerp.com
[DEBUG] 2021-09-16 17:35:41,777 | /home/ubuntu/reagan-bench2/apps/frappe/frappe/utils/scheduler.py:
Site: reaganerp.com
Queued events for site reaganerp.com
[DEBUG] 2021-09-16 17:36:41,969 | /home/ubuntu/reagan-bench2/apps/frappe/frappe/utils/scheduler.py:
Site: reaganerp.com
Queued events for site reaganerp.com
[DEBUG] 2021-09-16 17:37:42,144 | /home/ubuntu/reagan-bench2/apps/frappe/frappe/utils/scheduler.py:
Site: reaganerp.com
Queued events for site reaganerp.com
[DEBUG] 2021-09-16 17:38:42,347 | /home/ubuntu/reagan-bench2/apps/frappe/frappe/utils/scheduler.py:
Site: reaganerp.com
Queued events for site reaganerp.com
[DEBUG] 2021-09-16 17:39:42,550 | /home/ubuntu/reagan-bench2/apps/frappe/frappe/utils/scheduler.py:
Site: reaganerp.com
Queued events for site reaganerp.com
[DEBUG] 2021-09-16 17:40:42,749 | /home/ubuntu/reagan-bench2/apps/frappe/frappe/utils/scheduler.py:
Site: reaganerp.com
Queued events for site reaganerp.com
[DEBUG] 2021-09-16 17:41:42,984 | /home/ubuntu/reagan-bench2/apps/frappe/frappe/utils/scheduler.py:
Site: reaganerp.com
Queued events for site reaganerp.com
[DEBUG] 2021-09-16 17:42:43,204 | /home/ubuntu/reagan-bench2/apps/frappe/frappe/utils/scheduler.py:
Site: reaganerp.com
Queued events for site reaganerp.com
